<?xml version="1.0" encoding="UTF-8" standalone="yes"?>
<svg viewBox="0 0 2560 960" style="fill-rule:evenodd;stroke-linecap:square;stroke-linejoin:round;stroke-width:10" height="100%" width="100%" xmlns="http://www.w3.org/2000/svg">
  <defs>
    <pattern id="pattern-line-1" width="2560" height="960" patternUnits="userSpaceOnUse">
      <path id="pattern-line-1-1" class="pattern-line-1" fill="#c0c0c0" d="M 350,360 h 20 l 350,-350 l -10,-10 v -10 h -320 l 10,10 l -200,200 l 150,150 v 10" />
      <path id="pattern-line-1-2" class="pattern-line-1" fill="#c0c0c0" d="M 1030,500 h 240 l 490,-490 l -10,-10 v -10 h -240 l 10,10 l -490,490 v 10" />
      <path id="pattern-line-1-3" class="pattern-line-1" fill="#c0c0c0" d="M 630,500 h 320 l 490,-490 l -10,-10 v -10 h -320 l 10,10 l -490,490 v 10" />
      <path id="pattern-line-1-4" class="pattern-line-1" fill="#c0c0c0" d="M 490,500 h 60 l 490,-490 l -10,-10 v -10 h -240 l 10,10 l -400,400 l 90,90 v 10" />
      <path id="pattern-line-1-5" class="pattern-line-1" fill="#000000" d="M 0,960 h 2560 v -970 h -810 l 10,10 l -490,490 v 10 h -240 l 490,-490 l -10,-10 v -10 h -80 l 10,10 l -490,490 v 10 h -320 l 490,-490 l -10,-10 v -10 h -80 l 10,10 l -490,490 v 10 h -60 l -90,-90 l 400,-400 l -10,-10 v -10 h -80 l 10,10 l -350,350 v 10 h -20 l -150,-150 l 200,-200 l -10,-10 v -10 h -390 v 970" />
    </pattern>
    <pattern id="pattern-line-2" width="2560" height="960" patternUnits="userSpaceOnUse">
      <path id="pattern-line-2-1" class="pattern-line-2" fill="#c0c0c0" d="M 360,370 h 20 l 340,-340 l -30,-30 v -10 h -320 l 30,30 l -190,190 l 150,150 v 10" />
      <path id="pattern-line-2-2" class="pattern-line-2" fill="#c0c0c0" d="M 1050,500 h 240 l 470,-470 l -30,-30 v -10 h -240 l 30,30 l -470,470 v 10" />
      <path id="pattern-line-2-3" class="pattern-line-2" fill="#c0c0c0" d="M 650,500 h 320 l 470,-470 l -30,-30 v -10 h -320 l 30,30 l -470,470 v 10" />
      <path id="pattern-line-2-4" class="pattern-line-2" fill="#c0c0c0" d="M 490,500 h 80 l 470,-470 l -30,-30 v -10 h -240 l 30,30 l -390,390 l 80,80 v 10" />
      <path id="pattern-line-2-5" class="pattern-line-2" fill="#000000" d="M 0,960 h 2560 v -970 h -830 l 30,30 l -470,470 v 10 h -240 l 470,-470 l -30,-30 v -10 h -80 l 30,30 l -470,470 v 10 h -320 l 470,-470 l -30,-30 v -10 h -80 l 30,30 l -470,470 v 10 h -80 l -80,-80 l 390,-390 l -30,-30 v -10 h -80 l 30,30 l -340,340 v 10 h -20 l -150,-150 l 190,-190 l -30,-30 v -10 h -370 v 970" />
    </pattern>
    <pattern id="pattern-line-3" width="2560" height="960" patternUnits="userSpaceOnUse">
      <rect id="pattern-line-3-1" class="pattern-line-3" fill="#000000" x="0" y="0" width="2560" height="960" />
      <rect id="pattern-line-3-2" class="pattern-line-3" fill="#c0c0c0" x="980" y="-10" width="10" height="10" />
      <rect id="pattern-line-3-3" class="pattern-line-3" fill="#c0c0c0" x="970" y="0" width="10" height="10" />
      <rect id="pattern-line-3-4" class="pattern-line-3" fill="#c0c0c0" x="960" y="10" width="10" height="10" />
      <rect id="pattern-line-3-5" class="pattern-line-3" fill="#c0c0c0" x="950" y="20" width="10" height="10" />
      <rect id="pattern-line-3-6" class="pattern-line-3" fill="#c0c0c0" x="940" y="30" width="10" height="10" />
      <rect id="pattern-line-3-7" class="pattern-line-3" fill="#c0c0c0" x="930" y="40" width="10" height="10" />
      <rect id="pattern-line-3-8" class="pattern-line-3" fill="#c0c0c0" x="920" y="50" width="10" height="10" />
      <rect id="pattern-line-3-9" class="pattern-line-3" fill="#c0c0c0" x="910" y="60" width="10" height="10" />
      <rect id="pattern-line-3-10" class="pattern-line-3" fill="#c0c0c0" x="900" y="70" width="10" height="10" />
      <rect id="pattern-line-3-11" class="pattern-line-3" fill="#c0c0c0" x="890" y="80" width="10" height="10" />
      <rect id="pattern-line-3-12" class="pattern-line-3" fill="#c0c0c0" x="880" y="90" width="10" height="10" />
      <rect id="pattern-line-3-13" class="pattern-line-3" fill="#c0c0c0" x="870" y="100" width="10" height="10" />
      <rect id="pattern-line-3-14" class="pattern-line-3" fill="#c0c0c0" x="860" y="110" width="10" height="10" />
      <rect id="pattern-line-3-15" class="pattern-line-3" fill="#c0c0c0" x="850" y="120" width="10" height="10" />
      <rect id="pattern-line-3-16" class="pattern-line-3" fill="#c0c0c0" x="840" y="130" width="10" height="10" />
      <rect id="pattern-line-3-17" class="pattern-line-3" fill="#c0c0c0" x="830" y="140" width="10" height="10" />
      <rect id="pattern-line-3-18" class="pattern-line-3" fill="#c0c0c0" x="820" y="150" width="10" height="10" />
      <rect id="pattern-line-3-19" class="pattern-line-3" fill="#c0c0c0" x="810" y="160" width="10" height="10" />
      <rect id="pattern-line-3-20" class="pattern-line-3" fill="#c0c0c0" x="800" y="170" width="10" height="10" />
      <rect id="pattern-line-3-21" class="pattern-line-3" fill="#c0c0c0" x="790" y="180" width="10" height="10" />
      <rect id="pattern-line-3-22" class="pattern-line-3" fill="#c0c0c0" x="780" y="190" width="10" height="10" />
      <rect id="pattern-line-3-23" class="pattern-line-3" fill="#c0c0c0" x="770" y="200" width="10" height="10" />
      <rect id="pattern-line-3-24" class="pattern-line-3" fill="#c0c0c0" x="760" y="210" width="10" height="10" />
      <rect id="pattern-line-3-25" class="pattern-line-3" fill="#c0c0c0" x="750" y="220" width="10" height="10" />
      <rect id="pattern-line-3-26" class="pattern-line-3" fill="#c0c0c0" x="740" y="230" width="10" height="10" />
      <rect id="pattern-line-3-27" class="pattern-line-3" fill="#c0c0c0" x="730" y="240" width="10" height="10" />
      <rect id="pattern-line-3-28" class="pattern-line-3" fill="#c0c0c0" x="720" y="250" width="10" height="10" />
      <rect id="pattern-line-3-29" class="pattern-line-3" fill="#c0c0c0" x="710" y="260" width="10" height="10" />
      <rect id="pattern-line-3-30" class="pattern-line-3" fill="#c0c0c0" x="700" y="270" width="10" height="10" />
      <rect id="pattern-line-3-31" class="pattern-line-3" fill="#c0c0c0" x="690" y="280" width="10" height="10" />
      <rect id="pattern-line-3-32" class="pattern-line-3" fill="#c0c0c0" x="680" y="290" width="10" height="10" />
      <rect id="pattern-line-3-33" class="pattern-line-3" fill="#c0c0c0" x="670" y="300" width="10" height="10" />
      <rect id="pattern-line-3-34" class="pattern-line-3" fill="#c0c0c0" x="660" y="310" width="10" height="10" />
      <rect id="pattern-line-3-35" class="pattern-line-3" fill="#c0c0c0" x="650" y="320" width="10" height="10" />
      <rect id="pattern-line-3-36" class="pattern-line-3" fill="#c0c0c0" x="640" y="330" width="10" height="10" />
      <rect id="pattern-line-3-37" class="pattern-line-3" fill="#c0c0c0" x="630" y="340" width="10" height="10" />
      <rect id="pattern-line-3-38" class="pattern-line-3" fill="#c0c0c0" x="620" y="350" width="10" height="10" />
      <rect id="pattern-line-3-39" class="pattern-line-3" fill="#c0c0c0" x="610" y="360" width="10" height="10" />
      <rect id="pattern-line-3-40" class="pattern-line-3" fill="#c0c0c0" x="600" y="370" width="10" height="10" />
      <rect id="pattern-line-3-41" class="pattern-line-3" fill="#c0c0c0" x="590" y="380" width="10" height="10" />
      <rect id="pattern-line-3-42" class="pattern-line-3" fill="#c0c0c0" x="580" y="390" width="10" height="10" />
      <rect id="pattern-line-3-43" class="pattern-line-3" fill="#c0c0c0" x="570" y="400" width="10" height="10" />
      <rect id="pattern-line-3-44" class="pattern-line-3" fill="#c0c0c0" x="560" y="410" width="10" height="10" />
      <rect id="pattern-line-3-45" class="pattern-line-3" fill="#c0c0c0" x="550" y="420" width="10" height="10" />
      <path id="pattern-line-3-46" class="pattern-line-3" fill="#c0c0c0" d="M 20,960 h 280 l 350,-350 l -10,-10 v -20 l -100,-100 l 10,-10 h 10 v -20 h -10 v -20 l -530,530" />
    </pattern>
    <pattern id="pattern-line-4" width="2560" height="960" patternUnits="userSpaceOnUse">
      <path id="pattern-line-4-1" class="pattern-line-4" fill="#000000" d="M 540,240 l 250,-250 h -490 l 240,240 v 10" />
      <path id="pattern-line-4-2" class="pattern-line-4" fill="#000000" d="M 510,490 h 20 l 10,-10 l 10,10 l 30,-30 v -20 l -20,-20 h -20 l -20,-20 v -20 h -20 l -50,50 l 20,20 v 10 h 20 l 20,20 v 10" />
      <path id="pattern-line-4-3" class="pattern-line-4" fill="#000000" d="M 0,840 l 490,-490 l -10,-10 h -10 v -20 h 10 v -20 l 20,-20 h -10 v -20 h -20 l -260,-260 v -10 h -210 v 850" />
      <path id="pattern-line-4-4" class="pattern-line-4" fill="#000000" d="M 1160,960 h 1400 v -970 h -1730 l -260,260 v 30 h -10 v 20 l 10,10 h -10 v 20 l 10,10 h -20 l 610,610 v 10" />
      <path id="pattern-line-4-5" class="pattern-line-4" fill="#c0c0c0" d="M 0,960 h 1160 l -610,-610 v -10 h 20 l -10,-10 v -20 l 10,-10 h -10 v -20 h 10 v -30 l 260,-260 h -40 l -250,250 l -240,-240 v -10 h -90 l 260,260 v 10 h 20 v 20 l 10,10 l -10,10 h -10 v 20 h -10 v 20 l 20,20 l -480,480 h -10 v 120
    M 570,440 h 10 v 20 l -30,30 l -10,-10 l -10,10 h -20 l -20,-20 v -10 h -20 l -20,-20 l 50,-50 v -10 h 20 v 20 l 20,20 h 20 l 10,10 v 10" />
    </pattern>
    <pattern id="pattern-line-6" width="2560" height="960" patternUnits="userSpaceOnUse">
      <rect id="pattern-line-6-1" class="pattern-line-6" fill="#000000" x="0" y="0" width="2560" height="960" />
      <path id="pattern-line-6-2" class="pattern-line-6" fill="#c0c0c0" d="M 490,300 l 310,-310 h -180 l -220,220 l 10,10 v 40 l 20,20 h 20 v 10 h 40 v 10" />
    </pattern>
    <pattern id="pattern-line-10" width="2560" height="960" patternUnits="userSpaceOnUse">
      <rect id="pattern-line-10-1" class="pattern-line-10" fill="#c0c0c0" x="0" y="0" width="2560" height="960" />
      <path id="pattern-line-10-2" class="pattern-line-10" fill="#000000" d="M 0,960 h 1490 l -820,-820 v 10 h -40 l -630,630 v 180" />
    </pattern>
    <pattern id="pattern-line-11" width="2560" height="960" patternUnits="userSpaceOnUse">
      <rect id="pattern-line-11-1" class="pattern-line-11" fill="#c0c0c0" x="0" y="0" width="2560" height="960" />
      <path id="pattern-line-11-2" class="pattern-line-11" fill="#000000" d="M 0,960 h 1440 l -730,-730 v -20 l 220,-220 h -930 v 970" />
    </pattern>
    <pattern id="pattern-line-16" width="2560" height="960" patternUnits="userSpaceOnUse">
      <rect id="pattern-line-16-1" class="pattern-line-16" fill="#c0c0c0" x="0" y="0" width="2560" height="960" />
      <path id="pattern-line-16-2" class="pattern-line-16" fill="#000000" d="M 0,960 h 1420 l -640,-640 l -10,10 l -330,-330 v -10 h -440 v 970" />
    </pattern>
    <pattern id="pattern-line-19" width="2560" height="960" patternUnits="userSpaceOnUse">
      <rect id="pattern-line-19-1" class="pattern-line-19" fill="#000000" x="0" y="0" width="2560" height="960" />
      <path id="pattern-line-19-2" class="pattern-line-19" fill="#c0c0c0" d="M 980,640 l 20,-20 h -10 v -20 l 20,-20 l -20,-20 l 10,-10 l -40,-40 l 520,-520 h -120 l -460,460 v 20 h 10 v 20 l -20,20 l 10,10 l -20,20 l 100,100" />
    </pattern>
    <pattern id="pattern-line-20" width="2560" height="960" patternUnits="userSpaceOnUse">
      <rect id="pattern-line-20-1" class="pattern-line-20" fill="#000000" x="0" y="0" width="2560" height="960" />
      <path id="pattern-line-20-2" class="pattern-line-20" fill="#c0c0c0" d="M 450,960 h 1000 l -490,-490 v -10 h -20 l -40,40 l -20,-20 l -10,10 v 50 l -420,420" />
      <path id="pattern-line-20-3" class="pattern-line-20" fill="#c0c0c0" d="M 200,960 h 100 l 490,-490 v -10 h 20 l 10,10 v 10 h 20 l 10,-10 l 10,10 v -10 h 20 l 20,-20 l -30,-30 v -30 l 10,-10 h 10 v -70 h -20 l -20,20 v -20 l -10,10 h -20 l -320,-320 v -10 h -30 l 330,330 v 40 l -600,600" />
    </pattern>
    <pattern id="pattern-line-22" width="2560" height="960" patternUnits="userSpaceOnUse">
      <rect id="pattern-line-22-1" class="pattern-line-22" fill="#000000" x="0" y="0" width="2560" height="960" />
      <path id="pattern-line-22-2" class="pattern-line-22" fill="#c0c0c0" d="M 720,320 l 30,-30 h 30 v 10 h 20 v 10 h 40 l 10,10 l 320,-320 v -10 h -770 l 320,320 v 10" />
    </pattern>
    <pattern id="pattern-line-26" width="2560" height="960" patternUnits="userSpaceOnUse">
      <rect id="pattern-line-26-1" class="pattern-line-26" fill="#c0c0c0" x="0" y="0" width="2560" height="960" />
      <path id="pattern-line-26-2" class="pattern-line-26" fill="#000000" d="M 1800,960 h 50 l -800,-800 v 10 h -20 l -10,-10 v 20 l 780,780" />
    </pattern>
    <pattern id="pattern-line-35" width="2560" height="960" patternUnits="userSpaceOnUse">
      <rect id="pattern-line-35-1" class="pattern-line-35" fill="#000000" x="0" y="0" width="2560" height="960" />
      <rect id="pattern-line-35-2" class="pattern-line-35" fill="#c0c0c0" x="1700" y="-10" width="10" height="10" />
      <rect id="pattern-line-35-3" class="pattern-line-35" fill="#c0c0c0" x="1690" y="0" width="10" height="10" />
      <rect id="pattern-line-35-4" class="pattern-line-35" fill="#c0c0c0" x="1680" y="10" width="10" height="10" />
      <rect id="pattern-line-35-5" class="pattern-line-35" fill="#c0c0c0" x="1670" y="20" width="10" height="10" />
      <rect id="pattern-line-35-6" class="pattern-line-35" fill="#c0c0c0" x="1660" y="30" width="10" height="10" />
      <rect id="pattern-line-35-7" class="pattern-line-35" fill="#c0c0c0" x="1650" y="40" width="10" height="10" />
      <rect id="pattern-line-35-8" class="pattern-line-35" fill="#c0c0c0" x="1640" y="50" width="10" height="10" />
      <rect id="pattern-line-35-9" class="pattern-line-35" fill="#c0c0c0" x="1630" y="60" width="10" height="10" />
      <rect id="pattern-line-35-10" class="pattern-line-35" fill="#c0c0c0" x="1620" y="70" width="10" height="10" />
      <rect id="pattern-line-35-11" class="pattern-line-35" fill="#c0c0c0" x="1610" y="80" width="10" height="10" />
      <rect id="pattern-line-35-12" class="pattern-line-35" fill="#c0c0c0" x="1600" y="90" width="10" height="10" />
      <rect id="pattern-line-35-13" class="pattern-line-35" fill="#c0c0c0" x="1590" y="100" width="10" height="10" />
      <rect id="pattern-line-35-14" class="pattern-line-35" fill="#c0c0c0" x="1580" y="110" width="10" height="10" />
      <rect id="pattern-line-35-15" class="pattern-line-35" fill="#c0c0c0" x="1570" y="120" width="10" height="10" />
      <rect id="pattern-line-35-16" class="pattern-line-35" fill="#c0c0c0" x="1560" y="130" width="10" height="10" />
      <rect id="pattern-line-35-17" class="pattern-line-35" fill="#c0c0c0" x="1550" y="140" width="10" height="10" />
      <rect id="pattern-line-35-18" class="pattern-line-35" fill="#c0c0c0" x="1540" y="150" width="10" height="10" />
      <rect id="pattern-line-35-19" class="pattern-line-35" fill="#c0c0c0" x="1530" y="160" width="10" height="10" />
      <rect id="pattern-line-35-20" class="pattern-line-35" fill="#c0c0c0" x="1520" y="170" width="10" height="10" />
      <rect id="pattern-line-35-21" class="pattern-line-35" fill="#c0c0c0" x="1510" y="180" width="10" height="10" />
      <rect id="pattern-line-35-22" class="pattern-line-35" fill="#c0c0c0" x="1500" y="190" width="10" height="10" />
      <rect id="pattern-line-35-23" class="pattern-line-35" fill="#c0c0c0" x="1490" y="200" width="10" height="10" />
      <rect id="pattern-line-35-24" class="pattern-line-35" fill="#c0c0c0" x="1480" y="210" width="10" height="10" />
      <rect id="pattern-line-35-25" class="pattern-line-35" fill="#c0c0c0" x="1470" y="220" width="10" height="10" />
      <rect id="pattern-line-35-26" class="pattern-line-35" fill="#c0c0c0" x="1460" y="230" width="10" height="10" />
      <rect id="pattern-line-35-27" class="pattern-line-35" fill="#c0c0c0" x="1450" y="240" width="10" height="10" />
      <rect id="pattern-line-35-28" class="pattern-line-35" fill="#c0c0c0" x="1440" y="250" width="10" height="10" />
      <rect id="pattern-line-35-29" class="pattern-line-35" fill="#c0c0c0" x="1430" y="260" width="10" height="10" />
      <rect id="pattern-line-35-30" class="pattern-line-35" fill="#c0c0c0" x="1420" y="270" width="10" height="10" />
      <rect id="pattern-line-35-31" class="pattern-line-35" fill="#c0c0c0" x="1410" y="280" width="10" height="10" />
      <rect id="pattern-line-35-32" class="pattern-line-35" fill="#c0c0c0" x="1400" y="290" width="10" height="10" />
      <rect id="pattern-line-35-33" class="pattern-line-35" fill="#c0c0c0" x="1390" y="300" width="10" height="10" />
      <rect id="pattern-line-35-34" class="pattern-line-35" fill="#c0c0c0" x="1380" y="310" width="10" height="10" />
      <rect id="pattern-line-35-35" class="pattern-line-35" fill="#c0c0c0" x="1370" y="320" width="10" height="10" />
      <rect id="pattern-line-35-36" class="pattern-line-35" fill="#c0c0c0" x="1360" y="330" width="10" height="10" />
      <rect id="pattern-line-35-37" class="pattern-line-35" fill="#c0c0c0" x="1350" y="340" width="10" height="10" />
      <rect id="pattern-line-35-38" class="pattern-line-35" fill="#c0c0c0" x="1340" y="350" width="10" height="10" />
      <rect id="pattern-line-35-39" class="pattern-line-35" fill="#c0c0c0" x="1330" y="360" width="10" height="10" />
      <rect id="pattern-line-35-40" class="pattern-line-35" fill="#c0c0c0" x="1320" y="370" width="10" height="10" />
      <rect id="pattern-line-35-41" class="pattern-line-35" fill="#c0c0c0" x="1310" y="380" width="10" height="10" />
      <rect id="pattern-line-35-42" class="pattern-line-35" fill="#c0c0c0" x="1300" y="390" width="10" height="10" />
      <rect id="pattern-line-35-43" class="pattern-line-35" fill="#c0c0c0" x="1290" y="400" width="10" height="10" />
      <rect id="pattern-line-35-44" class="pattern-line-35" fill="#c0c0c0" x="1280" y="410" width="10" height="10" />
      <rect id="pattern-line-35-45" class="pattern-line-35" fill="#c0c0c0" x="1270" y="420" width="10" height="10" />
      <path id="pattern-line-35-46" class="pattern-line-35" fill="#c0c0c0" d="M 740,960 h 280 l 350,-350 l -10,-10 v -20 l -100,-100 l 10,-10 h 10 v -20 h -10 v -20 l -530,530" />
    </pattern>
    <pattern id="pattern-line-36" width="2560" height="960" patternUnits="userSpaceOnUse">
      <path id="pattern-line-36-1" class="pattern-line-36" fill="#000000" d="M 1260,240 l 250,-250 h -490 l 240,240 v 10" />
      <path id="pattern-line-36-2" class="pattern-line-36" fill="#000000" d="M 1230,490 h 20 l 10,-10 l 10,10 l 30,-30 v -20 l -20,-20 h -20 l -20,-20 v -20 h -20 l -50,50 l 20,20 v 10 h 20 l 20,20 v 10" />
      <path id="pattern-line-36-3" class="pattern-line-36" fill="#000000" d="M 1880,960 h 680 v -970 h -1010 l -260,260 v 30 h -10 v 20 l 10,10 h -10 v 20 l 10,10 h -20 l 610,610 v 10" />
      <path id="pattern-line-36-4" class="pattern-line-36" fill="#c0c0c0" d="M 610,960 h 1270 l -610,-610 v -10 h 20 l -10,-10 v -20 l 10,-10 h -10 v -20 h 10 v -30 l 260,-260 h -40 l -250,250 l -240,-240 v -10 h -90 l 260,260 v 10 h 20 v 20 l 10,10 l -10,10 h -10 v 20 h -10 v 20 l 20,20 l -600,600
    M 1290,440 h 10 v 20 l -30,30 l -10,-10 l -10,10 h -20 l -20,-20 v -10 h -20 l -20,-20 l 50,-50 v -10 h 20 v 20 l 20,20 h 20 l 10,10 v 10" />
      <path id="pattern-line-36-5" class="pattern-line-36" fill="#000000" d="M 0,960 h 610 l 600,-600 l -20,-20 v -20 h 10 v -20 l 20,-20 h -10 v -20 h -20 l -260,-260 v -10 h -930 v 970" />
    </pattern>
    <pattern id="pattern-line-38" width="2560" height="960" patternUnits="userSpaceOnUse">
      <rect id="pattern-line-38-1" class="pattern-line-38" fill="#000000" x="0" y="0" width="2560" height="960" />
      <path id="pattern-line-38-2" class="pattern-line-38" fill="#c0c0c0" d="M 1210,300 l 310,-310 h -180 l -220,220 l 10,10 v 40 l 20,20 h 20 v 10 h 40 v 10" />
    </pattern>
    <pattern id="pattern-line-42" width="2560" height="960" patternUnits="userSpaceOnUse">
      <rect id="pattern-line-42-1" class="pattern-line-42" fill="#c0c0c0" x="0" y="0" width="2560" height="960" />
      <path id="pattern-line-42-2" class="pattern-line-42" fill="#000000" d="M 550,960 h 1660 l -820,-820 v 10 h -40 l -800,800 v 10" />
    </pattern>
    <pattern id="pattern-line-43" width="2560" height="960" patternUnits="userSpaceOnUse">
      <path id="pattern-line-43-1" class="pattern-line-43" fill="#c0c0c0" d="M 2160,960 h 400 v -970 h -910 l -220,220 v 20 l 730,730" />
      <path id="pattern-line-43-2" class="pattern-line-43" fill="#000000" d="M 0,960 h 2160 l -730,-730 v -20 l 220,-220 h -1650 v 970" />
    </pattern>
    <pattern id="pattern-line-48" width="2560" height="960" patternUnits="userSpaceOnUse">
      <path id="pattern-line-48-1" class="pattern-line-48" fill="#c0c0c0" d="M 2140,960 h 420 v -970 h -1400 l 340,340 l 10,-10 l 630,630 v 10" />
      <path id="pattern-line-48-2" class="pattern-line-48" fill="#000000" d="M 0,960 h 2140 l -640,-640 l -10,10 l -330,-330 v -10 h -1160 v 970" />
    </pattern>
    <pattern id="pattern-line-52" width="2560" height="960" patternUnits="userSpaceOnUse">
      <rect id="pattern-line-52-1" class="pattern-line-52" fill="#000000" x="0" y="0" width="2560" height="960" />
      <path id="pattern-line-52-2" class="pattern-line-52" fill="#c0c0c0" d="M 930,960 h 80 l 490,-490 v -10 h 20 l 10,10 v 10 h 20 l 10,-10 l 10,10 l 10,-10 v 20 l 10,-10 l 20,20 l 30,-30 h 10 v -20 l -50,-50 h -10 v -20 h 10 v -70 h -20 l -20,20 v -20 l -10,10 h -30 l 10,10 v 30 l -600,600" />
    </pattern>
    <pattern id="pattern-line-53" width="2560" height="960" patternUnits="userSpaceOnUse">
      <path id="pattern-line-53-1" class="pattern-line-53" fill="#c0c0c0" d="M 990,960 h 1570 v -970 h -1450 l 420,420 l -540,540 v 10" />
      <path id="pattern-line-53-2" class="pattern-line-53" fill="#000000" d="M 0,960 h 990 l 540,-540 l -420,-420 v -10 h -1110 v 970" />
    </pattern>
    <pattern id="pattern-line-54" width="2560" height="960" patternUnits="userSpaceOnUse">
      <rect id="pattern-line-54-1" class="pattern-line-54" fill="#000000" x="0" y="0" width="2560" height="960" />
      <path id="pattern-line-54-2" class="pattern-line-54" fill="#c0c0c0" d="M 1550,320 l 330,-330 h -700 l 290,290 v 10 h 20 v 10 h 20 v 10 h 40 v 10" />
    </pattern>
    <pattern id="pattern-line-59" width="2560" height="960" patternUnits="userSpaceOnUse">
      <path id="pattern-line-59-1" class="pattern-line-59" fill="#c0c0c0" d="M 2430,960 h 130 v -970 h -1110 l 250,250 v 10 h 30 l 700,700 v 10" />
      <path id="pattern-line-59-2" class="pattern-line-59" fill="#000000" d="M 0,960 h 2430 l -700,-700 v -10 h -30 l -250,-250 v -10 h -1450 v 970" />
    </pattern>
    <pattern id="pattern-line-60" width="2560" height="960" patternUnits="userSpaceOnUse">
      <path id="pattern-line-60-1" class="pattern-line-60" fill="#c0c0c0" d="M 2370,960 h 190 v -970 h -1150 l 960,960 v 10" />
      <path id="pattern-line-60-2" class="pattern-line-60" fill="#000000" d="M 0,960 h 2370 l -960,-960 v -10 h -1410 v 970" />
    </pattern>
    <pattern id="pattern-line-63" width="2560" height="960" patternUnits="userSpaceOnUse">
      <path id="pattern-line-63-1" class="pattern-line-63" fill="#c0c0c0" d="M 2340,960 h 220 v -970 h -1180 l 960,960 v 10" />
      <path id="pattern-line-63-2" class="pattern-line-63" fill="#000000" d="M 0,960 h 2340 l -960,-960 v -10 h -1380 v 970" />
    </pattern>
    <pattern id="pattern-line-64" width="2560" height="960" patternUnits="userSpaceOnUse">
      <path id="pattern-line-64-1" class="pattern-line-64" fill="#c0c0c0" d="M 2360,960 h 200 v -970 h -1180 l 420,420 l 10,-10 l 550,550 v 10" />
      <path id="pattern-line-64-2" class="pattern-line-64" fill="#000000" d="M 0,960 h 2360 l -560,-560 l -10,10 l -410,-410 v -10 h -1380 v 970" />
    </pattern>
    <pattern id="pattern-line-67" width="2560" height="960" patternUnits="userSpaceOnUse">
      <rect id="pattern-line-67-1" class="pattern-line-67" fill="#000000" x="0" y="0" width="2560" height="960" />
      <path id="pattern-line-67-2" class="pattern-line-67" fill="#c0c0c0" d="M 1590,960 h 220 l 250,-250 l -10,-10 v -20 h 10 v -20 l -60,-60 l 10,-10 l -30,-30 h -20 l -40,40 l 10,10 l -340,340 v 10" />
    </pattern>
    <pattern id="pattern-line-68" width="2560" height="960" patternUnits="userSpaceOnUse">
      <rect id="pattern-line-68-1" class="pattern-line-68" fill="#000000" x="0" y="0" width="2560" height="960" />
      <path id="pattern-line-68-2" class="pattern-line-68" fill="#c0c0c0" d="M 1300,960 h 100 l 490,-490 l 10,10 v -10 h 20 l 10,10 l 10,-10 l 60,60 v 20 l -30,30 l -20,-20 l -10,10 h -10 v 50 l -340,340 h 940 l -530,-530 v -40 l -10,10 l -10,-10 h -10 v 20 l -20,-20 h -20 l -20,20 v -40 h 10 v -20 l 20,-20 h -10 v -20 l -320,-320 h -160 l 400,400 v 20 l -550,550" />
    </pattern>
    <pattern id="pattern-line-69" width="2560" height="960" patternUnits="userSpaceOnUse">
      <rect id="pattern-line-69-1" class="pattern-line-69" fill="#000000" x="0" y="0" width="2560" height="960" />
      <path id="pattern-line-69-2" class="pattern-line-69" fill="#c0c0c0" d="M 1900,500 l 510,-510 h -1010 l 500,500 v 10" />
    </pattern>
    <pattern id="pattern-line-70" width="2560" height="960" patternUnits="userSpaceOnUse">
      <path id="pattern-line-70-1" class="pattern-line-70" fill="#c0c0c0" d="M 1340,960 h 1220 v -970 h -1180 l 410,410 l 20,-20 v -10 h 30 v 10 h 20 v 10 h 40 l -560,560 v 10" />
      <path id="pattern-line-70-2" class="pattern-line-70" fill="#000000" d="M 0,960 h 1340 l 560,-560 v -10 h -40 v -10 h -20 v -10 h -30 l -30,30 l -400,-400 v -10 h -1380 v 970" />
    </pattern>
    <pattern id="pattern-line-75" width="2560" height="960" patternUnits="userSpaceOnUse">
      <rect id="pattern-line-75-1" class="pattern-line-75" fill="#000000" x="0" y="0" width="2560" height="960" />
      <path id="pattern-line-75-2" class="pattern-line-75" fill="#c0c0c0" d="M 2550,850 h 10 v -860 h -910 l 400,400 v 10 h 20 l 10,10 l 10,-10 l 10,10 l 10,-10 l 440,440 v 10" />
    </pattern>
    <pattern id="pattern-line-80" width="2560" height="960" patternUnits="userSpaceOnUse">
      <rect id="pattern-line-80-1" class="pattern-line-80" fill="#000000" x="0" y="0" width="2560" height="960" />
      <path id="pattern-line-80-2" class="pattern-line-80" fill="#c0c0c0" d="M 2550,870 h 10 v -880 h -870 l 470,470 v 20 l 390,390" />
    </pattern>
    <pattern id="pattern-line-83" width="2560" height="960" patternUnits="userSpaceOnUse">
      <rect id="pattern-line-83-1" class="pattern-line-83" fill="#000000" x="0" y="0" width="2560" height="960" />
      <path id="pattern-line-83-2" class="pattern-line-83" fill="#c0c0c0" d="M 1850,960 h 340 l 210,-210 l -10,-10 v -30 l -70,-70 l 20,-20 l -30,-30 h -10 v -20 l 250,-250 h 10 v -120 l -400,400 l 10,10 h 10 v 20 l -330,330" />
    </pattern>
    <pattern id="pattern-line-84" width="2560" height="960" patternUnits="userSpaceOnUse">
      <rect id="pattern-line-84-1" class="pattern-line-84" fill="#c0c0c0" x="0" y="0" width="2560" height="960" />
      <path id="pattern-line-84-2" class="pattern-line-84" fill="#000000" d="M 1720,960 h 260 l 320,-320 l 260,260 v -910 h -740 l 400,400 v 10 h 20 v 20 h 10 v 30 l 10,10 l -20,20 h -20 v -10 h -20 l -480,480 v 10" />
    </pattern>
    <pattern id="pattern-line-85" width="2560" height="960" patternUnits="userSpaceOnUse">
      <rect id="pattern-line-85-1" class="pattern-line-85" fill="#000000" x="0" y="0" width="2560" height="960" />
      <path id="pattern-line-85-2" class="pattern-line-85" fill="#c0c0c0" d="M 1820,960 h 740 v -730 l -310,310 h -20 l -410,410 v 10" />
    </pattern>
    <pattern id="pattern-line-86" width="2560" height="960" patternUnits="userSpaceOnUse">
      <rect id="pattern-line-86-1" class="pattern-line-86" fill="#000000" x="0" y="0" width="2560" height="960" />
      <path id="pattern-line-86-2" class="pattern-line-86" fill="#c0c0c0" d="M 2240,440 l 310,-310 h 10 v -140 h -840 l 410,410 v -10 h 20 l 10,10 v 10 h 20 v 10 h 20 v 10 h 40 v 10" />
    </pattern>
    <pattern id="pattern-line-90" width="2560" height="960" patternUnits="userSpaceOnUse">
      <rect id="pattern-line-90-1" class="pattern-line-90" fill="#c0c0c0" x="0" y="0" width="2560" height="960" />
      <path id="pattern-line-90-2" class="pattern-line-90" fill="#000000" d="M 1720,960 h 840 v -510 l -160,-160 h -20 l -660,660 v 10" />
    </pattern>
  </defs>
  <rect id="block-1" class="block" fill="#c0c0c0" x="0" y="0" width="2560" height="960" />
  <rect id="block-2" class="block" fill="#000000" x="1200" y="240" width="80" height="160" />
  <rect id="block-3" class="block" fill="#000000" x="480" y="240" width="80" height="160" />
  <path id="block-4" class="block" fill="#000000" d="M 1840,480 h 160 v -80 h -80 v -160 h 80 v 80 h 80 v 80 h 80 v 80 h 80 v -240 h 80 v 80 h 160 v -80 h -80 v -80 h -320 v -80 h -320 v -80 h -240 v 80 h -80 v -80 h -320 v 80 h -80 v -80 h -240 v 80 h -80 v -80 h -320 v 240 h 80 v -80 h 240 v 160 h 80 v -80 h 80 v -80 h 80 v 80 h 80 v -80 h 80 v 80 h 80 v -80 h 240 v 160 h 80 v -80 h 80 v -80 h 80 v 80 h 80 v 160 h 80 v 80" />
  <rect id="block-5" class="block" fill="#000000" x="1520" y="320" width="80" height="160" />
  <rect id="block-6" class="block" fill="#000000" x="800" y="320" width="80" height="160" />
  <rect id="block-7" class="block" fill="#000000" x="1200" y="480" width="80" height="80" />
  <rect id="block-8" class="block" fill="#000000" x="880" y="480" width="80" height="80" />
  <rect id="block-9" class="block" fill="#000000" x="480" y="480" width="80" height="80" />
  <rect id="block-10" class="block" fill="#000000" x="2160" y="560" width="80" height="80" />
  <rect id="block-11" class="block" fill="#000000" x="1920" y="560" width="80" height="80" />
  <rect id="block-12" class="block" fill="#000000" x="2240" y="640" width="80" height="80" />
  <path id="line-1" class="line closed" fill="none" stroke="url(#pattern-line-1)" d="M 15,1005 h 2540 v -1000 h -2550 v 1000 Z" />
  <path id="line-2" class="line closed" fill="none" stroke="url(#pattern-line-2)" d="M 35,985 h 2500 v -960 h -2510 v 960 Z" />
  <path id="line-3" class="line" fill="none" stroke="url(#pattern-line-3)" d="M 355,435 l 30,10 l 40,10 h 20 l 40,40 l 20,10 l 30,10 l 50,-10 l 30,-10 h 50 l 40,10 l 40,20" />
  <path id="line-4" class="line" fill="none" stroke="url(#pattern-line-4)" d="M 495,485 l 10,-20 l -10,-40 l -10,-50 l -60,-60 l 30,10 v -20 h 10 l 10,-20 l 20,60 l 10,10 l 20,-10 v -30 l -10,-40 l -20,-30 l 30,20 v -10 l 10,10 l 10,-30 v 70 l 10,20 h 10 l 20,-50 v 10 l 10,10 l 20,-10 v -10 l 20,10 l -50,40 l -20,20 l -10,20 l -20,20 l -10,30 l 20,100" />
  <path id="line-5" class="line" fill="none" stroke="#000000" d="M 485,425 h -10 l -10,-10 l -10,-20 l 20,-20" />
  <path id="line-6" class="line" fill="none" stroke="url(#pattern-line-6)" d="M 445,365 h -10 l -30,-20 l -20,-20 l -10,-30 v -50 l 10,-20 l 20,-10 h 10 l 20,20" />
  <path id="line-7" class="line" fill="none" stroke="#c0c0c0" d="M 405,205 v -10 l 20,-20 l 10,-20 h 10 l 30,10" />
  <path id="line-8" class="line" fill="none" stroke="#c0c0c0" d="M 415,165 v -40 l 20,-30 h 20 l 20,10 v 10" />
  <path id="line-9" class="line" fill="none" stroke="#c0c0c0" d="M 445,85 l 10,-20 l 30,-30 h 10 l 30,10 l 20,20 v 20" />
  <path id="line-10" class="line" fill="none" stroke="url(#pattern-line-10)" d="M 555,55 l 10,-10 l 20,-10 h 30 l 30,30 v 30 l -10,20 l 30,-10 h 10 l 20,10 l 10,20 v 20 l -20,20 l -20,10" />
  <path id="line-11" class="line" fill="none" stroke="url(#pattern-line-11)" d="M 695,185 h 10 l 20,20 v 20 l -10,20 l -20,20 l -20,10 l 10,10 l 10,20 l -20,20 l -30,10 h -20 l -30,-10" />
  <path id="line-12" class="line" fill="none" stroke="#000000" d="M 675,335 v 10 v -10 l 50,-10" />
  <path id="line-13" class="line" fill="none" stroke="#000000" d="M 645,345 v 20 l -10,20 l -20,-30" />
  <path id="line-14" class="line" fill="none" stroke="#000000" d="M 615,485 v -90 l -10,-10 h -20" />
  <path id="line-15" class="line" fill="none" stroke="#000000" d="M 645,485 v -70 l 30,-20 l 20,-30 l 50,-30" />
  <path id="line-16" class="line" fill="none" stroke="url(#pattern-line-16)" d="M 785,295 v 30 l -20,30 l -20,10 v 20 l -20,20 h -30" />
  <path id="line-17" class="line" fill="none" stroke="#000000" d="M 605,415 l -20,10 h -20 l -10,-10" />
  <path id="line-18" class="line" fill="none" stroke="#000000" d="M 355,435 l 30,-10 l 20,-10 l 20,-20 l 20,-10" />
  <path id="line-19" class="line" fill="none" stroke="url(#pattern-line-19)" d="M 705,455 l 30,10 l 40,10 h 20 l 40,40 l 20,10 l 30,10 l 50,-10 l 30,-10 h 50 l 40,10 l 40,20" />
  <path id="line-20" class="line" fill="none" stroke="url(#pattern-line-20)" d="M 845,505 l 10,-20 l -10,-40 l -10,-50 l -60,-60 l 30,10 v -20 h 10 l 10,-20 l 20,60 l 10,10 l 20,-10 v -30 l -10,-40 l -20,-30 l 30,20 v -10 l 10,10 l 10,-30 v 70 l 10,20 h 10 l 20,-50 v 10 l 10,10 l 20,-10 v -10 l 20,10 l -50,40 l -20,20 l -10,20 l -20,20 l -10,30 l 20,100" />
  <path id="line-21" class="line" fill="none" stroke="#c0c0c0" d="M 835,445 h -10 l -10,-10 l -10,-20 l 20,-20" />
  <path id="line-22" class="line" fill="none" stroke="url(#pattern-line-22)" d="M 795,385 h -10 l -30,-20 l -20,-20 l -10,-30 v -50 l 10,-20 l 20,-10 h 10 l 20,20" />
  <path id="line-23" class="line" fill="none" stroke="#c0c0c0" d="M 755,225 v -10 l 20,-20 l 10,-20 h 10 l 30,10" />
  <path id="line-24" class="line" fill="none" stroke="#c0c0c0" d="M 765,185 v -40 l 20,-30 h 20 l 20,10 v 10" />
  <path id="line-25" class="line" fill="none" stroke="#c0c0c0" d="M 795,105 l 10,-20 l 30,-30 h 10 l 30,10 l 20,20 v 20" />
  <path id="line-26" class="line" fill="none" stroke="url(#pattern-line-26)" d="M 905,75 l 10,-10 l 20,-10 h 30 l 30,30 v 30 l -10,20 l 30,-10 h 10 l 20,10 l 10,20 v 20 l -20,20 l -20,10" />
  <path id="line-27" class="line" fill="none" stroke="#000000" d="M 1045,205 h 10 l 20,20 v 20 l -10,20 l -20,20 l -20,10 l 10,10 l 10,20 l -20,20 l -30,10 h -20 l -30,-10" />
  <path id="line-28" class="line" fill="none" stroke="#000000" d="M 1025,355 v 10 v -10 l 50,-10" />
  <path id="line-29" class="line" fill="none" stroke="#000000" d="M 995,365 v 20 l -10,20 l -20,-30" />
  <path id="line-30" class="line" fill="none" stroke="#000000" d="M 965,505 v -90 l -10,-10 h -20" />
  <path id="line-31" class="line" fill="none" stroke="#000000" d="M 995,505 v -70 l 30,-20 l 20,-30 l 50,-30" />
  <path id="line-32" class="line" fill="none" stroke="#000000" d="M 1135,315 v 30 l -20,30 l -20,10 v 20 l -20,20 h -30" />
  <path id="line-33" class="line" fill="none" stroke="#000000" d="M 955,435 l -20,10 h -20 l -10,-10" />
  <path id="line-34" class="line" fill="none" stroke="#000000" d="M 705,455 l 30,-10 l 20,-10 l 20,-20 l 20,-10" />
  <path id="line-35" class="line" fill="none" stroke="url(#pattern-line-35)" d="M 1075,435 l 30,10 l 40,10 h 20 l 40,40 l 20,10 l 30,10 l 50,-10 l 30,-10 h 50 l 40,10 l 40,20" />
  <path id="line-36" class="line" fill="none" stroke="url(#pattern-line-36)" d="M 1215,485 l 10,-20 l -10,-40 l -10,-50 l -60,-60 l 30,10 v -20 h 10 l 10,-20 l 20,60 l 10,10 l 20,-10 v -30 l -10,-40 l -20,-30 l 30,20 v -10 l 10,10 l 10,-30 v 70 l 10,20 h 10 l 20,-50 v 10 l 10,10 l 20,-10 v -10 l 20,10 l -50,40 l -20,20 l -10,20 l -20,20 l -10,30 l 20,100" />
  <path id="line-37" class="line" fill="none" stroke="#000000" d="M 1205,425 h -10 l -10,-10 l -10,-20 l 20,-20" />
  <path id="line-38" class="line" fill="none" stroke="url(#pattern-line-38)" d="M 1165,365 h -10 l -30,-20 l -20,-20 l -10,-30 v -50 l 10,-20 l 20,-10 h 10 l 20,20" />
  <path id="line-39" class="line" fill="none" stroke="#c0c0c0" d="M 1125,205 v -10 l 20,-20 l 10,-20 h 10 l 30,10" />
  <path id="line-40" class="line" fill="none" stroke="#c0c0c0" d="M 1135,165 v -40 l 20,-30 h 20 l 20,10 v 10" />
  <path id="line-41" class="line" fill="none" stroke="#c0c0c0" d="M 1165,85 l 10,-20 l 30,-30 h 10 l 30,10 l 20,20 v 20" />
  <path id="line-42" class="line" fill="none" stroke="url(#pattern-line-42)" d="M 1275,55 l 10,-10 l 20,-10 h 30 l 30,30 v 30 l -10,20 l 30,-10 h 10 l 20,10 l 10,20 v 20 l -20,20 l -20,10" />
  <path id="line-43" class="line" fill="none" stroke="url(#pattern-line-43)" d="M 1415,185 h 10 l 20,20 v 20 l -10,20 l -20,20 l -20,10 l 10,10 l 10,20 l -20,20 l -30,10 h -20 l -30,-10" />
  <path id="line-44" class="line" fill="none" stroke="#000000" d="M 1395,335 v 10 v -10 l 50,-10" />
  <path id="line-45" class="line" fill="none" stroke="#000000" d="M 1365,345 v 20 l -10,20 l -20,-30" />
  <path id="line-46" class="line" fill="none" stroke="#000000" d="M 1335,485 v -90 l -10,-10 h -20" />
  <path id="line-47" class="line" fill="none" stroke="#000000" d="M 1365,485 v -70 l 30,-20 l 20,-30 l 50,-30" />
  <path id="line-48" class="line" fill="none" stroke="url(#pattern-line-48)" d="M 1505,295 v 30 l -20,30 l -20,10 v 20 l -20,20 h -30" />
  <path id="line-49" class="line" fill="none" stroke="#000000" d="M 1325,415 l -20,10 h -20 l -10,-10" />
  <path id="line-50" class="line" fill="none" stroke="#000000" d="M 1075,435 l 30,-10 l 20,-10 l 20,-20 l 20,-10" />
  <path id="line-51" class="line" fill="none" stroke="#000000" d="M 1415,455 l 30,10 l 40,10 h 20 l 40,40 l 20,10 l 30,10 l 50,-10 l 30,-10 h 50 l 40,10 l 40,20" />
  <path id="line-52" class="line" fill="none" stroke="url(#pattern-line-52)" d="M 1555,505 l 10,-20 l -10,-40 l -10,-50 l -60,-60 l 30,10 v -20 h 10 l 10,-20 l 20,60 l 10,10 l 20,-10 v -30 l -10,-40 l -20,-30 l 30,20 v -10 l 10,10 l 10,-30 v 70 l 10,20 h 10 l 20,-50 v 10 l 10,10 l 20,-10 v -10 l 20,10 l -50,40 l -20,20 l -10,20 l -20,20 l -10,30 l 20,100" />
  <path id="line-53" class="line" fill="none" stroke="url(#pattern-line-53)" d="M 1545,445 h -10 l -10,-10 l -10,-20 l 20,-20" />
  <path id="line-54" class="line" fill="none" stroke="url(#pattern-line-54)" d="M 1505,385 h -10 l -30,-20 l -20,-20 l -10,-30 v -50 l 10,-20 l 20,-10 h 10 l 20,20" />
  <path id="line-55" class="line" fill="none" stroke="#c0c0c0" d="M 1465,225 v -10 l 20,-20 l 10,-20 h 10 l 30,10" />
  <path id="line-56" class="line" fill="none" stroke="#c0c0c0" d="M 1475,185 v -40 l 20,-30 h 20 l 20,10 v 10" />
  <path id="line-57" class="line" fill="none" stroke="#c0c0c0" d="M 1505,105 l 10,-20 l 30,-30 h 10 l 30,10 l 20,20 v 20" />
  <path id="line-58" class="line" fill="none" stroke="#c0c0c0" d="M 1615,75 l 10,-10 l 20,-10 h 30 l 30,30 v 30 l -10,20 l 30,-10 h 10 l 20,10 l 10,20 v 20 l -20,20 l -20,10" />
  <path id="line-59" class="line" fill="none" stroke="url(#pattern-line-59)" d="M 1755,205 h 10 l 20,20 v 20 l -10,20 l -20,20 l -20,10 l 10,10 l 10,20 l -20,20 l -30,10 h -20 l -30,-10" />
  <path id="line-60" class="line" fill="none" stroke="url(#pattern-line-60)" d="M 1735,355 v 10 v -10 l 50,-10" />
  <path id="line-61" class="line" fill="none" stroke="#000000" d="M 1705,365 v 20 l -10,20 l -20,-30" />
  <path id="line-62" class="line" fill="none" stroke="#000000" d="M 1675,505 v -90 l -10,-10 h -20" />
  <path id="line-63" class="line" fill="none" stroke="url(#pattern-line-63)" d="M 1705,505 v -70 l 30,-20 l 20,-30 l 50,-30" />
  <path id="line-64" class="line" fill="none" stroke="url(#pattern-line-64)" d="M 1845,315 v 30 l -20,30 l -20,10 v 20 l -20,20 h -30" />
  <path id="line-65" class="line" fill="none" stroke="#000000" d="M 1665,435 l -20,10 h -20 l -10,-10" />
  <path id="line-66" class="line" fill="none" stroke="#000000" d="M 1415,455 l 30,-10 l 20,-10 l 20,-20 l 20,-10" />
  <path id="line-67" class="line" fill="none" stroke="url(#pattern-line-67)" d="M 1765,535 l 30,10 l 40,10 h 20 l 40,40 l 20,10 l 30,10 l 50,-10 l 30,-10 h 50 l 40,10 l 40,20" />
  <path id="line-68" class="line" fill="none" stroke="url(#pattern-line-68)" d="M 1905,585 l 10,-20 l -10,-40 l -10,-50 l -60,-60 l 30,10 v -20 h 10 l 10,-20 l 20,60 l 10,10 l 20,-10 v -30 l -10,-40 l -20,-30 l 30,20 v -10 l 10,10 l 10,-30 v 70 l 10,20 h 10 l 20,-50 v 10 l 10,10 l 20,-10 v -10 l 20,10 l -50,40 l -20,20 l -10,20 l -20,20 l -10,30 l 20,100" />
  <path id="line-69" class="line" fill="none" stroke="url(#pattern-line-69)" d="M 1895,525 h -10 l -10,-10 l -10,-20 l 20,-20" />
  <path id="line-70" class="line" fill="none" stroke="url(#pattern-line-70)" d="M 1855,465 h -10 l -30,-20 l -20,-20 l -10,-30 v -50 l 10,-20 l 20,-10 h 10 l 20,20" />
  <path id="line-71" class="line" fill="none" stroke="#c0c0c0" d="M 1815,305 v -10 l 20,-20 l 10,-20 h 10 l 30,10" />
  <path id="line-72" class="line" fill="none" stroke="#c0c0c0" d="M 1825,265 v -40 l 20,-30 h 20 l 20,10 v 10" />
  <path id="line-73" class="line" fill="none" stroke="#c0c0c0" d="M 1855,185 l 10,-20 l 30,-30 h 10 l 30,10 l 20,20 v 20" />
  <path id="line-74" class="line" fill="none" stroke="#c0c0c0" d="M 1965,155 l 10,-10 l 20,-10 h 30 l 30,30 v 30 l -10,20 l 30,-10 h 10 l 20,10 l 10,20 v 20 l -20,20 l -20,10" />
  <path id="line-75" class="line" fill="none" stroke="url(#pattern-line-75)" d="M 2105,285 h 10 l 20,20 v 20 l -10,20 l -20,20 l -20,10 l 10,10 l 10,20 l -20,20 l -30,10 h -20 l -30,-10" />
  <path id="line-76" class="line" fill="none" stroke="#000000" d="M 2085,435 v 10 v -10 l 50,-10" />
  <path id="line-77" class="line" fill="none" stroke="#000000" d="M 2055,445 v 20 l -10,20 l -20,-30" />
  <path id="line-78" class="line" fill="none" stroke="#000000" d="M 2025,585 v -90 l -10,-10 h -20" />
  <path id="line-79" class="line" fill="none" stroke="#000000" d="M 2055,585 v -70 l 30,-20 l 20,-30 l 50,-30" />
  <path id="line-80" class="line" fill="none" stroke="url(#pattern-line-80)" d="M 2195,395 v 30 l -20,30 l -20,10 v 20 l -20,20 h -30" />
  <path id="line-81" class="line" fill="none" stroke="#000000" d="M 2015,515 l -20,10 h -20 l -10,-10" />
  <path id="line-82" class="line" fill="none" stroke="#000000" d="M 1765,535 l 30,-10 l 20,-10 l 20,-20 l 20,-10" />
  <path id="line-83" class="line" fill="none" stroke="url(#pattern-line-83)" d="M 2105,575 l 30,10 l 40,10 h 20 l 40,40 l 20,10 l 30,10 l 50,-10 l 30,-10 h 50 l 40,10 l 40,20" />
  <path id="line-84" class="line" fill="none" stroke="url(#pattern-line-84)" d="M 2245,625 l 10,-20 l -10,-40 l -10,-50 l -60,-60 l 30,10 v -20 h 10 l 10,-20 l 20,60 l 10,10 l 20,-10 v -30 l -10,-40 l -20,-30 l 30,20 v -10 l 10,10 l 10,-30 v 70 l 10,20 h 10 l 20,-50 v 10 l 10,10 l 20,-10 v -10 l 20,10 l -50,40 l -20,20 l -10,20 l -20,20 l -10,30 l 20,100" />
  <path id="line-85" class="line" fill="none" stroke="url(#pattern-line-85)" d="M 2235,565 h -10 l -10,-10 l -10,-20 l 20,-20" />
  <path id="line-86" class="line" fill="none" stroke="url(#pattern-line-86)" d="M 2195,505 h -10 l -30,-20 l -20,-20 l -10,-30 v -50 l 10,-20 l 20,-10 h 10 l 20,20" />
  <path id="line-87" class="line" fill="none" stroke="#c0c0c0" d="M 2155,345 v -10 l 20,-20 l 10,-20 h 10 l 30,10" />
  <path id="line-88" class="line" fill="none" stroke="#c0c0c0" d="M 2165,305 v -40 l 20,-30 h 20 l 20,10 v 10" />
  <path id="line-89" class="line" fill="none" stroke="#c0c0c0" d="M 2195,225 l 10,-20 l 30,-30 h 10 l 30,10 l 20,20 v 20" />
  <path id="line-90" class="line" fill="none" stroke="url(#pattern-line-90)" d="M 2305,195 l 10,-10 l 20,-10 h 30 l 30,30 v 30 l -10,20 l 30,-10 h 10 l 20,10 l 10,20 v 20 l -20,20 l -20,10" />
  <path id="line-91" class="line" fill="none" stroke="#000000" d="M 2445,325 h 10 l 20,20 v 20 l -10,20 l -20,20 l -20,10 l 10,10 l 10,20 l -20,20 l -30,10 h -20 l -30,-10" />
  <path id="line-92" class="line" fill="none" stroke="#000000" d="M 2425,475 v 10 v -10 l 50,-10" />
  <path id="line-93" class="line" fill="none" stroke="#000000" d="M 2395,485 v 20 l -10,20 l -20,-30" />
  <path id="line-94" class="line" fill="none" stroke="#000000" d="M 2365,625 v -90 l -10,-10 h -20" />
  <path id="line-95" class="line" fill="none" stroke="#000000" d="M 2395,625 v -70 l 30,-20 l 20,-30 l 50,-30" />
  <path id="line-96" class="line" fill="none" stroke="#000000" d="M 2535,435 v 30 l -20,30 l -20,10 v 20 l -20,20 h -30" />
  <path id="line-97" class="line" fill="none" stroke="#000000" d="M 2355,555 l -20,10 h -20 l -10,-10" />
  <path id="line-98" class="line" fill="none" stroke="#000000" d="M 2105,575 l 30,-10 l 20,-10 l 20,-20 l 20,-10" />
  <path id="line-99" class="line" fill="none" stroke="#000000" d="M 1105,555 l 20,20 l 40,20 l 70,50 v 10 l -10,20 l 10,10 l -40,40 l -20,60 l -80,30 l -30,60 v 40 l 40,50 v 20" />
  <path id="line-100" class="line" fill="none" stroke="#000000" d="M 1475,535 l 60,30 l 50,40 l 60,20 l 220,60 l 80,50 l 90,10 l 40,20 l 70,10 l 100,20 l 100,40 l 130,10 h 60" />
  <path id="line-101" class="line" fill="none" stroke="#000000" d="M 2285,975 l -40,-20 l -90,-50 l -140,-10 l -50,-40 l -50,-30 l -60,-20 l -50,-50 l -60,-20 l -60,-30 l -50,-20 l -30,-20 l -90,-30 l -40,-40 l -20,-10" />
</svg>
