<?xml version="1.0" encoding="UTF-8" standalone="yes"?>
<svg viewBox="0 0 2560 960" style="fill-rule:evenodd;stroke-linecap:square;stroke-linejoin:round;stroke-width:10" height="100%" width="100%" xmlns="http://www.w3.org/2000/svg">
  <defs>
    <pattern id="pattern-block-2" width="100%" height="100%">
      <rect x="0" y="0" width="100%" height="100%">
        <animate attributeType="XML" attributeName="fill" from="#ffff00" to="#00ff00" calcMode="discrete" dur="0.64s" repeatCount="indefinite"/>
      </rect>
    </pattern>
    <pattern id="pattern-pattern-area-1-1" width="100%" height="100%">
      <rect x="0" y="0" width="100%" height="100%">
        <animate attributeType="XML" attributeName="fill" from="#00ff00" to="#ffff00" calcMode="discrete" dur="0.64s" repeatCount="indefinite"/>
      </rect>
    </pattern>
    <pattern id="pattern-area-2" width="2560" height="960" patternUnits="userSpaceOnUse">
      <rect id="pattern-area-2-1" class="pattern-area-2" fill="#c00000" x="0" y="0" width="2560" height="960" />
      <path id="pattern-area-2-2" class="pattern-area-2" fill="#0000c0" d="M 1790,960 h 650 l -310,-310 v -10 h -30 l -310,310 v 10" />
    </pattern>
    <pattern id="fill-area-3" x="0" y="0" width="40" height="20" patternUnits="userSpaceOnUse">
      <rect fill="#0000c0" x="0" y="0" width="10" height="10" />
      <rect fill="#0000c0" x="10" y="10" width="10" height="10" />
      <rect fill="#0000c0" x="20" y="0" width="10" height="10" />
      <rect fill="#0000c0" x="30" y="10" width="10" height="10" />
    </pattern>
    <pattern id="fill-area-4" x="0" y="0" width="40" height="20" patternUnits="userSpaceOnUse">
      <rect fill="#0000c0" x="0" y="10" width="10" height="10" />
    </pattern>
    <pattern id="fill-area-5" x="0" y="0" width="40" height="20" patternUnits="userSpaceOnUse">
      <rect fill="#0000c0" x="0" y="10" width="10" height="10" />
    </pattern>
    <pattern id="fill-area-6" x="0" y="0" width="40" height="20" patternUnits="userSpaceOnUse">
      <rect fill="#0000c0" x="0" y="10" width="10" height="10" />
    </pattern>
    <pattern id="fill-area-7" x="0" y="0" width="40" height="20" patternUnits="userSpaceOnUse">
      <rect fill="#0000c0" x="0" y="10" width="10" height="10" />
    </pattern>
    <pattern id="fill-area-8" x="0" y="0" width="40" height="20" patternUnits="userSpaceOnUse">
      <rect fill="#0000c0" x="0" y="10" width="10" height="10" />
    </pattern>
    <pattern id="fill-area-9" x="0" y="0" width="40" height="20" patternUnits="userSpaceOnUse">
      <rect fill="#0000c0" x="0" y="10" width="10" height="10" />
    </pattern>
    <pattern id="pattern-line-17" width="2560" height="960" patternUnits="userSpaceOnUse">
      <path id="pattern-line-17-1" class="pattern-line-17" fill="#c00000" d="M 2450,960 h 110 v -970 h -1110 l 650,650 l 20,-20 v 30 l 10,-10 l 320,320" />
      <path id="pattern-line-17-2" class="pattern-line-17" fill="#0000c0" d="M 0,960 h 2450 l -320,-320 l -10,10 v -30 l -20,20 l -650,-650 h -1450 v 970" />
    </pattern>
    <pattern id="pattern-line-20" width="2560" height="960" patternUnits="userSpaceOnUse">
      <rect id="pattern-line-20-1" class="pattern-line-20" fill="#0000c0" x="0" y="0" width="2560" height="960" />
      <path id="pattern-line-20-2" class="pattern-line-20" fill="#000000" d="M 2120,520 l 30,-30 h 20 l -10,-10 l 400,-400 v -80 l -480,480 l 40,40" />
    </pattern>
    <pattern id="pattern-line-25" width="2560" height="960" patternUnits="userSpaceOnUse">
      <rect id="pattern-line-25-1" class="pattern-line-25" fill="#0000c0" x="0" y="0" width="2560" height="960" />
      <path id="pattern-line-25-2" class="pattern-line-25" fill="#000000" d="M 1610,960 h 950 v -950 l -950,950" />
    </pattern>
    <pattern id="pattern-line-26" width="2560" height="960" patternUnits="userSpaceOnUse">
      <rect id="pattern-line-26-1" class="pattern-line-26" fill="#0000c0" x="0" y="0" width="2560" height="960" />
      <path id="pattern-line-26-2" class="pattern-line-26" fill="#000000" d="M 2100,500 h 20 l 50,-50 l -10,-10 l 400,-400 v -50 h -40 l -440,440 l 10,10 l -20,20 l 30,30 v 10" />
    </pattern>
    <pattern id="pattern-line-27" width="2560" height="960" patternUnits="userSpaceOnUse">
      <rect id="pattern-line-27-1" class="pattern-line-27" fill="#0000c0" x="0" y="0" width="2560" height="960" />
      <path id="pattern-line-27-2" class="pattern-line-27" fill="#000000" d="M 1500,960 h 80 l 580,-580 l -10,-10 v -10 h 20 l -10,-10 l 350,-350 v -10 h -80 l -350,350 l 10,10 v 10 h -20 l 10,10 l -580,580 v 10" />
    </pattern>
    <pattern id="pattern-pattern-line-28-2" width="100%" height="100%">
      <rect x="0" y="0" width="100%" height="100%">
        <animate attributeType="XML" attributeName="fill" from="#00ff00" to="#ffff00" calcMode="discrete" dur="0.64s" repeatCount="indefinite"/>
      </rect>
    </pattern>
    <pattern id="pattern-line-28" width="2560" height="960" patternUnits="userSpaceOnUse">
      <rect id="pattern-line-28-1" class="pattern-line-28" fill="#0000c0" x="0" y="0" width="2560" height="960" />
      <path id="pattern-line-28-2" class="pattern-line-28" fill="url(#pattern-pattern-line-28-2)" d="M 2120,280 l 10,-10 h 30 l 10,-10 v -20 l -10,-10 l 240,-240 h -80 l -240,240 l 40,40 v 10" />
      <path id="pattern-line-28-3" class="pattern-line-28" fill="#000000" d="M 1510,960 h 1050 v -250 l -430,-430 h -20 v 80 l -600,600" />
    </pattern>
    <pattern id="pattern-line-29" width="2560" height="960" patternUnits="userSpaceOnUse">
      <rect id="pattern-line-29-1" class="pattern-line-29" fill="#0000c0" x="0" y="0" width="2560" height="960" />
      <path id="pattern-line-29-2" class="pattern-line-29" fill="#000000" d="M 1410,960 h 80 l 670,-670 l -10,-10 l 280,-280 v -10 h -80 l -280,280 l 10,10 l -670,670 v 10" />
    </pattern>
    <pattern id="pattern-pattern-line-30-2" width="100%" height="100%">
      <rect x="0" y="0" width="100%" height="100%">
        <animate attributeType="XML" attributeName="fill" from="#00ff00" to="#ffff00" calcMode="discrete" dur="0.64s" repeatCount="indefinite"/>
      </rect>
    </pattern>
    <pattern id="pattern-line-30" width="2560" height="960" patternUnits="userSpaceOnUse">
      <rect id="pattern-line-30-1" class="pattern-line-30" fill="#000000" x="0" y="0" width="2560" height="960" />
      <path id="pattern-line-30-2" class="pattern-line-30" fill="url(#pattern-pattern-line-30-2)" d="M 2090,270 h 20 l 20,-20 v -10 h 30 l 240,-240 v -10 h -580 l 270,270 v 10" />
    </pattern>
    <pattern id="pattern-pattern-line-31-2" width="100%" height="100%">
      <rect x="0" y="0" width="100%" height="100%">
        <animate attributeType="XML" attributeName="fill" from="#00ff00" to="#ffff00" calcMode="discrete" dur="0.64s" repeatCount="indefinite"/>
      </rect>
    </pattern>
    <pattern id="pattern-line-31" width="2560" height="960" patternUnits="userSpaceOnUse">
      <rect id="pattern-line-31-1" class="pattern-line-31" fill="#000000" x="0" y="0" width="2560" height="960" />
      <path id="pattern-line-31-2" class="pattern-line-31" fill="url(#pattern-pattern-line-31-2)" d="M 2100,240 l 250,-250 h -490 l 240,240 v 10" />
    </pattern>
    <pattern id="pattern-line-40" width="2560" height="960" patternUnits="userSpaceOnUse">
      <rect id="pattern-line-40-1" class="pattern-line-40" fill="#0000c0" x="0" y="0" width="2560" height="960" />
      <path id="pattern-line-40-2" class="pattern-line-40" fill="#000000" d="M 1310,400 l 50,-50 h 10 v -20 l -20,-20 l -50,50 h -10 v 20 l 20,20" />
    </pattern>
    <pattern id="pattern-line-41" width="2560" height="960" patternUnits="userSpaceOnUse">
      <rect id="pattern-line-41-1" class="pattern-line-41" fill="#0000c0" x="0" y="0" width="2560" height="960" />
      <path id="pattern-line-41-2" class="pattern-line-41" fill="#000000" d="M 1280,390 h 20 l 60,-60 l -10,-10 v -10 h -30 l -40,40 v 40" />
    </pattern>
    <pattern id="pattern-line-42" width="2560" height="960" patternUnits="userSpaceOnUse">
      <rect id="pattern-line-42-1" class="pattern-line-42" fill="#0000c0" x="0" y="0" width="2560" height="960" />
      <path id="pattern-line-42-2" class="pattern-line-42" fill="#000000" d="M 1860,960 h 700 v -970 h -1630 l 340,340 v 10 h 20 l 10,10 l -20,20 l 580,580 v 10" />
    </pattern>
  </defs>
  <rect id="block-1" class="block" fill="#c0c0c0" x="0" y="0" width="2560" height="960" />
  <rect id="block-2" class="block" fill="url(#pattern-block-2)" x="2080" y="160" width="80" height="80" />
  <path id="area-1" class="area closed" fill="url(#pattern-pattern-area-1-1)" stroke="none" d="M 2165,155 v 80 h -90 v -80 Z" />
  <path id="area-2" class="area closed" fill="url(#pattern-area-2)" stroke="none" d="M 2105,655 l 30,10 v -60 h -40 v 50 Z" />
  <path id="area-3" class="area closed" fill="url(#fill-area-3)" stroke="none" d="M 1015,375 h 45 v 20 h 5 l 20,10 h 90 l 30,-10 l -20,20 l 40,-20 v 10 l 20,10 h 60 l 20,-10 l 30,10 h 30 l 40,-20 h 30 l 30,-10 l 40,-25 l 230,-5 l 20,-10 l -30,-20 l -300,-20 l -40,20 h -60 l 40,-10 l -20,-20 h -120 l -65,10 v 20 h -55 l -20,10 l -10,10 h -70 Z
M 305,245 h 45 v 20 h 5 l 20,10 h 90 l 30,-10 l -20,20 l 40,-20 v 10 l 20,10 h 60 l 20,-10 l 30,10 h 30 l 40,-20 h 30 l 30,-10 l 40,-25 l 230,-5 l 20,-10 l -30,-20 l -300,-20 l -40,20 h -60 l 40,-10 l -20,-20 h -120 l -65,10 v 20 h -55 l -20,10 l -10,10 h -70 Z
M 2065,505 l -20,-20 v -50 h 20 v -60 h -30 v -30 h 30 v -40 l -20,-20 v -50 h 20 v -80 l 40,-40 h 30 l 40,40 v 80 h 10 v 50 l -20,20 v 40 h 20 v 30 h -20 v 60 h 20 l 10,40 l -30,30 v 30 h 370 v -510 h -2510 v 510 h 2040 Z" />
  <path id="area-4" class="area closed" fill="url(#fill-area-4)" stroke="none" d="M 1870,610 l 65,15 l 80,-10 l 50,-25 v 35 l -15,50 l -15,-20 l -30,-10 l -30,10 l -20,20 l 5,-5 l -95,15 l -50,-10 l -75,5 v -40 l -95,25 l -65,-15 v 35 h -5 l -110,-10 l -100,10 l -30,10 h -45 v -40 l -75,-10 l -85,10 v 30 l -45,10 h -85 v -30 l -75,-10 l -65,10 v 40 l -120,5 v -45 l -95,-10 l -90,10 l -55,-15 v 40 l -125,-5 l -150,-10 l -130,20 l -70,-10 v -70 h 50 l 90,10 l 100,-20 l 100,10 l 115,10 v -70 l 90,10 v 60 l 95,-20 l 185,20 v -70 l 75,10 l 65,-10 v 70 l 75,-10 l 100,-10 l 225,20 v -70 l 85,20 h 15 v 50 h 75 l 10,-10 l 90,-10 l 95,10 v -60 l 85,10 h 25 Z" />
  <path id="area-5" class="area closed" fill="url(#fill-area-5)" stroke="none" d="M 25,560 l 30,15 h 10 l 30,-10 l 80,10 l 50,-10 l 80,-10 l 80,10 l 90,-10 l 180,20 l 180,-20 l 90,10 l 110,-10 l 100,20 h 50 l 80,-10 l 100,-10 l 110,20 h 100 l 180,-20 l 90,10 l 110,10 l 90,-10 h 20 v -30 h -2040 Z" />
  <path id="area-6" class="area closed" fill="url(#fill-area-6)" stroke="none" d="M 2535,535 h -370 v 30 l 90,-10 l 90,10 l 40,10 l 70,-10 l 80,10 Z" />
  <path id="area-7" class="area closed" fill="url(#fill-area-7)" stroke="none" d="M 2165,590 l 50,15 l 90,10 l 90,-10 l 85,10 v -50 l 55,10 v 105 l -85,10 v -35 h -55 l -55,-15 v 45 l -55,10 l -10,-20 l -20,-10 l -10,10 l -20,-20 l -30,-10 h -25 l -5,-20 Z" />
  <path id="area-8" class="area closed" fill="url(#fill-area-8)" stroke="none" d="M 2430,730 l 55,15 h 50 v 60 l -90,10 l -100,-20 l -180,20 l -190,-10 l -180,20 l -170,10 l -140,10 l -140,-20 l -130,-10 l -130,10 l -140,20 l -170,10 l -140,-20 l -130,-10 l -130,10 l -120,10 l -130,-20 l -100,10 v -80 l 100,-20 l 60,20 l 65,-15 v -65 l 110,5 v 65 l 75,-10 l 90,20 l 80,10 l 120,-10 l 45,-15 v -30 l 100,-5 v 35 l 55,15 l 70,10 h 110 l 10,-10 l 125,-15 v -55 l 15,10 h 80 l 30,-10 l 15,-5 v 65 l 75,-10 l 90,20 l 100,-10 l 135,-15 v -55 h 35 l 50,10 l 55,-10 v 40 l 5,-15 l 50,25 l 60,-10 l 90,10 l 60,-10 l 80,10 l 40,-10 l 35,10 v -40 h 15 l 75,5 Z" />
  <path id="area-9" class="area closed" fill="url(#fill-area-9)" stroke="none" d="M 1900,900 l 45,25 l 140,-20 l 80,-10 l 160,20 l 105,-25 v -80 l 15,5 l 90,-10 v 155 h -2510 v -45 l 90,-10 l 90,-10 l 175,10 v -75 l 125,-5 h 35 v 75 l 85,15 l 170,10 l 345,-25 v -80 l 75,-5 l 85,5 v 80 l 95,25 l 345,-25 v -75 h 55 l 105,-15 Z" />
  <path id="line-10" class="line closed" fill="none" stroke="#0000c0" d="M 15,1005 h 2540 v -1000 h -2550 v 1000 Z" />
  <path id="line-11" class="line closed" fill="none" stroke="#0000c0" d="M 35,985 h 2500 v -960 h -2510 v 960 Z" />
  <path id="line-12" class="line" fill="none" stroke="#0000c0" d="M 1925,705 l 10,-20 l 20,-10 h 10 l 30,20" />
  <path id="line-13" class="line" fill="none" stroke="#0000c0" d="M 1965,665 l 10,-10 l 30,-10 l 30,10 l 20,30 v -20 l 10,-40 v -250" />
  <path id="line-14" class="line" fill="none" stroke="#0000c0" d="M 2065,335 v -180 h 100 v 190" />
  <path id="line-15" class="line" fill="none" stroke="#0000c0" d="M 2165,385 v 240 l 20,50" />
  <path id="line-16" class="line" fill="none" stroke="#0000c0" d="M 2065,665 l 10,-10 h 30 l 30,10 l 20,30" />
  <path id="line-17" class="line" fill="none" stroke="url(#pattern-line-17)" d="M 2095,645 v -40 h 40 v 60" />
  <path id="line-18" class="line" fill="none" stroke="#0000c0" d="M 2155,685 h 10 l 20,-10 l 30,10" />
  <path id="line-19" class="line" fill="none" stroke="#0000c0" d="M 2185,645 h 10 l 30,10 l 20,20 v 20 v -20 l 10,-10 l 20,10 l 20,40" />
  <path id="line-20" class="line" fill="none" stroke="url(#pattern-line-20)" d="M 2055,495 l -20,-20 h 160 l -30,30" />
  <path id="line-21" class="line" fill="none" stroke="#0000c0" d="M 2165,465 v -30" />
  <path id="line-22" class="line" fill="none" stroke="#000000" d="M 2145,495 v -60" />
  <path id="line-23" class="line" fill="none" stroke="#000000" d="M 2125,495 v -60" />
  <path id="line-24" class="line" fill="none" stroke="#000000" d="M 2105,495 v -60" />
  <path id="line-25" class="line" fill="none" stroke="url(#pattern-line-25)" d="M 2085,495 l -10,-20 v -40" />
  <path id="line-26" class="line" fill="none" stroke="url(#pattern-line-26)" d="M 2055,495 l -10,-20 v -40 h 140 l 10,40 l -40,-20 h -110" />
  <path id="line-27" class="line closed" fill="none" stroke="url(#pattern-line-27)" d="M 2175,375 h -140 v -30 h 150 v 30 Z" />
  <path id="line-28" class="line" fill="none" stroke="url(#pattern-line-28)" d="M 2065,305 l -20,-20 v -50 h 140 v 50 l -30,30" />
  <path id="line-29" class="line" fill="none" stroke="url(#pattern-line-29)" d="M 2175,285 h -130 v -20 h 140" />
  <path id="line-30" class="line" fill="none" stroke="url(#pattern-line-30)" d="M 2145,305 l 10,-20 v -50 h -20 v 50 l -10,30" />
  <path id="line-31" class="line" fill="none" stroke="url(#pattern-line-31)" d="M 2105,305 v -70" />
  <path id="line-32" class="line" fill="none" stroke="#0000c0" d="M 2075,305 l -10,-20 v -50" />
  <path id="line-33" class="line" fill="none" stroke="#0000c0" d="M 2075,165 v 70" />
  <path id="line-34" class="line" fill="none" stroke="#0000c0" d="M 2175,225 v -70 l -40,-40 h -30 l -30,30" />
  <path id="line-35" class="line" fill="none" stroke="#0000c0" d="M 2525,535 h -360" />
  <path id="line-36" class="line" fill="none" stroke="#0000c0" d="M 2055,535 h -2030" />
  <path id="line-37" class="line" fill="none" stroke="#0000c0" d="M 305,245 h 110 h -30 l -30,20 l 20,10 h 90 l 30,-10 l 10,-10 h -20 h 60 h -10 l -20,10 v 10 l 20,10 h 60 l 20,-10 l -10,-10 l 10,10 l 30,10 h 30 l 20,-10 v -10 h -30 h 80 l 30,-10 l 20,-10 v -10 l -10,-10 l 10,10 l 250,-10 l 20,-10 l -30,-20 l -300,-20 l -20,10 v 20 l 30,20" />
  <path id="line-38" class="line" fill="none" stroke="#0000c0" d="M 705,195 h -70 l 40,-10 l -20,-20 h -120 l -60,10 l 40,30 l -10,-10 h -90 l -20,10 l -10,10 l 20,10 l -20,-10 h -70 l -20,20" />
  <path id="line-39" class="line" fill="none" stroke="#0000c0" d="M 515,225 h 50 l -10,10 v 10 h 60 l 20,-10 v -10 l -10,-10 l -50,-20" />
  <path id="line-40" class="line" fill="none" stroke="url(#pattern-line-40)" d="M 1015,375 h 110 h -30 l -30,20 l 20,10 h 90 l 30,-10 l 10,-10 h -20 h 60 h -10 l -20,10 v 10 l 20,10 h 60 l 20,-10 l -10,-10 l 10,10 l 30,10 h 30 l 20,-10 v -10 h -30 h 80 l 30,-10 l 20,-10 v -10 l -10,-10 l 10,10 l 250,-10 l 20,-10 l -30,-20 l -300,-20 l -20,10 v 20 l 30,20" />
  <path id="line-41" class="line" fill="none" stroke="url(#pattern-line-41)" d="M 1415,325 h -70 l 40,-10 l -20,-20 h -120 l -60,10 l 40,30 l -10,-10 h -90 l -20,10 l -10,10 l 20,10 l -20,-10 h -70 l -20,20" />
  <path id="line-42" class="line" fill="none" stroke="url(#pattern-line-42)" d="M 1225,355 h 50 l -10,10 v 10 h 60 l 20,-10 v -10 l -10,-10 l -50,-20" />
  <path id="line-43" class="line" fill="none" stroke="#0000c0" d="M 1935,675 l -70,10 l -50,-10 l -160,20 l -80,-10 l -110,-10 l -100,10 l -30,10 h -80 l -20,-10 h -80 l -70,10 l -190,10 l -180,10 l -170,-20 l -170,-10 l -150,-10 l -130,20 l -70,-10" />
  <path id="line-44" class="line" fill="none" stroke="#0000c0" d="M 2525,685 l -80,10 l -90,-10 l -70,10" />
  <path id="line-45" class="line" fill="none" stroke="#0000c0" d="M 35,565 l 20,10 h 10 l 30,-10 l 80,10 l 50,-10 l 80,-10 l 80,10 l 90,-10 l 180,20 l 180,-20 l 90,10 l 110,-10 l 100,20 h 50 l 80,-10 l 100,-10 l 110,20 h 100 l 180,-20 l 90,10 l 110,10 l 90,-10 h 20" />
  <path id="line-46" class="line" fill="none" stroke="#0000c0" d="M 2175,565 l 80,-10 l 90,10 l 40,10 l 70,-10 l 80,10" />
  <path id="line-47" class="line" fill="none" stroke="#0000c0" d="M 35,615 h 40 l 90,10 l 100,-20 l 100,10 l 110,10" />
  <path id="line-48" class="line" fill="none" stroke="#0000c0" d="M 575,625 l 90,-20 l 180,20" />
  <path id="line-49" class="line" fill="none" stroke="#0000c0" d="M 995,625 l 70,-10 l 100,-10 l 220,20" />
  <path id="line-50" class="line" fill="none" stroke="#0000c0" d="M 1495,625 h 70 l 10,-10 l 90,-10 l 90,10" />
  <path id="line-51" class="line" fill="none" stroke="#0000c0" d="M 1875,615 l 60,10 l 80,-10 l 40,-20" />
  <path id="line-52" class="line" fill="none" stroke="#0000c0" d="M 2175,595 l 40,10 l 90,10 l 90,-10 l 80,10" />
  <path id="line-53" class="line" fill="none" stroke="#0000c0" d="M 505,655 l 50,10 l 90,-10 l 90,10" />
  <path id="line-54" class="line" fill="none" stroke="#0000c0" d="M 865,665 l 60,-10 l 70,10" />
  <path id="line-55" class="line" fill="none" stroke="#0000c0" d="M 1135,655 l 80,-10 l 70,10" />
  <path id="line-56" class="line" fill="none" stroke="#0000c0" d="M 1585,655 l 60,10 l 90,-20" />
  <path id="line-57" class="line" fill="none" stroke="#0000c0" d="M 2345,645 l 50,10 h 50" />
  <path id="line-58" class="line" fill="none" stroke="#0000c0" d="M 35,755 l 90,-20 l 60,20 l 60,-10" />
  <path id="line-59" class="line" fill="none" stroke="#0000c0" d="M 365,745 l 70,-10 l 90,20 l 80,10 l 120,-10 l 40,-10" />
  <path id="line-60" class="line" fill="none" stroke="#0000c0" d="M 875,745 l 50,10 l 70,10 h 110 l 10,-10 l 120,-10" />
  <path id="line-61" class="line" fill="none" stroke="#0000c0" d="M 1385,745 l 70,-10 l 90,20 l 100,-10 l 130,-10" />
  <path id="line-62" class="line" fill="none" stroke="#0000c0" d="M 1935,705 l 40,20 l 60,-10 l 90,10 l 60,-10 l 80,10 l 40,-10 l 30,10" />
  <path id="line-63" class="line" fill="none" stroke="#0000c0" d="M 2435,735 l 50,10 h 50" />
  <path id="line-64" class="line" fill="none" stroke="#0000c0" d="M 35,835 l 90,-10 l 130,20 l 120,-10 l 130,-10 l 130,10 l 140,20 l 170,-10 l 140,-20 l 130,-10 l 130,10 l 140,20 l 140,-10 l 170,-10 l 180,-20 l 190,10 l 180,-20 l 100,20 l 90,-10" />
  <path id="line-65" class="line" fill="none" stroke="#0000c0" d="M 35,915 l 80,-10 l 90,-10 l 170,10" />
  <path id="line-66" class="line" fill="none" stroke="#0000c0" d="M 545,905 l 80,10 l 170,10 l 340,-20" />
  <path id="line-67" class="line" fill="none" stroke="#0000c0" d="M 1305,905 l 90,20 l 340,-20" />
  <path id="line-68" class="line" fill="none" stroke="#0000c0" d="M 1905,905 l 40,20 l 140,-20 l 80,-10 l 160,20 l 100,-20" />
</svg>
