<?xml version="1.0" encoding="UTF-8" standalone="yes"?>
<svg viewBox="0 0 2560 960" style="fill-rule:evenodd;stroke-linecap:square;stroke-linejoin:round;stroke-width:10" height="100%" width="100%" xmlns="http://www.w3.org/2000/svg">
  <defs>
    <pattern id="fill-area-2" x="0" y="0" width="40" height="20" patternUnits="userSpaceOnUse">
      <rect fill="#c00000" x="10" y="0" width="10" height="10" />
      <rect fill="#c00000" x="30" y="10" width="10" height="10" />
    </pattern>
    <pattern id="fill-area-3" x="0" y="0" width="40" height="20" patternUnits="userSpaceOnUse">
      <rect fill="#c00000" x="10" y="0" width="10" height="10" />
      <rect fill="#c00000" x="30" y="10" width="10" height="10" />
    </pattern>
    <pattern id="fill-area-4" x="0" y="0" width="40" height="20" patternUnits="userSpaceOnUse">
      <rect fill="#c00000" x="10" y="0" width="10" height="10" />
      <rect fill="#c00000" x="30" y="10" width="10" height="10" />
    </pattern>
    <pattern id="pattern-line-5" width="2560" height="960" patternUnits="userSpaceOnUse">
      <rect id="pattern-line-5-1" class="pattern-line-5" fill="#000000" x="0" y="0" width="2560" height="960" />
      <path id="pattern-line-5-2" class="pattern-line-5" fill="#c00000" d="M 1890,960 h 320 l 150,-150 l -150,-150 v -10 h -20 l -300,300 v 10" />
    </pattern>
    <pattern id="pattern-line-6" width="2560" height="960" patternUnits="userSpaceOnUse">
      <rect id="pattern-line-6-1" class="pattern-line-6" fill="#000000" x="0" y="0" width="2560" height="960" />
      <path id="pattern-line-6-2" class="pattern-line-6" fill="#c00000" d="M 1870,960 h 320 l 160,-160 l -150,-150 v -10 h -20 l -310,310 v 10" />
    </pattern>
    <pattern id="pattern-line-20" width="2560" height="960" patternUnits="userSpaceOnUse">
      <path id="pattern-line-20-1" class="pattern-line-20" fill="#c00000" d="M 1050,960 h 1510 v -970 h -650 l -630,630 l 10,10 v 10 h -20 l 40,40 v 20 l -260,260" />
      <path id="pattern-line-20-2" class="pattern-line-20" fill="#000000" d="M 0,960 h 1050 l 260,-260 v -20 l -40,-40 h 20 l -10,-10 l 630,-630 v -10 h -1910 v 970" />
    </pattern>
    <pattern id="pattern-line-23" width="2560" height="960" patternUnits="userSpaceOnUse">
      <rect id="pattern-line-23-1" class="pattern-line-23" fill="#c00000" x="0" y="0" width="2560" height="960" />
      <path id="pattern-line-23-2" class="pattern-line-23" fill="#000000" d="M 2280,960 h 280 v -280 l -280,280" />
    </pattern>
    <pattern id="pattern-line-41" width="2560" height="960" patternUnits="userSpaceOnUse">
      <rect id="pattern-line-41-1" class="pattern-line-41" fill="#c00000" x="0" y="0" width="2560" height="960" />
      <path id="pattern-line-41-2" class="pattern-line-41" fill="#000000" d="M 2410,960 h 150 v -970 h -1110 l 960,960 v 10" />
    </pattern>
  </defs>
  <rect id="block-1" class="block" fill="#c0c0c0" x="0" y="0" width="2560" height="960" />
  <path id="area-1" class="area closed" fill="#000000" stroke="none" d="M 890,260 l -25,45 l 10,30 l 20,50 l 30,-40 v -40 Z" />
  <path id="area-2" class="area closed" fill="url(#fill-area-2)" stroke="none" d="M 2025,905 l -20,-10 l -80,-10 l -80,-30 l -80,-50 l -60,-30 l -80,-30 l -60,-20 l -40,-10 h -50 l -90,-30 l -80,-50 l 60,-10 l 80,-20 l 60,-20 h 20 l 80,-80 l 50,-30 h 40 l 70,50 l 80,10 l 240,70 l 260,90 l -140,140 l -40,20 l -80,20 l -60,20 Z
M 1980,815 h -20 l 20,25 Z" />
  <path id="area-3" class="area closed" fill="url(#fill-area-3)" stroke="none" d="M 2025,905 l -20,-10 l -80,-10 l -80,-30 l -80,-50 l -60,-30 l -80,-30 l -60,-20 l -40,-10 h -50 l -90,-30 l -90,-55 l -10,15 l -10,20 v 50 l 20,20 l 70,30 l 80,20 l 110,30 l 70,20 l 60,40 l 80,50 l 80,30 l 20,5 h 150 Z" />
  <path id="area-4" class="area closed" fill="url(#fill-area-4)" stroke="none" d="M 2025,895 l 60,-20 l 80,-20 l 40,-20 l 140,-140 l 20,20 l 20,60 l -60,70 l -50,60 l -70,40 l -90,30 l 50,-70 l 20,10 l 50,-30 l 30,-30 v 105 h -235 v 5 l -15,10 Z" />
  <path id="line-5" class="line closed" fill="none" stroke="url(#pattern-line-5)" d="M 15,1005 h 2540 v -1000 h -2550 v 1000 Z" />
  <path id="line-6" class="line closed" fill="none" stroke="url(#pattern-line-6)" d="M 35,985 h 2500 v -960 h -2510 v 960 Z" />
  <path id="line-7" class="line" fill="none" stroke="#000000" d="M 115,975 l 50,-20 l 70,-30 l 10,-20 h 60 l 40,10 l 60,-20 l 160,-70 l 50,-50 l 150,-90 l 40,-40" />
  <path id="line-8" class="line" fill="none" stroke="#000000" d="M 635,495 l 30,-10 h 20 l 40,30 v 40 l -20,20 l -20,30 v 30 l 30,10 h 90 l 40,-30 v -40 l -20,-40 l -20,-20 l -10,-30 l -60,-40" />
  <path id="line-9" class="line" fill="none" stroke="#000000" d="M 795,475 l 10,-20 l -40,-50 l -30,-60 v -60 l 30,-40 l 80,-80 l 60,-80 h 40 l 60,40 h 60 l 30,40 l 50,30 l 10,50 l -30,60 v 30 l 20,60 l 30,40" />
  <path id="line-10" class="line" fill="none" stroke="#000000" d="M 1235,375 l -40,30 l 10,30 h -30 l -30,40 v 20" />
  <path id="line-11" class="line" fill="none" stroke="#000000" d="M 1235,555 l -30,-10 l -40,-40 l -20,-10 h -30 l -30,20 l -40,50 l -10,20 v 30 l 30,30 h 140 l 30,-10 v -20 l -40,-30" />
  <path id="line-12" class="line" fill="none" stroke="#000000" d="M 1025,605 l -20,-20 l -50,-40 l -30,-20 l -80,-40 v -50 h 30 l 20,-50 l 30,-40 v -40 l -30,-40 l -90,-60" />
  <path id="line-13" class="line" fill="none" stroke="#000000" d="M 885,275 l -20,30 l 10,30 l 20,50" />
  <path id="line-14" class="line" fill="none" stroke="#000000" d="M 835,495 l -30,20" />
  <path id="line-15" class="line" fill="none" stroke="#000000" d="M 965,175 l 40,60" />
  <path id="line-16" class="line" fill="none" stroke="#000000" d="M 835,275 l -30,60 l 10,20" />
  <path id="line-17" class="line" fill="none" stroke="#000000" d="M 1045,295 l 10,30 l -50,70" />
  <path id="line-18" class="line" fill="none" stroke="#000000" d="M 1045,495 l -40,70" />
  <path id="line-19" class="line" fill="none" stroke="#000000" d="M 915,415 l -10,20 v 30 l -20,20" />
  <path id="line-20" class="line" fill="none" stroke="url(#pattern-line-20)" d="M 1235,635 l 70,-10 l -20,20 l -10,20 v 50 l 20,20 l 70,30 l 80,20 l 110,30 l 70,20 l 60,40 l 80,50 l 80,30 l 80,20 l 60,10" />
  <path id="line-21" class="line closed" fill="none" stroke="#c00000" d="M 2015,975 l 10,-70 l -20,-10 l -80,-10 l -80,-30 l -80,-50 l -60,-30 l -80,-30 l -60,-20 l -40,-10 h -50 l -90,-30 l -80,-50 l 60,-10 l 80,-20 l 60,-20 h 20 l 80,-80 l 50,-30 h 40 l 70,50 l 80,10 l 240,70 l 260,90 l 20,20 l 20,60 l -60,70 l -50,60 l -70,40 l -90,30 l -90,10 Z" />
  <path id="line-22" class="line" fill="none" stroke="#c00000" d="M 2035,895 l 50,-20 l 80,-20 l 40,-20 l 140,-140" />
  <path id="line-23" class="line" fill="none" stroke="url(#pattern-line-23)" d="M 2325,865 l 80,40 l 80,50 l 40,30" />
  <path id="line-24" class="line" fill="none" stroke="#c00000" d="M 1525,655 h 40" />
  <path id="line-25" class="line" fill="none" stroke="#c00000" d="M 1515,635 l 20,20" />
  <path id="line-26" class="line" fill="none" stroke="#c00000" d="M 1685,575 h 40" />
  <path id="line-27" class="line" fill="none" stroke="#c00000" d="M 1705,565 l 20,20" />
  <path id="line-28" class="line" fill="none" stroke="#c00000" d="M 1765,735 h 40" />
  <path id="line-29" class="line" fill="none" stroke="#c00000" d="M 1775,725 v 20" />
  <path id="line-30" class="line" fill="none" stroke="#c00000" d="M 1955,805 l 20,30" />
  <path id="line-31" class="line" fill="none" stroke="#c00000" d="M 1985,815 h -40" />
  <path id="line-32" class="line" fill="none" stroke="#c00000" d="M 1945,675 v 30" />
  <path id="line-33" class="line" fill="none" stroke="#c00000" d="M 1935,685 h 20" />
  <path id="line-34" class="line" fill="none" stroke="#c00000" d="M 2145,755 l -10,-10" />
  <path id="line-35" class="line" fill="none" stroke="#c00000" d="M 2155,735 v 10" />
  <path id="line-36" class="line" fill="none" stroke="#c00000" d="M 1545,765 v 10 l 60,20 h 40" />
  <path id="line-37" class="line" fill="none" stroke="#000000" d="M 425,175 l -20,20 v 40 l 30,110 l -20,20 v 20 l -20,20 l -30,50" />
  <path id="line-38" class="line" fill="none" stroke="#000000" d="M 275,665 l -5,5 v 15 l -25,20 v 15 l -15,15 v 15 l -15,15 l 15,15 v 15 l 25,25 v 30 l 20,20" />
  <path id="line-39" class="line" fill="none" stroke="#000000" d="M 595,465 l -15,10 v 30 l 25,85 l -15,15 v 15 l -15,15 l -25,35" />
  <path id="line-40" class="line" fill="none" stroke="#000000" d="M 1535,115 l -10,10 v 20 l -30,30 v 20 l -20,20 v 20 l -20,20 l 20,20 v 20 l 30,30 v 40 l 30,30" />
  <path id="line-41" class="line" fill="none" stroke="url(#pattern-line-41)" d="M 2165,275 l -30,30 v 20 l -30,30 v 20 l -30,30 v 20 l -30,30 v 20 l -30,30 v 20 l -30,30 v 20" />
  <path id="line-42" class="line" fill="none" stroke="#000000" d="M 2055,395 l -30,-30 v -20 l -20,-20 v -20 l -70,-70 v -20 l -30,-30 v -30" />
  <path id="line-43" class="line" fill="none" stroke="#000000" d="M 2345,445 l -5,5 v 15 l -25,20 v 15 l -15,15 v 15 l -15,15 l 15,15 v 15 l 25,25 v 30 l 20,20" />
  <path id="line-44" class="line" fill="none" stroke="#c00000" d="M 2165,905 l 20,10 l 50,-30 l 30,-30 v -20" />
</svg>
