<?xml version="1.0" encoding="UTF-8" standalone="yes"?>
<svg viewBox="0 0 2560 960" style="fill-rule:evenodd;stroke-linecap:square;stroke-linejoin:round;stroke-width:10" height="100%" width="100%" xmlns="http://www.w3.org/2000/svg">
  <defs>
    <pattern id="fill-area-1" x="0" y="0" width="40" height="20" patternUnits="userSpaceOnUse">
      <rect fill="#000000" x="0" y="0" width="10" height="10" />
      <rect fill="#000000" x="20" y="10" width="10" height="10" />
    </pattern>
    <pattern id="fill-area-2" x="0" y="0" width="40" height="20" patternUnits="userSpaceOnUse">
      <rect fill="#000000" x="0" y="0" width="10" height="10" />
      <rect fill="#000000" x="20" y="10" width="10" height="10" />
    </pattern>
    <pattern id="pattern-line-10" width="2560" height="960" patternUnits="userSpaceOnUse">
      <path id="pattern-line-10-1" class="pattern-line-10" fill="#0000c0" d="M 340,660 l 160,-160 h 1560 l 300,-300 l 200,200 v -410 h -2560 v 330 l 340,340" />
      <path id="pattern-line-10-2" class="pattern-line-10" fill="#000000" d="M 0,960 h 2560 v -560 l -200,-200 l -300,300 h -1560 l -160,160 l -340,-340 v 640" />
    </pattern>
    <pattern id="pattern-line-11" width="2560" height="960" patternUnits="userSpaceOnUse">
      <path id="pattern-line-11-1" class="pattern-line-11" fill="#0000c0" d="M 350,650 l 150,-150 h 1560 l 290,-290 l 190,190 l 20,-20 v -390 h -2560 v 350 l 20,-20 l 330,330" />
      <path id="pattern-line-11-2" class="pattern-line-11" fill="#000000" d="M 0,960 h 2560 v -580 l -20,20 l -190,-190 l -290,290 h -1560 l -150,150 l -330,-330 l -20,20 v 620" />
    </pattern>
    <pattern id="pattern-line-12" width="2560" height="960" patternUnits="userSpaceOnUse">
      <rect id="pattern-line-12-1" class="pattern-line-12" fill="#000000" x="0" y="0" width="2560" height="960" />
      <path id="pattern-line-12-2" class="pattern-line-12" fill="#c0c0c0" d="M 870,470 l 480,-480 h -950 l 470,470 v 10" />
    </pattern>
    <pattern id="pattern-line-13" width="2560" height="960" patternUnits="userSpaceOnUse">
      <rect id="pattern-line-13-1" class="pattern-line-13" fill="#000000" x="0" y="0" width="2560" height="960" />
      <rect id="pattern-line-13-2" class="pattern-line-13" fill="#c0c0c0" x="680" y="-10" width="10" height="10" />
      <rect id="pattern-line-13-3" class="pattern-line-13" fill="#c0c0c0" x="670" y="0" width="10" height="10" />
      <rect id="pattern-line-13-4" class="pattern-line-13" fill="#c0c0c0" x="660" y="10" width="10" height="10" />
      <rect id="pattern-line-13-5" class="pattern-line-13" fill="#c0c0c0" x="650" y="20" width="10" height="10" />
      <rect id="pattern-line-13-6" class="pattern-line-13" fill="#c0c0c0" x="640" y="30" width="10" height="10" />
      <rect id="pattern-line-13-7" class="pattern-line-13" fill="#c0c0c0" x="630" y="40" width="10" height="10" />
      <rect id="pattern-line-13-8" class="pattern-line-13" fill="#c0c0c0" x="620" y="50" width="10" height="10" />
      <rect id="pattern-line-13-9" class="pattern-line-13" fill="#c0c0c0" x="610" y="60" width="10" height="10" />
      <rect id="pattern-line-13-10" class="pattern-line-13" fill="#c0c0c0" x="600" y="70" width="10" height="10" />
      <rect id="pattern-line-13-11" class="pattern-line-13" fill="#c0c0c0" x="590" y="80" width="10" height="10" />
      <rect id="pattern-line-13-12" class="pattern-line-13" fill="#c0c0c0" x="580" y="90" width="10" height="10" />
      <rect id="pattern-line-13-13" class="pattern-line-13" fill="#c0c0c0" x="570" y="100" width="10" height="10" />
      <rect id="pattern-line-13-14" class="pattern-line-13" fill="#c0c0c0" x="560" y="110" width="10" height="10" />
      <rect id="pattern-line-13-15" class="pattern-line-13" fill="#c0c0c0" x="550" y="120" width="10" height="10" />
      <rect id="pattern-line-13-16" class="pattern-line-13" fill="#c0c0c0" x="540" y="130" width="10" height="10" />
      <rect id="pattern-line-13-17" class="pattern-line-13" fill="#c0c0c0" x="530" y="140" width="10" height="10" />
      <rect id="pattern-line-13-18" class="pattern-line-13" fill="#c0c0c0" x="520" y="150" width="10" height="10" />
      <rect id="pattern-line-13-19" class="pattern-line-13" fill="#c0c0c0" x="510" y="160" width="10" height="10" />
      <rect id="pattern-line-13-20" class="pattern-line-13" fill="#c0c0c0" x="500" y="170" width="10" height="10" />
      <rect id="pattern-line-13-21" class="pattern-line-13" fill="#c0c0c0" x="490" y="180" width="10" height="10" />
      <rect id="pattern-line-13-22" class="pattern-line-13" fill="#c0c0c0" x="480" y="190" width="10" height="10" />
      <rect id="pattern-line-13-23" class="pattern-line-13" fill="#c0c0c0" x="470" y="200" width="10" height="10" />
      <rect id="pattern-line-13-24" class="pattern-line-13" fill="#c0c0c0" x="460" y="210" width="10" height="10" />
      <rect id="pattern-line-13-25" class="pattern-line-13" fill="#c0c0c0" x="450" y="220" width="10" height="10" />
      <rect id="pattern-line-13-26" class="pattern-line-13" fill="#c0c0c0" x="440" y="230" width="10" height="10" />
      <rect id="pattern-line-13-27" class="pattern-line-13" fill="#c0c0c0" x="430" y="240" width="10" height="10" />
      <rect id="pattern-line-13-28" class="pattern-line-13" fill="#c0c0c0" x="420" y="250" width="10" height="10" />
      <rect id="pattern-line-13-29" class="pattern-line-13" fill="#c0c0c0" x="410" y="260" width="10" height="10" />
      <rect id="pattern-line-13-30" class="pattern-line-13" fill="#c0c0c0" x="400" y="270" width="10" height="10" />
      <rect id="pattern-line-13-31" class="pattern-line-13" fill="#c0c0c0" x="390" y="280" width="10" height="10" />
      <rect id="pattern-line-13-32" class="pattern-line-13" fill="#c0c0c0" x="380" y="290" width="10" height="10" />
      <rect id="pattern-line-13-33" class="pattern-line-13" fill="#c0c0c0" x="370" y="300" width="10" height="10" />
      <rect id="pattern-line-13-34" class="pattern-line-13" fill="#c0c0c0" x="360" y="310" width="10" height="10" />
      <rect id="pattern-line-13-35" class="pattern-line-13" fill="#c0c0c0" x="350" y="320" width="10" height="10" />
      <rect id="pattern-line-13-36" class="pattern-line-13" fill="#c0c0c0" x="340" y="330" width="10" height="10" />
      <rect id="pattern-line-13-37" class="pattern-line-13" fill="#c0c0c0" x="330" y="340" width="10" height="10" />
      <rect id="pattern-line-13-38" class="pattern-line-13" fill="#c0c0c0" x="320" y="350" width="10" height="10" />
      <rect id="pattern-line-13-39" class="pattern-line-13" fill="#c0c0c0" x="310" y="360" width="10" height="10" />
      <rect id="pattern-line-13-40" class="pattern-line-13" fill="#c0c0c0" x="300" y="370" width="10" height="10" />
      <rect id="pattern-line-13-41" class="pattern-line-13" fill="#c0c0c0" x="290" y="380" width="10" height="10" />
      <rect id="pattern-line-13-42" class="pattern-line-13" fill="#c0c0c0" x="280" y="390" width="10" height="10" />
      <rect id="pattern-line-13-43" class="pattern-line-13" fill="#c0c0c0" x="270" y="400" width="10" height="10" />
      <rect id="pattern-line-13-44" class="pattern-line-13" fill="#c0c0c0" x="260" y="410" width="10" height="10" />
      <rect id="pattern-line-13-45" class="pattern-line-13" fill="#c0c0c0" x="250" y="420" width="10" height="10" />
      <rect id="pattern-line-13-46" class="pattern-line-13" fill="#c0c0c0" x="240" y="430" width="10" height="10" />
      <rect id="pattern-line-13-47" class="pattern-line-13" fill="#c0c0c0" x="230" y="440" width="10" height="10" />
      <path id="pattern-line-13-48" class="pattern-line-13" fill="#c0c0c0" d="M 0,950 l 330,-330 h -10 v -20 l -100,-100 l 10,-10 h 10 v -20 h -10 v -20 l -220,220 h -10 v 280" />
    </pattern>
    <pattern id="pattern-line-14" width="2560" height="960" patternUnits="userSpaceOnUse">
      <rect id="pattern-line-14-1" class="pattern-line-14" fill="#000000" x="0" y="0" width="2560" height="960" />
      <rect id="pattern-line-14-2" class="pattern-line-14" fill="#c0c0c0" x="240" y="320" width="10" height="10" />
      <path id="pattern-line-14-3" class="pattern-line-14" fill="#c0c0c0" d="M 0,960 h 820 l -590,-590 v -10 h 20 l -10,-10 v -20 l -20,-20 h -20 l -20,20 v -30 h -10 v -20 h -20 l -150,-150 v 40 l 150,150 h 10 v 20 h -10 v 20 l 20,20 h -10 v 20 l 10,-10 h 20 l 10,10 l 10,-10 l 60,60 v 20 l -30,30 l -20,-20 l -10,10 h -10 v -20 l -10,10 l -10,-10 l -10,10 h -20 l -10,-10 v -10 h -20 l -120,120 v 380" />
    </pattern>
    <pattern id="pattern-line-16" width="2560" height="960" patternUnits="userSpaceOnUse">
      <rect id="pattern-line-16-1" class="pattern-line-16" fill="#000000" x="0" y="0" width="2560" height="960" />
      <path id="pattern-line-16-2" class="pattern-line-16" fill="#c0c0c0" d="M 170,320 l 330,-330 h -150 l -260,260 v 30 l 20,20 h 20 v 10 h 40 v 10" />
      <path id="pattern-line-16-3" class="pattern-line-16" fill="#0000c0" d="M 50,320 l 30,-30 h 20 l -10,-10 v -30 l 260,-260 h -350 v 280 l 50,50" />
    </pattern>
    <pattern id="pattern-line-19" width="2560" height="960" patternUnits="userSpaceOnUse">
      <path id="pattern-line-19-1" class="pattern-line-19" fill="#c0c0c0" d="M 980,960 h 1580 v -970 h -2250 l -130,130 v 40 l 800,800" />
      <path id="pattern-line-19-2" class="pattern-line-19" fill="#0000c0" d="M 0,960 h 980 l -800,-800 v -40 l 130,-130 h -310 v 970" />
    </pattern>
    <pattern id="pattern-line-20" width="2560" height="960" patternUnits="userSpaceOnUse">
      <rect id="pattern-line-20-1" class="pattern-line-20" fill="#0000c0" x="0" y="0" width="2560" height="960" />
      <path id="pattern-line-20-2" class="pattern-line-20" fill="#c0c0c0" d="M 0,480 l 310,-310 h 40 l -30,-30 v -20 l -20,-20 l -290,290 h -10 v 90" />
    </pattern>
    <pattern id="pattern-line-21" width="2560" height="960" patternUnits="userSpaceOnUse">
      <rect id="pattern-line-21-1" class="pattern-line-21" fill="#0000c0" x="0" y="0" width="2560" height="960" />
      <path id="pattern-line-21-2" class="pattern-line-21" fill="#000000" d="M 0,960 h 1120 l -720,-720 l -10,10 v -10 h -20 l -10,10 l -10,-10 v 10 h -30 l -250,-250 v -10 h -70 v 970" />
    </pattern>
    <pattern id="pattern-line-29" width="2560" height="960" patternUnits="userSpaceOnUse">
      <rect id="pattern-line-29-1" class="pattern-line-29" fill="#000000" x="0" y="0" width="2560" height="960" />
      <path id="pattern-line-29-2" class="pattern-line-29" fill="#c0c0c0" d="M 660,620 l 20,-20 h -10 v -20 l 20,-20 l -20,-20 l 10,-10 l -40,-40 l 500,-500 h -120 l -440,440 v 20 h 10 v 20 l -20,20 l 10,10 l -20,20 l 100,100" />
      <path id="pattern-line-29-3" class="pattern-line-29" fill="#c0c0c0" d="M 0,960 h 30 l 960,-960 v -10 h -40 l -950,950 v 20" />
    </pattern>
    <pattern id="pattern-line-30" width="2560" height="960" patternUnits="userSpaceOnUse">
      <rect id="pattern-line-30-1" class="pattern-line-30" fill="#000000" x="0" y="0" width="2560" height="960" />
      <path id="pattern-line-30-2" class="pattern-line-30" fill="#c0c0c0" d="M 0,910 l 470,-470 h 20 l 10,10 v 10 h 20 l 30,30 v -40 l 30,-30 l -20,-20 h -10 v -30 l 10,-10 h 10 v -50 l -10,10 l -10,-10 l -20,20 l -10,-10 l -10,10 h -10 v -20 l -10,10 h -10 v 20 l -470,470 h -10 v 100" />
      <path id="pattern-line-30-3" class="pattern-line-30" fill="#c0c0c0" d="M 110,960 h 1040 l -510,-510 v -10 h -20 l -50,50 l -10,-10 l -10,10 v 30 l -440,440" />
    </pattern>
    <pattern id="pattern-line-32" width="2560" height="960" patternUnits="userSpaceOnUse">
      <rect id="pattern-line-32-1" class="pattern-line-32" fill="#000000" x="0" y="0" width="2560" height="960" />
      <path id="pattern-line-32-2" class="pattern-line-32" fill="#0000c0" d="M 520,300 l 310,-310 h -660 l 270,270 v 10 h 20 v 10 h 20 v 10 h 40 v 10" />
    </pattern>
    <pattern id="pattern-line-33" width="2560" height="960" patternUnits="userSpaceOnUse">
      <path id="pattern-line-33-1" class="pattern-line-33" fill="#c0c0c0" d="M 1260,960 h 1300 v -970 h -1920 l -160,160 l 10,10 l -10,10 l 780,780 v 10" />
      <path id="pattern-line-33-2" class="pattern-line-33" fill="#0000c0" d="M 0,960 h 1260 l -780,-780 l 10,-10 l -10,-10 l 160,-160 v -10 h -640 v 970" />
    </pattern>
    <pattern id="pattern-line-34" width="2560" height="960" patternUnits="userSpaceOnUse">
      <path id="pattern-line-34-1" class="pattern-line-34" fill="#c0c0c0" d="M 1300,960 h 1260 v -970 h -1980 l -100,100 l 10,10 l -10,10 v 30 l 820,820" />
      <path id="pattern-line-34-2" class="pattern-line-34" fill="#0000c0" d="M 0,960 h 1300 l -820,-820 v -30 l 10,-10 l -10,-10 l 100,-100 h -580 v 970" />
    </pattern>
    <pattern id="pattern-line-35" width="2560" height="960" patternUnits="userSpaceOnUse">
      <rect id="pattern-line-35-1" class="pattern-line-35" fill="#0000c0" x="0" y="0" width="2560" height="960" />
      <path id="pattern-line-35-2" class="pattern-line-35" fill="#c0c0c0" d="M 1350,960 h 100 l -880,-880 l -40,40 v 20 l 820,820" />
    </pattern>
    <pattern id="pattern-line-36" width="2560" height="960" patternUnits="userSpaceOnUse">
      <path id="pattern-line-36-1" class="pattern-line-36" fill="#0000c0" d="M 1500,960 h 1060 v -970 h -2560 v 820 l 660,-660 h 40 l 800,800 v 10" />
      <path id="pattern-line-36-2" class="pattern-line-36" fill="#c0c0c0" d="M 0,960 h 1500 l -800,-800 v -10 h -40 l -660,660 v 150" />
    </pattern>
    <pattern id="pattern-line-37" width="2560" height="960" patternUnits="userSpaceOnUse">
      <rect id="pattern-line-37-1" class="pattern-line-37" fill="#0000c0" x="0" y="0" width="2560" height="960" />
      <path id="pattern-line-37-2" class="pattern-line-37" fill="#000000" d="M 0,960 h 1460 l -720,-720 l -10,10 l -30,-30 v 10 h -30 l -230,-230 v -10 h -440 v 970" />
    </pattern>
    <pattern id="pattern-line-46" width="2560" height="960" patternUnits="userSpaceOnUse">
      <rect id="pattern-line-46-1" class="pattern-line-46" fill="#000000" x="0" y="0" width="2560" height="960" />
      <path id="pattern-line-46-2" class="pattern-line-46" fill="#c0c0c0" d="M 1510,960 h 60 l -610,-610 v -20 h 10 v -20 l -10,10 h -20 l -10,10 v -20 l -10,10 l -10,-10 l -40,40 l 30,30 h 10 v 20 l 20,20 h 20 l 30,30 v -10 h 20 l 510,510 v 10" />
    </pattern>
    <pattern id="pattern-line-48" width="2560" height="960" patternUnits="userSpaceOnUse">
      <rect id="pattern-line-48-1" class="pattern-line-48" fill="#000000" x="0" y="0" width="2560" height="960" />
      <path id="pattern-line-48-2" class="pattern-line-48" fill="#0000c0" d="M 880,300 l 310,-310 h -660 l 270,270 v 10 h 20 v 10 h 20 v 10 h 40 v 10" />
    </pattern>
    <pattern id="pattern-line-51" width="2560" height="960" patternUnits="userSpaceOnUse">
      <rect id="pattern-line-51-1" class="pattern-line-51" fill="#0000c0" x="0" y="0" width="2560" height="960" />
      <path id="pattern-line-51-2" class="pattern-line-51" fill="#c0c0c0" d="M 1710,960 h 100 l -880,-880 l -40,40 v 20 l 820,820" />
    </pattern>
    <pattern id="pattern-line-52" width="2560" height="960" patternUnits="userSpaceOnUse">
      <rect id="pattern-line-52-1" class="pattern-line-52" fill="#0000c0" x="0" y="0" width="2560" height="960" />
      <path id="pattern-line-52-2" class="pattern-line-52" fill="#c0c0c0" d="M 130,960 h 90 l 800,-800 v -10 h 40 v -30 l -20,-20 l 10,-10 l -10,-10 l -10,10 h -20 l -10,-10 l -870,870 v 10" />
    </pattern>
    <pattern id="pattern-line-53" width="2560" height="960" patternUnits="userSpaceOnUse">
      <path id="pattern-line-53-1" class="pattern-line-53" fill="#0000c0" d="M 1820,960 h 740 v -970 h -1760 l 230,230 v 10 h 30 l 10,-10 l 30,30 l 10,-10 l 710,710 v 10" />
      <path id="pattern-line-53-2" class="pattern-line-53" fill="#000000" d="M 0,960 h 1820 l -720,-720 l -10,10 l -30,-30 v 10 h -30 l -230,-230 v -10 h -800 v 970" />
    </pattern>
    <pattern id="pattern-line-61" width="2560" height="960" patternUnits="userSpaceOnUse">
      <rect id="pattern-line-61-1" class="pattern-line-61" fill="#000000" x="0" y="0" width="2560" height="960" />
      <path id="pattern-line-61-2" class="pattern-line-61" fill="#c0c0c0" d="M 730,960 h 300 l 340,-340 v -20 l -90,-90 l 10,-10 l -20,-20 l 10,-10 h 10 v -20 h -10 v -20 l 440,-440 h -30 l -960,960 v 10" />
    </pattern>
    <pattern id="pattern-line-62" width="2560" height="960" patternUnits="userSpaceOnUse">
      <path id="pattern-line-62-1" class="pattern-line-62" fill="#c0c0c0" d="M 1270,240 l 250,-250 h -490 l 240,240 v 10" />
      <path id="pattern-line-62-2" class="pattern-line-62" fill="#c0c0c0" d="M 600,960 h 1260 l -590,-590 v -60 l -10,10 l -10,-10 l -20,20 l -10,-10 l -20,20 l 10,10 l -610,610" />
      <path id="pattern-line-62-3" class="pattern-line-62" fill="#000000" d="M 0,960 h 600 l 610,-610 l -10,-10 l 20,-20 l 10,10 l 20,-20 l 10,10 l 10,-10 v 60 l 590,590 h 700 v -970 h -1040 l -250,250 l -240,-240 v -10 h -1030 v 970" />
    </pattern>
    <pattern id="pattern-line-63" width="2560" height="960" patternUnits="userSpaceOnUse">
      <rect id="pattern-line-63-1" class="pattern-line-63" fill="#c0c0c0" x="0" y="0" width="2560" height="960" />
      <path id="pattern-line-63-2" class="pattern-line-63" fill="#000000" d="M 0,960 h 660 l 560,-560 l -400,-400 v -10 h -820 v 970" />
    </pattern>
    <pattern id="pattern-line-64" width="2560" height="960" patternUnits="userSpaceOnUse">
      <rect id="pattern-line-64-1" class="pattern-line-64" fill="#000000" x="0" y="0" width="2560" height="960" />
      <path id="pattern-line-64-2" class="pattern-line-64" fill="#0000c0" d="M 1220,300 l 310,-310 h -660 l 270,270 v 10 h 20 v 10 h 20 v 10 h 40 v 10" />
    </pattern>
    <pattern id="pattern-line-65" width="2560" height="960" patternUnits="userSpaceOnUse">
      <path id="pattern-line-65-1" class="pattern-line-65" fill="#c0c0c0" d="M 1990,960 h 570 v -970 h -1190 l -170,170 l 790,790 v 10" />
      <path id="pattern-line-65-2" class="pattern-line-65" fill="#0000c0" d="M 0,960 h 1990 l -790,-790 l 170,-170 v -10 h -1370 v 970" />
    </pattern>
    <pattern id="pattern-line-66" width="2560" height="960" patternUnits="userSpaceOnUse">
      <path id="pattern-line-66-1" class="pattern-line-66" fill="#c0c0c0" d="M 2000,960 h 560 v -970 h -1250 l -110,110 v 20 l -20,20 l 820,820" />
      <path id="pattern-line-66-2" class="pattern-line-66" fill="#0000c0" d="M 0,960 h 2000 l -820,-820 l 20,-20 v -20 l 110,-110 h -1310 v 970" />
    </pattern>
    <pattern id="pattern-line-67" width="2560" height="960" patternUnits="userSpaceOnUse">
      <rect id="pattern-line-67-1" class="pattern-line-67" fill="#0000c0" x="0" y="0" width="2560" height="960" />
      <path id="pattern-line-67-2" class="pattern-line-67" fill="#c0c0c0" d="M 2050,960 h 100 l -880,-880 l -40,40 v 20 l 820,820" />
    </pattern>
    <pattern id="pattern-line-69" width="2560" height="960" patternUnits="userSpaceOnUse">
      <path id="pattern-line-69-1" class="pattern-line-69" fill="#0000c0" d="M 2160,960 h 400 v -970 h -1420 l 230,230 v 10 h 30 l 10,-10 l 30,30 l 10,-10 l 710,710 v 10" />
      <path id="pattern-line-69-2" class="pattern-line-69" fill="#c0c0c0" d="M 2140,960 h 20 l -720,-720 v 20 l 700,700" />
      <path id="pattern-line-69-3" class="pattern-line-69" fill="#000000" d="M 0,960 h 2140 l -740,-740 v 10 h -30 l -230,-230 v -10 h -1140 v 970" />
    </pattern>
    <pattern id="pattern-line-74" width="2560" height="960" patternUnits="userSpaceOnUse">
      <path id="pattern-line-74-1" class="pattern-line-74" fill="#c0c0c0" d="M 2150,960 h 410 v -970 h -1390 l 340,340 l 10,-10 l 630,630 v 10" />
      <path id="pattern-line-74-2" class="pattern-line-74" fill="#000000" d="M 0,960 h 2150 l -640,-640 l -10,10 l -330,-330 v -10 h -1170 v 970" />
    </pattern>
    <pattern id="pattern-line-77" width="2560" height="960" patternUnits="userSpaceOnUse">
      <rect id="pattern-line-77-1" class="pattern-line-77" fill="#000000" x="0" y="0" width="2560" height="960" />
      <path id="pattern-line-77-2" class="pattern-line-77" fill="#c0c0c0" d="M 1700,630 l 20,-20 h -10 v -20 l 20,-20 l -20,-20 l 10,-10 l -40,-40 l 510,-510 h -120 l -450,450 v 20 h 10 v 20 l -20,20 l 10,10 l -20,20 l 100,100" />
      <path id="pattern-line-77-3" class="pattern-line-77" fill="#c0c0c0" d="M 1040,960 h 20 l 960,-960 v -10 h -20 l -960,960 v 10" />
    </pattern>
    <pattern id="pattern-line-78" width="2560" height="960" patternUnits="userSpaceOnUse">
      <rect id="pattern-line-78-1" class="pattern-line-78" fill="#000000" x="0" y="0" width="2560" height="960" />
      <path id="pattern-line-78-2" class="pattern-line-78" fill="#c0c0c0" d="M 1160,960 h 1020 l -500,-500 v -10 h -20 l -30,30 v 10 h -20 l -10,-10 l -10,10 v 40 l -430,430" />
      <path id="pattern-line-78-3" class="pattern-line-78" fill="#c0c0c0" d="M 910,960 h 100 l 500,-500 v -10 h 20 l 10,10 v 10 h 30 l 10,10 l 40,-40 l -30,-30 v -30 l 10,-10 h 10 v -60 l -10,10 l -10,-10 h -10 v 20 h -20 l -10,-10 l -10,10 v -10 h -20 v 30 l -610,610" />
    </pattern>
    <pattern id="pattern-line-80" width="2560" height="960" patternUnits="userSpaceOnUse">
      <rect id="pattern-line-80-1" class="pattern-line-80" fill="#c0c0c0" x="0" y="0" width="2560" height="960" />
      <path id="pattern-line-80-2" class="pattern-line-80" fill="#0000c0" d="M 1480,260 l 270,-270 h -540 l 250,250 l 10,-10 l 10,10 v 20" />
      <path id="pattern-line-80-3" class="pattern-line-80" fill="#000000" d="M 810,960 h 1750 v -970 h -680 l -320,320 v -10 h -40 v -10 h -20 v -10 h -20 l -670,670 v 10" />
    </pattern>
    <pattern id="pattern-line-81" width="2560" height="960" patternUnits="userSpaceOnUse">
      <path id="pattern-line-81-1" class="pattern-line-81" fill="#c0c0c0" d="M 2290,960 h 270 v -970 h -870 l -170,170 l 10,10 l -10,10 l 770,770 v 10" />
      <path id="pattern-line-81-2" class="pattern-line-81" fill="#0000c0" d="M 0,960 h 2290 l -770,-770 l 10,-10 l -10,-10 l 170,-170 v -10 h -1690 v 970" />
    </pattern>
    <pattern id="pattern-line-82" width="2560" height="960" patternUnits="userSpaceOnUse">
      <path id="pattern-line-82-1" class="pattern-line-82" fill="#c0c0c0" d="M 2330,960 h 230 v -970 h -930 l -110,110 l 10,10 l -10,10 v 30 l 810,810" />
      <path id="pattern-line-82-2" class="pattern-line-82" fill="#0000c0" d="M 0,960 h 2330 l -810,-810 v -30 l 10,-10 l -10,-10 l 110,-110 h -1630 v 970" />
    </pattern>
    <pattern id="pattern-line-83" width="2560" height="960" patternUnits="userSpaceOnUse">
      <rect id="pattern-line-83-1" class="pattern-line-83" fill="#0000c0" x="0" y="0" width="2560" height="960" />
      <rect id="pattern-line-83-2" class="pattern-line-83" fill="#c0c0c0" x="1430" y="-10" width="10" height="10" />
      <rect id="pattern-line-83-3" class="pattern-line-83" fill="#c0c0c0" x="1440" y="0" width="10" height="10" />
      <rect id="pattern-line-83-4" class="pattern-line-83" fill="#c0c0c0" x="1450" y="10" width="10" height="10" />
      <rect id="pattern-line-83-5" class="pattern-line-83" fill="#c0c0c0" x="1460" y="20" width="10" height="10" />
      <rect id="pattern-line-83-6" class="pattern-line-83" fill="#c0c0c0" x="1470" y="30" width="10" height="10" />
      <rect id="pattern-line-83-7" class="pattern-line-83" fill="#c0c0c0" x="1480" y="40" width="10" height="10" />
      <rect id="pattern-line-83-8" class="pattern-line-83" fill="#c0c0c0" x="1490" y="50" width="10" height="10" />
      <rect id="pattern-line-83-9" class="pattern-line-83" fill="#c0c0c0" x="1500" y="60" width="10" height="10" />
      <rect id="pattern-line-83-10" class="pattern-line-83" fill="#c0c0c0" x="1510" y="70" width="10" height="10" />
      <path id="pattern-line-83-11" class="pattern-line-83" fill="#c0c0c0" d="M 2380,960 h 110 l -880,-880 l -40,40 v -20 l -30,-30 l -20,20 l 40,40 h 10 v 20 l 810,810" />
    </pattern>
    <pattern id="pattern-line-84" width="2560" height="960" patternUnits="userSpaceOnUse">
      <path id="pattern-line-84-1" class="pattern-line-84" fill="#c0c0c0" d="M 910,960 h 1620 l -790,-790 v -10 h -40 l -790,790 v 10" />
      <path id="pattern-line-84-2" class="pattern-line-84" fill="#0000c0" d="M 0,960 h 910 l 790,-790 v -10 h 40 l 790,790 v 10 h 30 v -970 h -2560 v 970" />
    </pattern>
    <pattern id="pattern-line-85" width="2560" height="960" patternUnits="userSpaceOnUse">
      <path id="pattern-line-85-1" class="pattern-line-85" fill="#0000c0" d="M 2500,960 h 60 v -970 h -1090 l 240,240 v 10 h 30 l 10,-10 l 10,10 v -10 h 20 l 720,720 v 10" />
      <path id="pattern-line-85-2" class="pattern-line-85" fill="#c0c0c0" d="M 2390,960 h 110 l -720,-720 v -10 h -20 l -10,10 l -10,-10 v 10 h -20 l 50,50 l -20,20 l 640,640 v 10" />
      <path id="pattern-line-85-3" class="pattern-line-85" fill="#000000" d="M 0,960 h 2390 l -640,-640 l 20,-20 l -300,-300 v -10 h -1470 v 970" />
    </pattern>
    <pattern id="pattern-line-90" width="2560" height="960" patternUnits="userSpaceOnUse">
      <path id="pattern-line-90-1" class="pattern-line-90" fill="#c0c0c0" d="M 2430,960 h 130 v -970 h -1090 l 960,960 v 10" />
      <path id="pattern-line-90-2" class="pattern-line-90" fill="#000000" d="M 0,960 h 2430 l -960,-960 v -10 h -1470 v 970" />
    </pattern>
    <pattern id="pattern-line-93" width="2560" height="960" patternUnits="userSpaceOnUse">
      <rect id="pattern-line-93-1" class="pattern-line-93" fill="#000000" x="0" y="0" width="2560" height="960" />
      <path id="pattern-line-93-2" class="pattern-line-93" fill="#c0c0c0" d="M 1530,960 h 220 l 310,-310 l -10,-10 v -20 h 10 v -20 l -60,-60 l 10,-10 l -30,-30 h -20 l -40,40 l 10,10 l -400,400 v 10" />
    </pattern>
    <pattern id="pattern-line-94" width="2560" height="960" patternUnits="userSpaceOnUse">
      <rect id="pattern-line-94-1" class="pattern-line-94" fill="#000000" x="0" y="0" width="2560" height="960" />
      <path id="pattern-line-94-2" class="pattern-line-94" fill="#c0c0c0" d="M 1530,960 h 960 l -470,-470 v -10 h -20 l -10,10 l -30,-30 l -30,30 v 70 l -400,400" />
      <path id="pattern-line-94-3" class="pattern-line-94" fill="#c0c0c0" d="M 1240,960 h 80 l 560,-560 v -10 h 20 l 30,30 l 20,-20 l 10,10 l 10,-10 l 550,550 v 10 h 40 v -40 l -550,-550 h -10 v -40 h 10 v -20 l -10,10 l -10,-10 l -20,20 l -10,-10 l -10,10 h -10 v -20 l -10,10 h -10 v -30 l 20,-20 h -10 v -20 l -260,-260 h -160 l 340,340 v 20 l -610,610" />
    </pattern>
    <pattern id="pattern-line-96" width="2560" height="960" patternUnits="userSpaceOnUse">
      <rect id="pattern-line-96-1" class="pattern-line-96" fill="#000000" x="0" y="0" width="2560" height="960" />
      <path id="pattern-line-96-2" class="pattern-line-96" fill="#c0c0c0" d="M 1900,340 l 350,-350 h -790 l 330,330 l 10,-10 v -10 h 20 v 10 h 20 v 10 h 20 v 10 h 40 v 10" />
    </pattern>
    <pattern id="pattern-line-97" width="2560" height="960" patternUnits="userSpaceOnUse">
      <rect id="pattern-line-97-1" class="pattern-line-97" fill="#c0c0c0" x="0" y="0" width="2560" height="960" />
      <path id="pattern-line-97-2" class="pattern-line-97" fill="#0000c0" d="M 2550,960 h 10 v -40 l -930,-930 h -60 l 250,250 l 10,-10 l 720,720 v 10" />
    </pattern>
    <pattern id="pattern-line-100" width="2560" height="960" patternUnits="userSpaceOnUse">
      <rect id="pattern-line-100-1" class="pattern-line-100" fill="#0000c0" x="0" y="0" width="2560" height="960" />
      <path id="pattern-line-100-2" class="pattern-line-100" fill="#c0c0c0" d="M 1280,960 h 70 l 730,-730 l -40,-40 l -760,760 v 10" />
    </pattern>
    <pattern id="pattern-line-101" width="2560" height="960" patternUnits="userSpaceOnUse">
      <rect id="pattern-line-101-1" class="pattern-line-101" fill="#000000" x="0" y="0" width="2560" height="960" />
      <path id="pattern-line-101-2" class="pattern-line-101" fill="#0000c0" d="M 2550,760 h 10 v -770 h -850 l 340,340 v 10 h 30 l 20,-20 l 10,10 l 10,-10 l 430,430 v 10" />
    </pattern>
    <pattern id="pattern-line-106" width="2560" height="960" patternUnits="userSpaceOnUse">
      <rect id="pattern-line-106-1" class="pattern-line-106" fill="#000000" x="0" y="0" width="2560" height="960" />
      <path id="pattern-line-106-2" class="pattern-line-106" fill="#c0c0c0" d="M 2550,790 h 10 v -800 h -800 l 790,790 v 10" />
    </pattern>
    <pattern id="pattern-line-109" width="2560" height="960" patternUnits="userSpaceOnUse">
      <rect id="pattern-line-109-1" class="pattern-line-109" fill="#000000" x="0" y="0" width="2560" height="960" />
      <path id="pattern-line-109-2" class="pattern-line-109" fill="#c0c0c0" d="M 1860,960 h 260 l 280,-280 l -10,-10 v -30 l -70,-70 l 20,-20 l -30,-30 h -20 l -430,430 v 10" />
      <path id="pattern-line-109-3" class="pattern-line-109" fill="#c0c0c0" d="M 1780,960 h 60 l 720,-720 v -110 l -400,400 l 10,10 h 10 v 20 l -400,400" />
    </pattern>
    <pattern id="pattern-line-110" width="2560" height="960" patternUnits="userSpaceOnUse">
      <rect id="pattern-line-110-1" class="pattern-line-110" fill="#c0c0c0" x="0" y="0" width="2560" height="960" />
      <path id="pattern-line-110-2" class="pattern-line-110" fill="#000000" d="M 2550,650 h 10 v -660 h -670 l 330,330 v 10 h 20 v 20 h 10 v 30 l 20,20 l 10,-10 h 10 v 20 h 30 l 230,230 v 10" />
      <path id="pattern-line-110-3" class="pattern-line-110" fill="#000000" d="M 1630,960 h 270 l 430,-430 v -20 l -20,-20 l -10,10 l -20,-20 l -10,10 h -10 v -20 l -10,10 h -10 v -20 l 20,-20 l -40,-40 h -40 l -550,550 v 10" />
    </pattern>
    <pattern id="pattern-line-111" width="2560" height="960" patternUnits="userSpaceOnUse">
      <rect id="pattern-line-111-1" class="pattern-line-111" fill="#000000" x="0" y="0" width="2560" height="960" />
      <path id="pattern-line-111-2" class="pattern-line-111" fill="#c0c0c0" d="M 1730,960 h 830 v -800 l -310,310 l -10,-10 l -10,10 h -20 l -480,480 v 10" />
    </pattern>
    <pattern id="pattern-line-112" width="2560" height="960" patternUnits="userSpaceOnUse">
      <rect id="pattern-line-112-1" class="pattern-line-112" fill="#000000" x="0" y="0" width="2560" height="960" />
      <path id="pattern-line-112-2" class="pattern-line-112" fill="#0000c0" d="M 2240,370 l 310,-310 h 10 v -70 h -760 l 330,330 l 10,-10 l 20,20 v 10 h 20 v 10 h 20 v 10 h 40 v 10" />
    </pattern>
    <pattern id="pattern-line-116" width="2560" height="960" patternUnits="userSpaceOnUse">
      <rect id="pattern-line-116-1" class="pattern-line-116" fill="#0000c0" x="0" y="0" width="2560" height="960" />
      <path id="pattern-line-116-2" class="pattern-line-116" fill="#c0c0c0" d="M 1560,960 h 90 l 730,-730 v -10 h 40 v -30 l -10,-10 h -10 v -20 l -10,10 l -20,-20 l -810,810" />
    </pattern>
    <pattern id="pattern-line-117" width="2560" height="960" patternUnits="userSpaceOnUse">
      <rect id="pattern-line-117-1" class="pattern-line-117" fill="#000000" x="0" y="0" width="2560" height="960" />
      <path id="pattern-line-117-2" class="pattern-line-117" fill="#0000c0" d="M 2550,420 h 10 v -430 h -470 l 300,300 v 10 h 30 l 10,-10 l 120,120 v 10" />
    </pattern>
    <pattern id="pattern-line-122" width="2560" height="960" patternUnits="userSpaceOnUse">
      <rect id="pattern-line-122-1" class="pattern-line-122" fill="#000000" x="0" y="0" width="2560" height="960" />
      <path id="pattern-line-122-2" class="pattern-line-122" fill="#0000c0" d="M 2550,430 h 10 v -440 h -440 l 430,430 v 10" />
    </pattern>
  </defs>
  <rect id="block-1" class="block" fill="#c0c0c0" x="0" y="0" width="2560" height="960" />
  <rect id="block-2" class="block" fill="#000000" x="880" y="80" width="160" height="80" />
  <rect id="block-3" class="block" fill="#000000" x="160" y="80" width="160" height="80" />
  <rect id="block-4" class="block" fill="#000000" x="2320" y="160" width="80" height="80" />
  <rect id="block-5" class="block" fill="#000000" x="2000" y="160" width="80" height="80" />
  <rect id="block-6" class="block" fill="#000000" x="1680" y="160" width="80" height="80" />
  <path id="block-7" class="block" fill="#000000" d="M 1520,240 h 80 v -80 h 80 v -80 h -160 v 160" />
  <rect id="block-8" class="block" fill="#000000" x="1200" y="80" width="80" height="160" />
  <rect id="block-9" class="block" fill="#000000" x="640" y="160" width="80" height="80" />
  <path id="block-10" class="block" fill="#000000" d="M 480,240 h 80 v -80 h 80 v -80 h -160 v 160" />
  <rect id="block-11" class="block" fill="#000000" x="1440" y="240" width="80" height="80" />
  <rect id="block-12" class="block" fill="#000000" x="80" y="240" width="80" height="80" />
  <rect id="block-13" class="block" fill="#000000" x="2160" y="320" width="80" height="80" />
  <path id="block-14" class="block" fill="#000000" d="M 1840,400 h 160 v -80 h -80 v -160 h -80 v 80 h -80 v 80 h 80 v 80" />
  <rect id="block-15" class="block" fill="#000000" x="880" y="320" width="80" height="80" />
  <rect id="block-16" class="block" fill="#000000" x="160" y="320" width="80" height="80" />
  <rect id="block-17" class="block" fill="#000000" x="2240" y="400" width="80" height="80" />
  <rect id="block-18" class="block" fill="#000000" x="1520" y="320" width="80" height="160" />
  <rect id="block-19" class="block" fill="#000000" x="480" y="320" width="80" height="160" />
  <rect id="block-20" class="block" fill="#000000" x="2160" y="480" width="80" height="80" />
  <rect id="block-21" class="block" fill="#000000" x="1920" y="480" width="80" height="80" />
  <rect id="block-22" class="block" fill="#000000" x="1600" y="480" width="80" height="80" />
  <rect id="block-23" class="block" fill="#000000" x="1200" y="320" width="80" height="240" />
  <rect id="block-24" class="block" fill="#000000" x="560" y="480" width="80" height="80" />
  <rect id="block-25" class="block" fill="#000000" x="160" y="480" width="80" height="80" />
  <rect id="block-26" class="block" fill="#000000" x="2240" y="560" width="80" height="80" />
  <path id="area-1" class="area closed" fill="url(#fill-area-1)" stroke="none" d="M 1105,440 l 20,15 l 40,20 l 30,30 v 20 l -60,50 l -20,20 v 30 l 60,40 l 110,110 l 155,185 h -840 v -25 l 45,-20 l 80,-60 l 80,-80 l 20,-30 v -20 l -100,-50 l -30,-40 l 30,-30 l 80,-30 l 80,-10 l 160,-30 l 55,-30 h -5 l -10,-5 v -5 l -40,-30 l -10,-10 v -40 l 15,-15 Z" />
  <path id="area-2" class="area closed" fill="url(#fill-area-2)" stroke="none" d="M 995,415 l 10,-20 l -10,-10 h -40 Z" />
  <path id="area-3" class="area closed" fill="#0000c0" stroke="none" d="M 475,85 l -30,40 v 60 l -10,10 v 20 l -20,10 l -5,5 l -25,-25 h -30 l 30,-30 v -20 l -10,-20 l -20,-10 h -10 l -20,5 v -45 l -30,-30 h -30 l -20,10 l -20,20 l -20,-20 l -30,-10 h -10 l -30,30 l -10,20 l -30,40 v 60 l -10,10 v 20 l -20,10 l -10,20 v 30 l -30,10 v -280 h 500 l -40,40 Z" />
  <path id="area-4" class="area closed" fill="#0000c0" stroke="none" d="M 575,65 l 20,-20 l 40,-20 h -140 l 60,20 Z" />
  <path id="area-5" class="area closed" fill="#0000c0" stroke="none" d="M 705,185 h 30 l 20,20 v 30 h 15 l 5,-10 l 20,-10 v -20 l 10,-10 v -60 l 30,-40 l 10,-20 l 40,-40 h -860 l 590,10 h 30 l 30,30 v 45 l 20,-5 h 10 l 20,10 l 10,20 v 20 Z" />
  <path id="area-6" class="area closed" fill="#0000c0" stroke="none" d="M 935,65 l 20,-20 l 40,-20 h -140 l 60,20 Z" />
  <path id="area-7" class="area closed" fill="#0000c0" stroke="none" d="M 1065,185 h 30 l 30,30 h 10 v -20 l 10,-10 v -60 l 30,-40 l 10,-20 l 40,-40 h -1200 l 950,10 h 30 l 30,30 v 45 l 20,-5 h 10 l 20,10 l 10,20 v 20 Z" />
  <path id="area-8" class="area closed" fill="#0000c0" stroke="none" d="M 2195,155 l -30,40 v 60 l -10,10 h -20 v -20 l -20,-20 h -30 l 30,-30 v -20 l -10,-20 l -20,-10 h -10 l -20,5 v -45 l -30,-30 h -30 l -20,10 l -20,20 l -20,-20 l -30,-10 h -10 l -30,30 l -10,20 l -30,40 v 60 l -10,10 h -20 v -20 l -20,-20 h -30 l 30,-30 v -20 l -10,-20 l -20,-10 h -10 l -20,5 v -45 l -30,-30 h -30 l -20,10 l -20,20 l -20,-20 l -30,-10 h -10 l -30,30 l -10,20 l -30,40 v 60 l -10,10 v 20 l -20,10 v -30 l -20,-20 h -30 l 30,-30 v -20 l -10,-20 l -20,-10 h -10 l -20,5 v -45 l -30,-30 l 1190,-10 v 380 l -20,-20 l -20,-60 l -30,-10 l 10,-20 v -20 l -20,-20 h -30 l 30,-30 v -20 l -10,-20 l -20,-10 h -10 l -20,5 v -45 l -30,-30 h -30 l -20,10 l -20,20 l -20,-20 l -30,-10 h -10 l -30,30 Z" />
  <path id="area-9" class="area closed" fill="#0000c0" stroke="none" d="M 1275,65 l 20,-20 l 40,-20 h -140 l 60,20 Z" />
  <path id="line-10" class="line closed" fill="none" stroke="url(#pattern-line-10)" d="M 15,1005 h 2540 v -1000 h -2550 v 1000 Z" />
  <path id="line-11" class="line closed" fill="none" stroke="url(#pattern-line-11)" d="M 35,985 h 2500 v -960 h -2510 v 960 Z" />
  <path id="line-12" class="line" fill="none" stroke="url(#pattern-line-12)" d="M 535,975 l 110,-60 l 80,-60 l 80,-80 l 20,-30 v -20 l -100,-50 l -30,-40 l 30,-30 l 80,-30 l 80,-10 l 160,-30 l 40,-20 v -20 l -40,-30 l -90,-80 h 70 l 100,70 l 40,20 l 30,30 v 20 l -60,50 l -20,20 v 30 l 60,40 l 110,110 l 180,210" />
  <path id="line-13" class="line" fill="none" stroke="url(#pattern-line-13)" d="M 35,455 l 30,10 l 40,10 h 20 l 40,40 l 20,10 l 30,10 l 50,-10 l 30,-10 h 50 l 40,10 l 40,20" />
  <path id="line-14" class="line" fill="none" stroke="url(#pattern-line-14)" d="M 175,505 l 10,-20 l -10,-40 l -10,-50 l -60,-60 l 30,10 v -20 h 10 l 10,-20 l 20,60 l 10,10 l 20,-10 v -30 l -10,-40 l -20,-30 l 30,20 v -10 l 10,10 l 10,-30 v 70 l 10,20 h 10 l 20,-50 v 10 l 10,10 l 20,-10 v -10 l 20,10 l -50,40 l -20,20 l -10,20 l -20,20 l -10,30 l 20,100" />
  <path id="line-15" class="line" fill="none" stroke="#000000" d="M 165,445 h -10 l -10,-10 l -10,-20 l 20,-20" />
  <path id="line-16" class="line" fill="none" stroke="url(#pattern-line-16)" d="M 125,385 h -10 l -30,-20 l -20,-20 l -10,-30 v -50 l 10,-20 l 20,-10 h 10 l 20,20" />
  <path id="line-17" class="line" fill="none" stroke="#0000c0" d="M 85,225 v -10 l 20,-20 l 10,-20 h 10 l 30,10" />
  <path id="line-18" class="line" fill="none" stroke="#0000c0" d="M 95,185 v -40 l 20,-30 h 20 l 20,10 v 10" />
  <path id="line-19" class="line" fill="none" stroke="url(#pattern-line-19)" d="M 125,105 l 10,-20 l 30,-30 h 10 l 30,10 l 20,20 v 20" />
  <path id="line-20" class="line" fill="none" stroke="url(#pattern-line-20)" d="M 235,75 l 10,-10 l 20,-10 h 30 l 30,30 v 30 l -10,20 l 30,-10 h 10 l 20,10 l 10,20 v 20 l -20,20 l -20,10" />
  <path id="line-21" class="line" fill="none" stroke="url(#pattern-line-21)" d="M 375,205 h 10 l 20,20 v 20 l -10,20 l -20,20 l -20,10 l 10,10 l 10,20 l -20,20 l -30,10 h -20 l -30,-10" />
  <path id="line-22" class="line" fill="none" stroke="#000000" d="M 355,355 v 10 v -10 l 50,-10" />
  <path id="line-23" class="line" fill="none" stroke="#000000" d="M 325,365 v 20 l -10,20 l -20,-30" />
  <path id="line-24" class="line" fill="none" stroke="#000000" d="M 295,505 v -90 l -10,-10 h -20" />
  <path id="line-25" class="line" fill="none" stroke="#000000" d="M 325,505 v -70 l 30,-20 l 20,-30 l 50,-30" />
  <path id="line-26" class="line" fill="none" stroke="#000000" d="M 465,315 v 30 l -20,30 l -20,10 v 20 l -20,20 h -30" />
  <path id="line-27" class="line" fill="none" stroke="#000000" d="M 285,435 l -20,10 h -20 l -10,-10" />
  <path id="line-28" class="line" fill="none" stroke="#000000" d="M 35,455 l 30,-10 l 20,-10 l 20,-20 l 20,-10" />
  <path id="line-29" class="line" fill="none" stroke="url(#pattern-line-29)" d="M 385,435 l 30,10 l 40,10 h 20 l 40,40 l 20,10 l 30,10 l 50,-10 l 30,-10 h 50 l 40,10 l 40,20" />
  <path id="line-30" class="line" fill="none" stroke="url(#pattern-line-30)" d="M 525,485 l 10,-20 l -10,-40 l -10,-50 l -60,-60 l 30,10 v -20 h 10 l 10,-20 l 20,60 l 10,10 l 20,-10 v -30 l -10,-40 l -20,-30 l 30,20 v -10 l 10,10 l 10,-30 v 70 l 10,20 h 10 l 20,-50 v 10 l 10,10 l 20,-10 v -10 l 20,10 l -50,40 l -20,20 l -10,20 l -20,20 l -10,30 l 20,100" />
  <path id="line-31" class="line" fill="none" stroke="#c0c0c0" d="M 515,425 h -10 l -10,-10 l -10,-20 l 20,-20" />
  <path id="line-32" class="line" fill="none" stroke="url(#pattern-line-32)" d="M 475,365 h -10 l -30,-20 l -20,-20 l -10,-30 v -50 l 10,-20 l 20,-10 h 10 l 20,20" />
  <path id="line-33" class="line" fill="none" stroke="url(#pattern-line-33)" d="M 435,205 v -10 l 20,-20 l 10,-20 h 10 l 30,10" />
  <path id="line-34" class="line" fill="none" stroke="url(#pattern-line-34)" d="M 445,165 v -40 l 20,-30 h 20 l 20,10 v 10" />
  <path id="line-35" class="line" fill="none" stroke="url(#pattern-line-35)" d="M 475,85 l 10,-20 l 30,-30 h 10 l 30,10 l 20,20 v 20" />
  <path id="line-36" class="line" fill="none" stroke="url(#pattern-line-36)" d="M 585,55 l 10,-10 l 20,-10 h 30 l 30,30 v 30 l -10,20 l 30,-10 h 10 l 20,10 l 10,20 v 20 l -20,20 l -20,10" />
  <path id="line-37" class="line" fill="none" stroke="url(#pattern-line-37)" d="M 725,185 h 10 l 20,20 v 20 l -10,20 l -20,20 l -20,10 l 10,10 l 10,20 l -20,20 l -30,10 h -20 l -30,-10" />
  <path id="line-38" class="line" fill="none" stroke="#000000" d="M 705,335 v 10 v -10 l 50,-10" />
  <path id="line-39" class="line" fill="none" stroke="#000000" d="M 675,345 v 20 l -10,20 l -20,-30" />
  <path id="line-40" class="line" fill="none" stroke="#000000" d="M 645,485 v -90 l -10,-10 h -20" />
  <path id="line-41" class="line" fill="none" stroke="#000000" d="M 675,485 v -70 l 30,-20 l 20,-30 l 50,-30" />
  <path id="line-42" class="line" fill="none" stroke="#000000" d="M 815,295 v 30 l -20,30 l -20,10 v 20 l -20,20 h -30" />
  <path id="line-43" class="line" fill="none" stroke="#000000" d="M 635,415 l -20,10 h -20 l -10,-10" />
  <path id="line-44" class="line" fill="none" stroke="#000000" d="M 385,435 l 30,-10 l 20,-10 l 20,-20 l 20,-10" />
  <path id="line-45" class="line" fill="none" stroke="#000000" d="M 745,435 l 30,10 l 40,10 h 20 l 40,40 l 20,10 l 30,10 l 50,-10 l 30,-10 h 50 l 40,10 l 40,20" />
  <path id="line-46" class="line" fill="none" stroke="url(#pattern-line-46)" d="M 885,485 l 10,-20 l -10,-40 l -10,-50 l -60,-60 l 30,10 v -20 h 10 l 10,-20 l 20,60 l 10,10 l 20,-10 v -30 l -10,-40 l -20,-30 l 30,20 v -10 l 10,10 l 10,-30 v 70 l 10,20 h 10 l 20,-50 v 10 l 10,10 l 20,-10 v -10 l 20,10 l -50,40 l -20,20 l -10,20 l -20,20 l -10,30 l 20,100" />
  <path id="line-47" class="line" fill="none" stroke="#000000" d="M 875,425 h -10 l -10,-10 l -10,-20 l 20,-20" />
  <path id="line-48" class="line" fill="none" stroke="url(#pattern-line-48)" d="M 835,365 h -10 l -30,-20 l -20,-20 l -10,-30 v -50 l 10,-20 l 20,-10 h 10 l 20,20" />
  <path id="line-49" class="line" fill="none" stroke="#0000c0" d="M 795,205 v -10 l 20,-20 l 10,-20 h 10 l 30,10" />
  <path id="line-50" class="line" fill="none" stroke="#0000c0" d="M 805,165 v -40 l 20,-30 h 20 l 20,10 v 10" />
  <path id="line-51" class="line" fill="none" stroke="url(#pattern-line-51)" d="M 835,85 l 10,-20 l 30,-30 h 10 l 30,10 l 20,20 v 20" />
  <path id="line-52" class="line" fill="none" stroke="url(#pattern-line-52)" d="M 945,55 l 10,-10 l 20,-10 h 30 l 30,30 v 30 l -10,20 l 30,-10 h 10 l 20,10 l 10,20 v 20 l -20,20 l -20,10" />
  <path id="line-53" class="line" fill="none" stroke="url(#pattern-line-53)" d="M 1085,185 h 10 l 20,20 v 20 l -10,20 l -20,20 l -20,10 l 10,10 l 10,20 l -20,20 l -30,10 h -20 l -30,-10" />
  <path id="line-54" class="line" fill="none" stroke="#000000" d="M 1065,335 v 10 v -10 l 50,-10" />
  <path id="line-55" class="line" fill="none" stroke="#000000" d="M 1035,345 v 20 l -10,20 l -20,-30" />
  <path id="line-56" class="line" fill="none" stroke="#000000" d="M 1005,485 v -90 l -10,-10 h -20" />
  <path id="line-57" class="line" fill="none" stroke="#000000" d="M 1035,485 v -70 l 30,-20 l 20,-30 l 50,-30" />
  <path id="line-58" class="line" fill="none" stroke="#000000" d="M 1175,295 v 30 l -20,30 l -20,10 v 20 l -20,20 h -30" />
  <path id="line-59" class="line" fill="none" stroke="#000000" d="M 995,415 l -20,10 h -20 l -10,-10" />
  <path id="line-60" class="line" fill="none" stroke="#000000" d="M 745,435 l 30,-10 l 20,-10 l 20,-20 l 20,-10" />
  <path id="line-61" class="line" fill="none" stroke="url(#pattern-line-61)" d="M 1085,435 l 30,10 l 40,10 h 20 l 40,40 l 20,10 l 30,10 l 50,-10 l 30,-10 h 50 l 40,10 l 40,20" />
  <path id="line-62" class="line" fill="none" stroke="url(#pattern-line-62)" d="M 1225,485 l 10,-20 l -10,-40 l -10,-50 l -60,-60 l 30,10 v -20 h 10 l 10,-20 l 20,60 l 10,10 l 20,-10 v -30 l -10,-40 l -20,-30 l 30,20 v -10 l 10,10 l 10,-30 v 70 l 10,20 h 10 l 20,-50 v 10 l 10,10 l 20,-10 v -10 l 20,10 l -50,40 l -20,20 l -10,20 l -20,20 l -10,30 l 20,100" />
  <path id="line-63" class="line" fill="none" stroke="url(#pattern-line-63)" d="M 1215,425 h -10 l -10,-10 l -10,-20 l 20,-20" />
  <path id="line-64" class="line" fill="none" stroke="url(#pattern-line-64)" d="M 1175,365 h -10 l -30,-20 l -20,-20 l -10,-30 v -50 l 10,-20 l 20,-10 h 10 l 20,20" />
  <path id="line-65" class="line" fill="none" stroke="url(#pattern-line-65)" d="M 1135,205 v -10 l 20,-20 l 10,-20 h 10 l 30,10" />
  <path id="line-66" class="line" fill="none" stroke="url(#pattern-line-66)" d="M 1145,165 v -40 l 20,-30 h 20 l 20,10 v 10" />
  <path id="line-67" class="line" fill="none" stroke="url(#pattern-line-67)" d="M 1175,85 l 10,-20 l 30,-30 h 10 l 30,10 l 20,20 v 20" />
  <path id="line-68" class="line" fill="none" stroke="#0000c0" d="M 1285,55 l 10,-10 l 20,-10 h 30 l 30,30 v 30 l -10,20 l 30,-10 h 10 l 20,10 l 10,20 v 20 l -20,20 l -20,10" />
  <path id="line-69" class="line" fill="none" stroke="url(#pattern-line-69)" d="M 1425,185 h 10 l 20,20 v 20 l -10,20 l -20,20 l -20,10 l 10,10 l 10,20 l -20,20 l -30,10 h -20 l -30,-10" />
  <path id="line-70" class="line" fill="none" stroke="#000000" d="M 1405,335 v 10 v -10 l 50,-10" />
  <path id="line-71" class="line" fill="none" stroke="#000000" d="M 1375,345 v 20 l -10,20 l -20,-30" />
  <path id="line-72" class="line" fill="none" stroke="#000000" d="M 1345,485 v -90 l -10,-10 h -20" />
  <path id="line-73" class="line" fill="none" stroke="#000000" d="M 1375,485 v -70 l 30,-20 l 20,-30 l 50,-30" />
  <path id="line-74" class="line" fill="none" stroke="url(#pattern-line-74)" d="M 1515,295 v 30 l -20,30 l -20,10 v 20 l -20,20 h -30" />
  <path id="line-75" class="line" fill="none" stroke="#000000" d="M 1335,415 l -20,10 h -20 l -10,-10" />
  <path id="line-76" class="line" fill="none" stroke="#000000" d="M 1085,435 l 30,-10 l 20,-10 l 20,-20 l 20,-10" />
  <path id="line-77" class="line" fill="none" stroke="url(#pattern-line-77)" d="M 1425,445 l 30,10 l 40,10 h 20 l 40,40 l 20,10 l 30,10 l 50,-10 l 30,-10 h 50 l 40,10 l 40,20" />
  <path id="line-78" class="line" fill="none" stroke="url(#pattern-line-78)" d="M 1565,495 l 10,-20 l -10,-40 l -10,-50 l -60,-60 l 30,10 v -20 h 10 l 10,-20 l 20,60 l 10,10 l 20,-10 v -30 l -10,-40 l -20,-30 l 30,20 v -10 l 10,10 l 10,-30 v 70 l 10,20 h 10 l 20,-50 v 10 l 10,10 l 20,-10 v -10 l 20,10 l -50,40 l -20,20 l -10,20 l -20,20 l -10,30 l 20,100" />
  <path id="line-79" class="line" fill="none" stroke="#c0c0c0" d="M 1555,435 h -10 l -10,-10 l -10,-20 l 20,-20" />
  <path id="line-80" class="line" fill="none" stroke="url(#pattern-line-80)" d="M 1515,375 h -10 l -30,-20 l -20,-20 l -10,-30 v -50 l 10,-20 l 20,-10 h 10 l 20,20" />
  <path id="line-81" class="line" fill="none" stroke="url(#pattern-line-81)" d="M 1475,215 v -10 l 20,-20 l 10,-20 h 10 l 30,10" />
  <path id="line-82" class="line" fill="none" stroke="url(#pattern-line-82)" d="M 1485,175 v -40 l 20,-30 h 20 l 20,10 v 10" />
  <path id="line-83" class="line" fill="none" stroke="url(#pattern-line-83)" d="M 1515,95 l 10,-20 l 30,-30 h 10 l 30,10 l 20,20 v 20" />
  <path id="line-84" class="line" fill="none" stroke="url(#pattern-line-84)" d="M 1625,65 l 10,-10 l 20,-10 h 30 l 30,30 v 30 l -10,20 l 30,-10 h 10 l 20,10 l 10,20 v 20 l -20,20 l -20,10" />
  <path id="line-85" class="line" fill="none" stroke="url(#pattern-line-85)" d="M 1765,195 h 10 l 20,20 v 20 l -10,20 l -20,20 l -20,10 l 10,10 l 10,20 l -20,20 l -30,10 h -20 l -30,-10" />
  <path id="line-86" class="line" fill="none" stroke="#000000" d="M 1745,345 v 10 v -10 l 50,-10" />
  <path id="line-87" class="line" fill="none" stroke="#000000" d="M 1715,355 v 20 l -10,20 l -20,-30" />
  <path id="line-88" class="line" fill="none" stroke="#000000" d="M 1685,495 v -90 l -10,-10 h -20" />
  <path id="line-89" class="line" fill="none" stroke="#000000" d="M 1715,495 v -70 l 30,-20 l 20,-30 l 50,-30" />
  <path id="line-90" class="line" fill="none" stroke="url(#pattern-line-90)" d="M 1855,305 v 30 l -20,30 l -20,10 v 20 l -20,20 h -30" />
  <path id="line-91" class="line" fill="none" stroke="#000000" d="M 1675,425 l -20,10 h -20 l -10,-10" />
  <path id="line-92" class="line" fill="none" stroke="#000000" d="M 1425,445 l 30,-10 l 20,-10 l 20,-20 l 20,-10" />
  <path id="line-93" class="line" fill="none" stroke="url(#pattern-line-93)" d="M 1765,475 l 30,10 l 40,10 h 20 l 40,40 l 20,10 l 30,10 l 50,-10 l 30,-10 h 50 l 40,10 l 40,20" />
  <path id="line-94" class="line" fill="none" stroke="url(#pattern-line-94)" d="M 1905,525 l 10,-20 l -10,-40 l -10,-50 l -60,-60 l 30,10 v -20 h 10 l 10,-20 l 20,60 l 10,10 l 20,-10 v -30 l -10,-40 l -20,-30 l 30,20 v -10 l 10,10 l 10,-30 v 70 l 10,20 h 10 l 20,-50 v 10 l 10,10 l 20,-10 v -10 l 20,10 l -50,40 l -20,20 l -10,20 l -20,20 l -10,30 l 20,100" />
  <path id="line-95" class="line" fill="none" stroke="#000000" d="M 1895,465 h -10 l -10,-10 l -10,-20 l 20,-20" />
  <path id="line-96" class="line" fill="none" stroke="url(#pattern-line-96)" d="M 1855,405 h -10 l -30,-20 l -20,-20 l -10,-30 v -50 l 10,-20 l 20,-10 h 10 l 20,20" />
  <path id="line-97" class="line" fill="none" stroke="url(#pattern-line-97)" d="M 1815,245 v -10 l 20,-20 l 10,-20 h 10 l 30,10" />
  <path id="line-98" class="line" fill="none" stroke="#0000c0" d="M 1825,205 v -40 l 20,-30 h 20 l 20,10 v 10" />
  <path id="line-99" class="line" fill="none" stroke="#0000c0" d="M 1855,125 l 10,-20 l 30,-30 h 10 l 30,10 l 20,20 v 20" />
  <path id="line-100" class="line" fill="none" stroke="url(#pattern-line-100)" d="M 1965,95 l 10,-10 l 20,-10 h 30 l 30,30 v 30 l -10,20 l 30,-10 h 10 l 20,10 l 10,20 v 20 l -20,20 l -20,10" />
  <path id="line-101" class="line" fill="none" stroke="url(#pattern-line-101)" d="M 2105,225 h 10 l 20,20 v 20 l -10,20 l -20,20 l -20,10 l 10,10 l 10,20 l -20,20 l -30,10 h -20 l -30,-10" />
  <path id="line-102" class="line" fill="none" stroke="#000000" d="M 2085,375 v 10 v -10 l 50,-10" />
  <path id="line-103" class="line" fill="none" stroke="#000000" d="M 2055,385 v 20 l -10,20 l -20,-30" />
  <path id="line-104" class="line" fill="none" stroke="#000000" d="M 2025,525 v -90 l -10,-10 h -20" />
  <path id="line-105" class="line" fill="none" stroke="#000000" d="M 2055,525 v -70 l 30,-20 l 20,-30 l 50,-30" />
  <path id="line-106" class="line" fill="none" stroke="url(#pattern-line-106)" d="M 2195,335 v 30 l -20,30 l -20,10 v 20 l -20,20 h -30" />
  <path id="line-107" class="line" fill="none" stroke="#000000" d="M 2015,455 l -20,10 h -20 l -10,-10" />
  <path id="line-108" class="line" fill="none" stroke="#000000" d="M 1765,475 l 30,-10 l 20,-10 l 20,-20 l 20,-10" />
  <path id="line-109" class="line" fill="none" stroke="url(#pattern-line-109)" d="M 2105,505 l 30,10 l 40,10 h 20 l 40,40 l 20,10 l 30,10 l 50,-10 l 30,-10 h 50 l 40,10 l 40,20" />
  <path id="line-110" class="line" fill="none" stroke="url(#pattern-line-110)" d="M 2245,555 l 10,-20 l -10,-40 l -10,-50 l -60,-60 l 30,10 v -20 h 10 l 10,-20 l 20,60 l 10,10 l 20,-10 v -30 l -10,-40 l -20,-30 l 30,20 v -10 l 10,10 l 10,-30 v 70 l 10,20 h 10 l 20,-50 v 10 l 10,10 l 20,-10 v -10 l 20,10 l -50,40 l -20,20 l -10,20 l -20,20 l -10,30 l 20,100" />
  <path id="line-111" class="line" fill="none" stroke="url(#pattern-line-111)" d="M 2235,495 h -10 l -10,-10 l -10,-20 l 20,-20" />
  <path id="line-112" class="line" fill="none" stroke="url(#pattern-line-112)" d="M 2195,435 h -10 l -30,-20 l -20,-20 l -10,-30 v -50 l 10,-20 l 20,-10 h 10 l 20,20" />
  <path id="line-113" class="line" fill="none" stroke="#0000c0" d="M 2155,275 v -10 l 20,-20 l 10,-20 h 10 l 30,10" />
  <path id="line-114" class="line" fill="none" stroke="#0000c0" d="M 2165,235 v -40 l 20,-30 h 20 l 20,10 v 10" />
  <path id="line-115" class="line" fill="none" stroke="#0000c0" d="M 2195,155 l 10,-20 l 30,-30 h 10 l 30,10 l 20,20 v 20" />
  <path id="line-116" class="line" fill="none" stroke="url(#pattern-line-116)" d="M 2305,125 l 10,-10 l 20,-10 h 30 l 30,30 v 30 l -10,20 l 30,-10 h 10 l 20,10 l 10,20 v 20 l -20,20 l -20,10" />
  <path id="line-117" class="line" fill="none" stroke="url(#pattern-line-117)" d="M 2445,255 h 10 l 20,20 v 20 l -10,20 l -20,20 l -20,10 l 10,10 l 10,20 l -20,20 l -30,10 h -20 l -30,-10" />
  <path id="line-118" class="line" fill="none" stroke="#000000" d="M 2425,405 v 10 v -10 l 50,-10" />
  <path id="line-119" class="line" fill="none" stroke="#000000" d="M 2395,415 v 20 l -10,20 l -20,-30" />
  <path id="line-120" class="line" fill="none" stroke="#000000" d="M 2365,555 v -90 l -10,-10 h -20" />
  <path id="line-121" class="line" fill="none" stroke="#000000" d="M 2395,555 v -70 l 30,-20 l 20,-30 l 50,-30" />
  <path id="line-122" class="line" fill="none" stroke="url(#pattern-line-122)" d="M 2535,365 v 30 l -20,30 l -20,10 v 20 l -20,20 h -30" />
  <path id="line-123" class="line" fill="none" stroke="#000000" d="M 2355,485 l -20,10 h -20 l -10,-10" />
  <path id="line-124" class="line" fill="none" stroke="#000000" d="M 2105,505 l 30,-10 l 20,-10 l 20,-20 l 20,-10" />
  <path id="line-125" class="line closed" fill="none" stroke="#000000" d="M 1895,685 l -10,10 h -30 l -10,-20 l -20,-10 l 30,-20 v 10 v -10 h 40 l 10,30 Z" />
  <path id="line-126" class="line" fill="none" stroke="#000000" d="M 1875,635 l -40,-20 l -30,-10 l -20,20 l -20,-10 h 10 l 10,10 l -10,20" />
  <path id="line-127" class="line" fill="none" stroke="#000000" d="M 1815,665 h -10 l -20,-10 l -20,-20 l -20,-50 l -10,-10 h -20 v 10 h -20 l -20,30 l 10,20 v 30 l 30,20 h 40 v -20 l 30,-10" />
  <path id="line-128" class="line" fill="none" stroke="#000000" d="M 1785,675 h 20 v -10" />
  <path id="line-129" class="line" fill="none" stroke="#000000" d="M 1675,635 h -10 l -20,10 l -10,-10 h -20 l -30,30 l 30,20 h 30" />
  <path id="line-130" class="line closed" fill="none" stroke="#000000" d="M 1675,655 v 40 h -20 l -30,-40 l 40,-10 Z" />
  <path id="line-131" class="line" fill="none" stroke="#000000" d="M 1625,625 l 20,-10 l 20,20" />
  <path id="line-132" class="line" fill="none" stroke="#000000" d="M 1805,635 h 30 v -10" />
  <path id="line-133" class="line closed" fill="none" stroke="#000000" d="M 1705,615 h 10 Z" />
  <path id="line-134" class="line" fill="none" stroke="#000000" d="M 1725,605 l 0,0" />
  <path id="line-135" class="line" fill="none" stroke="#000000" d="M 1725,635 l 10,-10 l 10,20" />
  <path id="line-136" class="line closed" fill="none" stroke="#000000" d="M 1745,785 l -10,10 h -30 l -10,-20 l -20,-10 l 30,-20 v 10 v -10 h 40 l 10,30 Z" />
  <path id="line-137" class="line" fill="none" stroke="#000000" d="M 1725,735 l -40,-20 l -30,-10 l -20,20 l -20,-10 h 10 l 10,10 l -10,20" />
  <path id="line-138" class="line" fill="none" stroke="#000000" d="M 1665,765 h -10 l -20,-10 l -20,-20 l -20,-50 l -10,-10 h -20 v 10 h -20 l -20,30 l 10,20 v 30 l 30,20 h 40 v -20 l 30,-10" />
  <path id="line-139" class="line" fill="none" stroke="#000000" d="M 1635,775 h 20 v -10" />
  <path id="line-140" class="line" fill="none" stroke="#000000" d="M 1525,735 h -10 l -20,10 l -10,-10 h -20 l -30,30 l 30,20 h 30" />
  <path id="line-141" class="line closed" fill="none" stroke="#000000" d="M 1525,755 v 40 h -20 l -30,-40 l 40,-10 Z" />
  <path id="line-142" class="line" fill="none" stroke="#000000" d="M 1475,725 l 20,-10 l 20,20" />
  <path id="line-143" class="line" fill="none" stroke="#000000" d="M 1655,735 h 30 v -10" />
  <path id="line-144" class="line closed" fill="none" stroke="#000000" d="M 1555,715 h 10 Z" />
  <path id="line-145" class="line" fill="none" stroke="#000000" d="M 1575,705 l 0,0" />
  <path id="line-146" class="line" fill="none" stroke="#000000" d="M 1575,735 l 10,-10 l 10,20" />
  <path id="line-147" class="line closed" fill="none" stroke="#000000" d="M 2145,805 l -10,10 h -30 l -10,-20 l -20,-10 l 30,-20 v 10 v -10 h 40 l 10,30 Z" />
  <path id="line-148" class="line" fill="none" stroke="#000000" d="M 2125,755 l -40,-20 l -30,-10 l -20,20 l -20,-10 h 10 l 10,10 l -10,20" />
  <path id="line-149" class="line" fill="none" stroke="#000000" d="M 2065,785 h -10 l -20,-10 l -20,-20 l -20,-50 l -10,-10 h -20 v 10 h -20 l -20,30 l 10,20 v 30 l 30,20 h 40 v -20 l 30,-10" />
  <path id="line-150" class="line" fill="none" stroke="#000000" d="M 2035,795 h 20 v -10" />
  <path id="line-151" class="line" fill="none" stroke="#000000" d="M 1925,755 h -10 l -20,10 l -10,-10 h -20 l -30,30 l 30,20 h 30" />
  <path id="line-152" class="line closed" fill="none" stroke="#000000" d="M 1925,775 v 40 h -20 l -30,-40 l 40,-10 Z" />
  <path id="line-153" class="line" fill="none" stroke="#000000" d="M 1875,745 l 20,-10 l 20,20" />
  <path id="line-154" class="line" fill="none" stroke="#000000" d="M 2055,755 h 30 v -10" />
  <path id="line-155" class="line closed" fill="none" stroke="#000000" d="M 1955,735 h 10 Z" />
  <path id="line-156" class="line" fill="none" stroke="#000000" d="M 1975,725 l 0,0" />
  <path id="line-157" class="line" fill="none" stroke="#000000" d="M 1975,755 l 10,-10 l 10,20" />
  <path id="line-158" class="line" fill="none" stroke="#000000" d="M 265,785 l -10,-10 v -20 l 10,-20 l 10,-10 l 20,20" />
  <path id="line-159" class="line" fill="none" stroke="#000000" d="M 265,715 l 10,-20 l 20,-10 l 20,10 h 20 l 10,20 l -10,20 l 10,10" />
  <path id="line-160" class="line" fill="none" stroke="#000000" d="M 355,715 h 10 l 40,20 v 10 l -10,20 l 10,20 v 10" />
  <path id="line-161" class="line" fill="none" stroke="#000000" d="M 385,765 h -10 l -20,10 v 20 v -10 l -10,10 h -20 l -20,-20 l -10,20 h -20" />
  <path id="line-162" class="line" fill="none" stroke="#000000" d="M 385,705 l 10,-10 h 20 l 20,10 l 10,20 l -10,30 l 20,-20 h 20 l 20,20 v 20 l -10,20 h -130" />
  <path id="line-163" class="line" fill="none" stroke="#000000" d="M 505,735 l -10,-10 v -20 l 10,-20 l 10,-10 l 20,20" />
  <path id="line-164" class="line" fill="none" stroke="#000000" d="M 505,665 l 10,-20 l 20,-10 l 20,10 h 20 l 10,20 l -10,20 l 10,10" />
  <path id="line-165" class="line" fill="none" stroke="#000000" d="M 595,665 h 10 l 40,20 v 10 l -10,20 l 10,20 v 10" />
  <path id="line-166" class="line" fill="none" stroke="#000000" d="M 625,715 h -10 l -20,10 v 20 v -10 l -10,10 h -20 l -20,-20 l -10,20 h -20" />
  <path id="line-167" class="line" fill="none" stroke="#000000" d="M 625,655 l 10,-10 h 20 l 20,10 l 10,20 l -10,30 l 20,-20 h 20 l 20,20 v 20 l -10,20 h -130" />
  <path id="line-168" class="line" fill="none" stroke="#0000c0" d="M 2525,395 l -10,-10 l -20,-60 l -30,-10 h -10" />
  <path id="line-169" class="line" fill="none" stroke="#0000c0" d="M 2145,265 h -10" />
  <path id="line-170" class="line" fill="none" stroke="#0000c0" d="M 1805,235 h -10" />
  <path id="line-171" class="line" fill="none" stroke="#0000c0" d="M 765,235 h -20" />
  <path id="line-172" class="line" fill="none" stroke="#0000c0" d="M 55,295 l -30,10" />
</svg>
