<?xml version="1.0" encoding="UTF-8"?>
<svg width="53" height="53" version="1.1" viewBox="0 0 14.023 14.023" xmlns="http://www.w3.org/2000/svg">
 <g transform="translate(-77.216 -135.49)">
  <path d="m85.021 148.85h-3.175v-0.79375h-1.5875v-1.5875h-1.5875v-1.5875h-0.79375v-1.5875h3.9688v1.5875h0.79375v1.5875h0.79375v0.79375h2.3812v-1.5875h0.79375v-4.7625h-0.79375v0.79375h-0.79375v0.79375h-4.7625v-0.79375h-0.79375v-0.79375h-0.79375v-1.5875h-0.79375v-3.175h4.7625v1.5875h-0.79375v1.5875h0.79375v0.79375h3.175v-0.79375h0.79375v-1.5875h-0.79375v-1.5875h4.7625v9.525h-0.79375v1.5875h-0.79375v0.79375h-0.79375v0.79375zm-2.7781-0.79375h0.39688v-0.79375h-0.79375v-0.79375h-0.79375v-0.79375h0.79375v-0.79375h-0.79375v-0.79375h-0.79375v0.79375h-0.79375v-0.79375h-0.79375v0.79375h0.79375v0.79375h0.79375v0.79375h0.79375v0.79375h0.79375v0.79375zm-1.5875-2.3812h-0.39688v-0.79375h0.79375v0.79375zm6.35 2.3812h0.39688v-0.79375h0.79375v-0.79375h0.79375v-0.79375h0.79375v-0.79375h-0.79375v-0.79375h0.79375v-0.79375h-0.79375v-0.79375h0.79375v-0.79375h-0.79375v-0.79375h0.79375v-0.79375h-0.79375v-0.79375h0.79375v-0.79375h-0.79375v-0.79375h0.79375v-0.79375h-0.79375v0.79375h-0.79375v-0.79375h-0.79375v0.79375h0.79375v0.79375h-0.79375v0.79375h0.79375v0.79375h-0.79375v0.79375h0.79375v0.79375h-0.79375v0.79375h0.79375v0.79375h-0.79375v0.79375h0.79375v0.79375h-0.79375v0.79375h-0.79375v0.79375h0.79375v0.79375h-0.79375v0.79375zm0.79375-1.5875h-0.39688v-0.79375h0.79375v-0.79375h0.79375v0.79375h-0.79375v0.79375zm0.79375-2.3812h-0.39688v-0.79375h0.79375v0.79375zm0-1.5875h-0.39688v-0.79375h0.79375v0.79375zm0-1.5875h-0.39688v-0.79375h0.79375v0.79375zm0-1.5875h-0.39688v-0.79375h0.79375v0.79375zm-7.1438 2.3812h0.39688v-0.79375h0.79375v0.79375h0.79375v-0.79375h-0.79375v-0.79375h-0.79375v-0.79375h-0.79375v-0.79375h-0.79375v-0.79375h0.79375v-0.79375h-0.79375v0.79375h-0.79375v-0.79375h-0.79375v0.79375h0.79375v0.79375h-0.79375v0.79375h0.79375v0.79375h0.79375v0.79375h0.79375v0.79375zm0-0.79375h-0.39688v-0.79375h-0.79375v-0.79375h-0.79375v-0.79375h0.79375v0.79375h0.79375v0.79375h0.79375v0.79375zm3.175 0.79375h0.39688v-0.79375h-0.79375v0.79375z" style="fill:#fff;stroke-width:.26458;stroke:#000"/>
 </g>
</svg>
