<?xml version="1.0" encoding="UTF-8" standalone="yes"?>
<svg viewBox="0 0 2560 960" style="fill-rule:evenodd;stroke-linecap:square;stroke-linejoin:round;stroke-width:10" height="100%" width="100%" xmlns="http://www.w3.org/2000/svg">
  <rect id="block-1" class="block" fill="#c0c0c0" x="0" y="0" width="2560" height="960" />
  <path id="area-1" class="area closed" fill="#000000" stroke="none" d="M 490,330 l -25,45 l 10,30 l 20,50 l 30,-40 v -40 Z" />
  <path id="area-2" class="area closed" fill="#000000" stroke="none" d="M 1385,395 l -80,-80 l 20,70 l -40,40 l 10,40 l 30,80 l 40,-60 l 20,-60 Z" />
  <path id="area-3" class="area closed" fill="#000000" stroke="none" d="M 1955,395 l -80,-80 l 20,70 l -40,40 l 10,40 l 30,80 l 40,-60 l 20,-60 Z" />
  <path id="line-4" class="line closed" fill="none" stroke="#000000" d="M 15,1005 h 2540 v -1000 h -2550 v 1000 Z" />
  <path id="line-5" class="line closed" fill="none" stroke="#000000" d="M 35,985 h 2500 v -960 h -2510 v 960 Z" />
  <path id="line-6" class="line" fill="none" stroke="#000000" d="M 235,565 l 30,-10 h 20 l 40,30 v 40 l -20,20 l -20,30 v 30 l 30,10 h 90 l 40,-30 v -40 l -20,-40 l -20,-20 l -10,-30 l -60,-40" />
  <path id="line-7" class="line" fill="none" stroke="#000000" d="M 395,545 l 10,-20 l -40,-50 l -30,-60 v -60 l 30,-40 l 80,-80 l 60,-80 h 40 l 60,40 h 60 l 30,40 l 50,30 l 10,50 l -30,60 v 30 l 20,60 l 30,40" />
  <path id="line-8" class="line" fill="none" stroke="#000000" d="M 835,445 l -40,30 l 10,30 h -30 l -30,40 v 20" />
  <path id="line-9" class="line" fill="none" stroke="#000000" d="M 835,625 l -30,-10 l -40,-40 l -20,-10 h -30 l -30,20 l -40,50 l -10,20 v 30 l 30,30 h 140 l 30,-10 v -20 l -40,-30" />
  <path id="line-10" class="line" fill="none" stroke="#000000" d="M 625,675 l -20,-20 l -50,-40 l -30,-20 l -80,-40 v -50 h 30 l 20,-50 l 30,-40 v -40 l -30,-40 l -90,-60" />
  <path id="line-11" class="line" fill="none" stroke="#000000" d="M 485,345 l -20,30 l 10,30 l 20,50" />
  <path id="line-12" class="line" fill="none" stroke="#000000" d="M 435,565 l -30,20" />
  <path id="line-13" class="line" fill="none" stroke="#000000" d="M 565,245 l 40,60" />
  <path id="line-14" class="line" fill="none" stroke="#000000" d="M 435,345 l -30,60 l 10,20" />
  <path id="line-15" class="line" fill="none" stroke="#000000" d="M 645,365 l 10,30 l -50,70" />
  <path id="line-16" class="line" fill="none" stroke="#000000" d="M 645,565 l -40,70" />
  <path id="line-17" class="line" fill="none" stroke="#000000" d="M 515,485 l -10,20 v 30 l -20,20" />
  <path id="line-18" class="line" fill="none" stroke="#000000" d="M 925,645 l -20,20 v 30 l 20,20 h 110 l 30,-50 l -10,-30 l -50,-100 l -20,-30 l -30,-20" />
  <path id="line-19" class="line" fill="none" stroke="#000000" d="M 1015,525 l 50,-50 l -80,-140 v -60 l 30,-40 l 50,-30 l 80,-50 l 50,-30 l 10,-20 l -10,-30" />
  <path id="line-20" class="line" fill="none" stroke="#000000" d="M 1155,155 h 40 l 30,10 l 70,70 l 10,80 l 20,70 l -40,40 l 10,40 l 30,80 l -290,170" />
  <path id="line-21" class="line" fill="none" stroke="#000000" d="M 1415,575 l 10,30 l 40,60 v 30 l -20,20 h -110 l -30,-40 v -70 l 20,-60 l 40,-60 l 20,-60 v -30 l 20,-30 v -30 l 30,-10 l 30,-40" />
  <path id="line-22" class="line" fill="none" stroke="#000000" d="M 1375,385 l -70,-70" />
  <path id="line-23" class="line" fill="none" stroke="#000000" d="M 1135,245 l -20,50 v 30 l 30,70" />
  <path id="line-24" class="line" fill="none" stroke="#000000" d="M 1265,245 l -40,70 l 40,80" />
  <path id="line-25" class="line" fill="none" stroke="#000000" d="M 1165,475 l -20,30 l 30,70 l -20,50" />
  <path id="line-26" class="line" fill="none" stroke="#000000" d="M 1245,495 l 30,70" />
  <path id="line-27" class="line" fill="none" stroke="#000000" d="M 1495,645 l -20,20 v 30 l 20,20 h 110 l 30,-50 l -10,-30 l -50,-100 l -20,-30 l -30,-20" />
  <path id="line-28" class="line" fill="none" stroke="#000000" d="M 1585,525 l 50,-50 l -80,-140 v -60 l 30,-40 l 50,-30 l 80,-50 l 50,-30 l 10,-20 l -10,-30" />
  <path id="line-29" class="line" fill="none" stroke="#000000" d="M 1725,155 h 40 l 30,10 l 70,70 l 10,80 l 20,70 l -40,40 l 10,40 l 30,80 l -290,170" />
  <path id="line-30" class="line" fill="none" stroke="#000000" d="M 1985,575 l 10,30 l 40,60 v 30 l -20,20 h -110 l -30,-40 v -70 l 20,-60 l 40,-60 l 20,-60 v -30 l 20,-30 v -30 l 30,-10 l 30,-40" />
  <path id="line-31" class="line" fill="none" stroke="#000000" d="M 1945,385 l -70,-70" />
  <path id="line-32" class="line" fill="none" stroke="#000000" d="M 1705,245 l -20,50 v 30 l 30,70" />
  <path id="line-33" class="line" fill="none" stroke="#000000" d="M 1835,245 l -40,70 l 40,80" />
  <path id="line-34" class="line" fill="none" stroke="#000000" d="M 1735,475 l -20,30 l 30,70 l -20,50" />
  <path id="line-35" class="line" fill="none" stroke="#000000" d="M 1815,495 l 30,70" />
  <path id="line-36" class="line closed" fill="none" stroke="#000000" d="M 935,765 l -10,10 h -30 l -10,-20 l -20,-10 l 30,-20 v 10 v -10 h 40 l 10,30 Z" />
  <path id="line-37" class="line" fill="none" stroke="#000000" d="M 915,715 l -40,-20 l -30,-10 l -20,20 l -20,-10 h 10 l 10,10 l -10,20" />
  <path id="line-38" class="line" fill="none" stroke="#000000" d="M 855,745 h -10 l -20,-10 l -20,-20 l -20,-50 l -10,-10 h -20 v 10 h -20 l -20,30 l 10,20 v 30 l 30,20 h 40 v -20 l 30,-10" />
  <path id="line-39" class="line" fill="none" stroke="#000000" d="M 825,755 h 20 v -10" />
  <path id="line-40" class="line" fill="none" stroke="#000000" d="M 715,715 h -10 l -20,10 l -10,-10 h -20 l -30,30 l 30,20 h 30" />
  <path id="line-41" class="line closed" fill="none" stroke="#000000" d="M 715,735 v 40 h -20 l -30,-40 l 40,-10 Z" />
  <path id="line-42" class="line" fill="none" stroke="#000000" d="M 665,705 l 20,-10 l 20,20" />
  <path id="line-43" class="line" fill="none" stroke="#000000" d="M 845,715 h 30 v -10" />
  <path id="line-44" class="line closed" fill="none" stroke="#000000" d="M 745,695 h 10 Z" />
  <path id="line-45" class="line" fill="none" stroke="#000000" d="M 765,685 l 0,0" />
  <path id="line-46" class="line" fill="none" stroke="#000000" d="M 765,715 l 10,-10 l 10,20" />
  <path id="line-47" class="line closed" fill="none" stroke="#000000" d="M 445,875 l -10,10 h -30 l -10,-20 l -20,-10 l 30,-20 v 10 v -10 h 40 l 10,30 Z" />
  <path id="line-48" class="line" fill="none" stroke="#000000" d="M 425,825 l -40,-20 l -30,-10 l -20,20 l -20,-10 h 10 l 10,10 l -10,20" />
  <path id="line-49" class="line" fill="none" stroke="#000000" d="M 365,855 h -10 l -20,-10 l -20,-20 l -20,-50 l -10,-10 h -20 v 10 h -20 l -20,30 l 10,20 v 30 l 30,20 h 40 v -20 l 30,-10" />
  <path id="line-50" class="line" fill="none" stroke="#000000" d="M 335,865 h 20 v -10" />
  <path id="line-51" class="line" fill="none" stroke="#000000" d="M 225,825 h -10 l -20,10 l -10,-10 h -20 l -30,30 l 30,20 h 30" />
  <path id="line-52" class="line closed" fill="none" stroke="#000000" d="M 225,845 v 40 h -20 l -30,-40 l 40,-10 Z" />
  <path id="line-53" class="line" fill="none" stroke="#000000" d="M 175,815 l 20,-10 l 20,20" />
  <path id="line-54" class="line" fill="none" stroke="#000000" d="M 355,825 h 30 v -10" />
  <path id="line-55" class="line closed" fill="none" stroke="#000000" d="M 255,805 h 10 Z" />
  <path id="line-56" class="line" fill="none" stroke="#000000" d="M 275,795 l 0,0" />
  <path id="line-57" class="line" fill="none" stroke="#000000" d="M 275,825 l 10,-10 l 10,20" />
  <path id="line-58" class="line closed" fill="none" stroke="#000000" d="M 2295,785 l -10,10 h -30 l -10,-20 l -20,-10 l 30,-20 v 10 v -10 h 40 l 10,30 Z" />
  <path id="line-59" class="line" fill="none" stroke="#000000" d="M 2275,735 l -40,-20 l -30,-10 l -20,20 l -20,-10 h 10 l 10,10 l -10,20" />
  <path id="line-60" class="line" fill="none" stroke="#000000" d="M 2215,765 h -10 l -20,-10 l -20,-20 l -20,-50 l -10,-10 h -20 v 10 h -20 l -20,30 l 10,20 v 30 l 30,20 h 40 v -20 l 30,-10" />
  <path id="line-61" class="line" fill="none" stroke="#000000" d="M 2185,775 h 20 v -10" />
  <path id="line-62" class="line" fill="none" stroke="#000000" d="M 2075,735 h -10 l -20,10 l -10,-10 h -20 l -30,30 l 30,20 h 30" />
  <path id="line-63" class="line closed" fill="none" stroke="#000000" d="M 2075,755 v 40 h -20 l -30,-40 l 40,-10 Z" />
  <path id="line-64" class="line" fill="none" stroke="#000000" d="M 2025,725 l 20,-10 l 20,20" />
  <path id="line-65" class="line" fill="none" stroke="#000000" d="M 2205,735 h 30 v -10" />
  <path id="line-66" class="line closed" fill="none" stroke="#000000" d="M 2105,715 h 10 Z" />
  <path id="line-67" class="line" fill="none" stroke="#000000" d="M 2125,705 l 0,0" />
  <path id="line-68" class="line" fill="none" stroke="#000000" d="M 2125,735 l 10,-10 l 10,20" />
  <path id="line-69" class="line closed" fill="none" stroke="#000000" d="M 2345,845 l -10,10 h -30 l -10,-20 l -20,-10 l 30,-20 v 10 v -10 h 40 l 10,30 Z" />
  <path id="line-70" class="line" fill="none" stroke="#000000" d="M 2325,795 l -40,-20 l -30,-10 l -20,20 l -20,-10 h 10 l 10,10 l -10,20" />
  <path id="line-71" class="line" fill="none" stroke="#000000" d="M 2265,825 h -10 l -20,-10 l -20,-20 l -20,-50 l -10,-10 h -20 v 10 h -20 l -20,30 l 10,20 v 30 l 30,20 h 40 v -20 l 30,-10" />
  <path id="line-72" class="line" fill="none" stroke="#000000" d="M 2235,835 h 20 v -10" />
  <path id="line-73" class="line" fill="none" stroke="#000000" d="M 2125,795 h -10 l -20,10 l -10,-10 h -20 l -30,30 l 30,20 h 30" />
  <path id="line-74" class="line closed" fill="none" stroke="#000000" d="M 2125,815 v 40 h -20 l -30,-40 l 40,-10 Z" />
  <path id="line-75" class="line" fill="none" stroke="#000000" d="M 2075,785 l 20,-10 l 20,20" />
  <path id="line-76" class="line" fill="none" stroke="#000000" d="M 2255,795 h 30 v -10" />
  <path id="line-77" class="line closed" fill="none" stroke="#000000" d="M 2155,775 h 10 Z" />
  <path id="line-78" class="line" fill="none" stroke="#000000" d="M 2175,765 l 0,0" />
  <path id="line-79" class="line" fill="none" stroke="#000000" d="M 2175,795 l 10,-10 l 10,20" />
  <path id="line-80" class="line closed" fill="none" stroke="#000000" d="M 2405,905 l -10,10 h -30 l -10,-20 l -20,-10 l 30,-20 v 10 v -10 h 40 l 10,30 Z" />
  <path id="line-81" class="line" fill="none" stroke="#000000" d="M 2385,855 l -40,-20 l -30,-10 l -20,20 l -20,-10 h 10 l 10,10 l -10,20" />
  <path id="line-82" class="line" fill="none" stroke="#000000" d="M 2325,885 h -10 l -20,-10 l -20,-20 l -20,-50 l -10,-10 h -20 v 10 h -20 l -20,30 l 10,20 v 30 l 30,20 h 40 v -20 l 30,-10" />
  <path id="line-83" class="line" fill="none" stroke="#000000" d="M 2295,895 h 20 v -10" />
  <path id="line-84" class="line" fill="none" stroke="#000000" d="M 2185,855 h -10 l -20,10 l -10,-10 h -20 l -30,30 l 30,20 h 30" />
  <path id="line-85" class="line closed" fill="none" stroke="#000000" d="M 2185,875 v 40 h -20 l -30,-40 l 40,-10 Z" />
  <path id="line-86" class="line" fill="none" stroke="#000000" d="M 2135,845 l 20,-10 l 20,20" />
  <path id="line-87" class="line" fill="none" stroke="#000000" d="M 2315,855 h 30 v -10" />
  <path id="line-88" class="line closed" fill="none" stroke="#000000" d="M 2215,835 h 10 Z" />
  <path id="line-89" class="line" fill="none" stroke="#000000" d="M 2235,825 l 0,0" />
  <path id="line-90" class="line" fill="none" stroke="#000000" d="M 2235,855 l 10,-10 l 10,20" />
  <path id="line-91" class="line" fill="none" stroke="#000000" d="M 175,195 l -5,5 v 15 l -25,20 v 15 l -15,15 v 15 l -15,15 l 15,15 v 15 l 25,25 v 30 l 20,20" />
  <path id="line-92" class="line" fill="none" stroke="#000000" d="M 165,445 l -20,15 v 35 l 30,95 l -20,20 v 15 l -15,20 l -30,40" />
  <path id="line-93" class="line" fill="none" stroke="#000000" d="M 2145,185 l -20,20 v 40 l 30,110 l -20,20 v 20 l -20,20 l -30,50" />
  <path id="line-94" class="line" fill="none" stroke="#000000" d="M 2325,345 l -10,10 v 20 l -30,30 v 20 l -20,20 v 20 l -20,20 l 20,20 v 20 l 30,30 v 40 l 30,30" />
  <path id="line-95" class="line" fill="none" stroke="#000000" d="M 2155,555 h -5 v 15 l -20,15 v 15 l -10,10 v 15 l -15,10 l 15,15 v 10 l 20,20 v 25 l 15,20" />
  <path id="line-96" class="line" fill="none" stroke="#000000" d="M 825,275 l -10,5 v 25 l 20,70 l -15,15 v 10 l -10,15 l -20,30" />
  <path id="line-97" class="line" fill="none" stroke="#000000" d="M 925,475 l -10,5 v 25 l 20,70 l -15,15 v 10 l -10,15 l -20,30" />
  <path id="line-98" class="line" fill="none" stroke="#000000" d="M 1385,95 l -15,10 v 30 l 25,85 l -15,15 v 15 l -15,15 l -25,35" />
  <path id="line-99" class="line" fill="none" stroke="#000000" d="M 895,75 h -5 v 15 l -20,15 v 15 l -10,10 v 15 l -15,10 l 15,15 v 10 l 20,20 v 25 l 15,20" />
  <path id="line-100" class="line" fill="none" stroke="#000000" d="M 2415,915 l 120,70" />
  <path id="line-101" class="line" fill="none" stroke="#000000" d="M 285,715 l -260,150" />
  <path id="line-102" class="line closed" fill="none" stroke="#000000" d="M 635,965 l -10,10 h -30 l -10,-20 l -20,-10 l 30,-20 v 10 v -10 h 40 l 10,30 Z" />
  <path id="line-103" class="line" fill="none" stroke="#000000" d="M 615,915 l -40,-20 l -30,-10 l -20,20 l -20,-10 h 10 l 10,10 l -10,20" />
  <path id="line-104" class="line" fill="none" stroke="#000000" d="M 555,945 h -10 l -20,-10 l -20,-20 l -20,-50 l -10,-10 h -20 v 10 h -20 l -20,30 l 10,20 v 30 l 30,20 h 40 v -20 l 30,-10" />
  <path id="line-105" class="line" fill="none" stroke="#000000" d="M 525,955 h 20 v -10" />
  <path id="line-106" class="line" fill="none" stroke="#000000" d="M 415,915 h -10 l -20,10 l -10,-10 h -20 l -30,30 l 30,20 h 30" />
  <path id="line-107" class="line closed" fill="none" stroke="#000000" d="M 415,935 v 40 h -20 l -30,-40 l 40,-10 Z" />
  <path id="line-108" class="line" fill="none" stroke="#000000" d="M 365,905 l 20,-10 l 20,20" />
  <path id="line-109" class="line" fill="none" stroke="#000000" d="M 545,915 h 30 v -10" />
  <path id="line-110" class="line closed" fill="none" stroke="#000000" d="M 445,895 h 10 Z" />
  <path id="line-111" class="line" fill="none" stroke="#000000" d="M 465,885 l 0,0" />
  <path id="line-112" class="line" fill="none" stroke="#000000" d="M 465,915 l 10,-10 l 10,20" />
  <path id="line-113" class="line closed" fill="none" stroke="#000000" d="M 1715,805 l -10,10 h -30 l -10,-20 l -20,-10 l 30,-20 v 10 v -10 h 40 l 10,30 Z" />
  <path id="line-114" class="line" fill="none" stroke="#000000" d="M 1695,755 l -40,-20 l -30,-10 l -20,20 l -20,-10 h 10 l 10,10 l -10,20" />
  <path id="line-115" class="line" fill="none" stroke="#000000" d="M 1635,785 h -10 l -20,-10 l -20,-20 l -20,-50 l -10,-10 h -20 v 10 h -20 l -20,30 l 10,20 v 30 l 30,20 h 40 v -20 l 30,-10" />
  <path id="line-116" class="line" fill="none" stroke="#000000" d="M 1605,795 h 20 v -10" />
  <path id="line-117" class="line" fill="none" stroke="#000000" d="M 1495,755 h -10 l -20,10 l -10,-10 h -20 l -30,30 l 30,20 h 30" />
  <path id="line-118" class="line closed" fill="none" stroke="#000000" d="M 1495,775 v 40 h -20 l -30,-40 l 40,-10 Z" />
  <path id="line-119" class="line" fill="none" stroke="#000000" d="M 1445,745 l 20,-10 l 20,20" />
  <path id="line-120" class="line" fill="none" stroke="#000000" d="M 1625,755 h 30 v -10" />
  <path id="line-121" class="line closed" fill="none" stroke="#000000" d="M 1525,735 h 10 Z" />
  <path id="line-122" class="line" fill="none" stroke="#000000" d="M 1545,725 l 0,0" />
  <path id="line-123" class="line" fill="none" stroke="#000000" d="M 1545,755 l 10,-10 l 10,20" />
</svg>
