<?xml version="1.0" encoding="UTF-8" standalone="yes"?>
<svg viewBox="0 0 2560 960" style="fill-rule:evenodd;stroke-linecap:square;stroke-linejoin:round;stroke-width:10" height="100%" width="100%" xmlns="http://www.w3.org/2000/svg">
  <defs>
    <pattern id="fill-area-1" x="0" y="0" width="40" height="20" patternUnits="userSpaceOnUse">
      <rect fill="#000000" x="0" y="0" width="10" height="10" />
      <rect fill="#000000" x="20" y="10" width="10" height="10" />
    </pattern>
    <pattern id="pattern-line-6" width="2560" height="960" patternUnits="userSpaceOnUse">
      <path id="pattern-line-6-1" class="pattern-line-6" fill="#0000c0" d="M 340,660 l 160,-160 h 1560 l 300,-300 l 200,200 v -410 h -2560 v 330 l 340,340" />
      <path id="pattern-line-6-2" class="pattern-line-6" fill="#000000" d="M 0,960 h 2560 v -560 l -200,-200 l -300,300 h -1560 l -160,160 l -340,-340 v 640" />
    </pattern>
    <pattern id="pattern-line-7" width="2560" height="960" patternUnits="userSpaceOnUse">
      <path id="pattern-line-7-1" class="pattern-line-7" fill="#0000c0" d="M 350,650 l 150,-150 h 1560 l 290,-290 l 190,190 l 20,-20 v -390 h -2560 v 350 l 20,-20 l 330,330" />
      <path id="pattern-line-7-2" class="pattern-line-7" fill="#000000" d="M 0,960 h 2560 v -580 l -20,20 l -190,-190 l -290,290 h -1560 l -150,150 l -330,-330 l -20,20 v 620" />
    </pattern>
    <pattern id="pattern-line-8" width="2560" height="960" patternUnits="userSpaceOnUse">
      <rect id="pattern-line-8-1" class="pattern-line-8" fill="#000000" x="0" y="0" width="2560" height="960" />
      <path id="pattern-line-8-2" class="pattern-line-8" fill="#0000c0" d="M 870,470 l 10,-10 l 10,10 l 80,-80 h 20 v 10 h 30 v 10 h 30 l 410,-410 v -10 h -1060 l 470,470 v 10" />
    </pattern>
    <pattern id="pattern-line-9" width="2560" height="960" patternUnits="userSpaceOnUse">
      <rect id="pattern-line-9-1" class="pattern-line-9" fill="#000000" x="0" y="0" width="2560" height="960" />
      <path id="pattern-line-9-2" class="pattern-line-9" fill="#0000c0" d="M 120,270 h 20 l 270,-270 v -10 h -410 v 160 l 120,120" />
      <path id="pattern-line-9-3" class="pattern-line-9" fill="#0000c0" d="M 0,960 h 730 l -580,-580 l 10,-10 l -30,-30 l 10,-10 l -10,-10 v -30 l -120,-120 h -10 v 790" />
    </pattern>
    <pattern id="pattern-line-10" width="2560" height="960" patternUnits="userSpaceOnUse">
      <rect id="pattern-line-10-1" class="pattern-line-10" fill="#0000c0" x="0" y="0" width="2560" height="960" />
      <path id="pattern-line-10-2" class="pattern-line-10" fill="#000000" d="M 960,960 h 150 l -810,-810 l -10,10 l -10,-10 l -10,10 l -10,-10 l -20,20 v 20 l -10,10 l 10,10 l -10,10 h 10 v 20 l 720,720" />
    </pattern>
    <pattern id="pattern-line-11" width="2560" height="960" patternUnits="userSpaceOnUse">
      <rect id="pattern-line-11-1" class="pattern-line-11" fill="#000000" x="0" y="0" width="2560" height="960" />
      <path id="pattern-line-11-2" class="pattern-line-11" fill="#0000c0" d="M 0,540 l 550,-550 h -550 v 550" />
    </pattern>
    <pattern id="pattern-line-13" width="2560" height="960" patternUnits="userSpaceOnUse">
      <rect id="pattern-line-13-1" class="pattern-line-13" fill="#0000c0" x="0" y="0" width="2560" height="960" />
      <path id="pattern-line-13-2" class="pattern-line-13" fill="#000000" d="M 240,960 h 30 l 960,-960 v -10 h -30 l -960,960 v 10" />
      <path id="pattern-line-13-3" class="pattern-line-13" fill="#000000" d="M 0,960 h 180 l 540,-540 v -110 l 10,-10 l -10,-10 l 10,-10 h -10 v -40 l 10,-10 l -10,-10 l 10,-10 l -10,-10 l 10,-10 h -10 v -20 l -180,-180 h -540 v 970" />
    </pattern>
    <pattern id="pattern-line-14" width="2560" height="960" patternUnits="userSpaceOnUse">
      <rect id="pattern-line-14-1" class="pattern-line-14" fill="#0000c0" x="0" y="0" width="2560" height="960" />
      <path id="pattern-line-14-2" class="pattern-line-14" fill="#000000" d="M 40,960 h 1460 l -730,-730 v 10 h -20 l -710,710 v 10" />
      <path id="pattern-line-14-3" class="pattern-line-14" fill="#000000" d="M 0,960 l 730,-730 l -10,-10 h 10 v -20 l -10,-10 h -10 v -20 l 180,-180 h -890 v 970" />
    </pattern>
    <pattern id="pattern-line-15" width="2560" height="960" patternUnits="userSpaceOnUse">
      <rect id="pattern-line-15-1" class="pattern-line-15" fill="#000000" x="0" y="0" width="2560" height="960" />
      <path id="pattern-line-15-2" class="pattern-line-15" fill="#0000c0" d="M 0,750 l 760,-760 h -760 v 760" />
    </pattern>
    <pattern id="pattern-line-17" width="2560" height="960" patternUnits="userSpaceOnUse">
      <rect id="pattern-line-17-1" class="pattern-line-17" fill="#000000" x="0" y="0" width="2560" height="960" />
      <path id="pattern-line-17-2" class="pattern-line-17" fill="#0000c0" d="M 0,850 l 860,-860 h -860 v 860" />
    </pattern>
    <pattern id="pattern-line-32" width="2560" height="960" patternUnits="userSpaceOnUse">
      <path id="pattern-line-32-1" class="pattern-line-32" fill="#000000" d="M 620,960 h 1940 v -970 h -880 l -400,400 v 10 h -20 v -10 h -40 v -10 h -20 l -20,20 v 10 h -20 l -540,540 v 10" />
      <path id="pattern-line-32-2" class="pattern-line-32" fill="#0000c0" d="M 0,960 h 620 l 540,-540 v -10 h 20 l 20,-20 v -10 h 20 v 10 h 40 v 10 h 20 l 400,-400 v -10 h -1680 v 970" />
    </pattern>
    <pattern id="pattern-line-33" width="2560" height="960" patternUnits="userSpaceOnUse">
      <rect id="pattern-line-33-1" class="pattern-line-33" fill="#0000c0" x="0" y="0" width="2560" height="960" />
      <rect id="pattern-line-33-2" class="pattern-line-33" fill="#000000" x="1030" y="-10" width="10" height="10" />
      <rect id="pattern-line-33-3" class="pattern-line-33" fill="#000000" x="1040" y="0" width="10" height="10" />
      <rect id="pattern-line-33-4" class="pattern-line-33" fill="#000000" x="1050" y="10" width="10" height="10" />
      <rect id="pattern-line-33-5" class="pattern-line-33" fill="#000000" x="1060" y="20" width="10" height="10" />
      <rect id="pattern-line-33-6" class="pattern-line-33" fill="#000000" x="1070" y="30" width="10" height="10" />
      <rect id="pattern-line-33-7" class="pattern-line-33" fill="#000000" x="1080" y="40" width="10" height="10" />
      <rect id="pattern-line-33-8" class="pattern-line-33" fill="#000000" x="1090" y="50" width="10" height="10" />
      <rect id="pattern-line-33-9" class="pattern-line-33" fill="#000000" x="1100" y="60" width="10" height="10" />
      <rect id="pattern-line-33-10" class="pattern-line-33" fill="#000000" x="1110" y="70" width="10" height="10" />
      <rect id="pattern-line-33-11" class="pattern-line-33" fill="#000000" x="1120" y="80" width="10" height="10" />
      <rect id="pattern-line-33-12" class="pattern-line-33" fill="#000000" x="1130" y="90" width="10" height="10" />
      <rect id="pattern-line-33-13" class="pattern-line-33" fill="#000000" x="1140" y="100" width="10" height="10" />
      <rect id="pattern-line-33-14" class="pattern-line-33" fill="#000000" x="1150" y="110" width="10" height="10" />
      <rect id="pattern-line-33-15" class="pattern-line-33" fill="#000000" x="1160" y="120" width="10" height="10" />
      <rect id="pattern-line-33-16" class="pattern-line-33" fill="#000000" x="1170" y="130" width="10" height="10" />
      <rect id="pattern-line-33-17" class="pattern-line-33" fill="#000000" x="1180" y="140" width="10" height="10" />
      <rect id="pattern-line-33-18" class="pattern-line-33" fill="#000000" x="1190" y="150" width="10" height="10" />
      <rect id="pattern-line-33-19" class="pattern-line-33" fill="#000000" x="1200" y="160" width="10" height="10" />
      <rect id="pattern-line-33-20" class="pattern-line-33" fill="#000000" x="1210" y="170" width="10" height="10" />
      <rect id="pattern-line-33-21" class="pattern-line-33" fill="#000000" x="1220" y="180" width="10" height="10" />
      <rect id="pattern-line-33-22" class="pattern-line-33" fill="#000000" x="1230" y="190" width="10" height="10" />
      <rect id="pattern-line-33-23" class="pattern-line-33" fill="#000000" x="1240" y="200" width="10" height="10" />
      <rect id="pattern-line-33-24" class="pattern-line-33" fill="#000000" x="1250" y="210" width="10" height="10" />
      <rect id="pattern-line-33-25" class="pattern-line-33" fill="#000000" x="1260" y="220" width="10" height="10" />
      <rect id="pattern-line-33-26" class="pattern-line-33" fill="#000000" x="1270" y="230" width="10" height="10" />
      <path id="pattern-line-33-27" class="pattern-line-33" fill="#000000" d="M 1330,340 l 10,-10 h 10 v -70 h -10 v -20 h -20 l -10,-10 l -10,10 l -10,-10 l -10,10 v 20 h 10 v 20 l -10,10 l 50,50" />
      <path id="pattern-line-33-28" class="pattern-line-33" fill="#000000" d="M 660,960 h 1420 l -610,-610 v -10 h -20 l -20,-20 v -10 h -20 v 10 h -20 v 10 h -30 v 10 h -20 v 10 h -70 l -10,10 v 30 h -20 v 10 h -30 l -550,550 v 10" />
    </pattern>
    <pattern id="pattern-line-40" width="2560" height="960" patternUnits="userSpaceOnUse">
      <rect id="pattern-line-40-1" class="pattern-line-40" fill="#0000c0" x="0" y="0" width="2560" height="960" />
      <path id="pattern-line-40-2" class="pattern-line-40" fill="#000000" d="M 1890,960 h 670 v -970 h -1620 l 330,330 v 20 l 620,620" />
    </pattern>
    <pattern id="pattern-line-45" width="2560" height="960" patternUnits="userSpaceOnUse">
      <path id="pattern-line-45-1" class="pattern-line-45" fill="#0000c0" d="M 2340,960 h 220 v -970 h -1420 l 330,330 v -10 h 20 l 10,10 l 10,-10 l 30,30 v 10 h 70 l 10,-10 v -10 h 30 v -10 h 20 v -10 h 20 l 20,20 v 10 h 20 l 610,610 v 10" />
      <path id="pattern-line-45-2" class="pattern-line-45" fill="#000000" d="M 0,960 h 2340 l -610,-610 v -10 h -20 l -20,-20 v -10 h -20 v 10 h -20 v 10 h -30 l -10,10 v 10 h -70 l -40,-40 l -10,10 v -10 h -20 l -10,10 l -320,-320 v -10 h -1140 v 970" />
    </pattern>
    <pattern id="pattern-line-52" width="2560" height="960" patternUnits="userSpaceOnUse">
      <rect id="pattern-line-52-1" class="pattern-line-52" fill="#000000" x="0" y="0" width="2560" height="960" />
      <path id="pattern-line-52-2" class="pattern-line-52" fill="#0000c0" d="M 1550,320 h 20 l 320,-320 v -10 h -660 l 320,320 v 10" />
    </pattern>
    <pattern id="pattern-line-53" width="2560" height="960" patternUnits="userSpaceOnUse">
      <rect id="pattern-line-53-1" class="pattern-line-53" fill="#0000c0" x="0" y="0" width="2560" height="960" />
      <path id="pattern-line-53-2" class="pattern-line-53" fill="#000000" d="M 960,960 h 1600 v -970 h -630 l -320,320 v 10 h -20 l -630,630 v 10" />
    </pattern>
    <pattern id="pattern-line-54" width="2560" height="960" patternUnits="userSpaceOnUse">
      <rect id="pattern-line-54-1" class="pattern-line-54" fill="#000000" x="0" y="0" width="2560" height="960" />
      <path id="pattern-line-54-2" class="pattern-line-54" fill="#c0c0c0" d="M 1410,960 h 220 l 350,-350 l -10,-10 v -20 h 10 v -20 l -60,-60 l 10,-10 l -30,-30 h -20 l -40,40 l 10,10 l -440,440 v 10" />
      <path id="pattern-line-54-3" class="pattern-line-54" fill="#c0c0c0" d="M 1290,960 h 40 l 960,-960 v -10 h -70 l -460,460 l 10,10 v 20 l -480,480" />
    </pattern>
    <pattern id="pattern-line-55" width="2560" height="960" patternUnits="userSpaceOnUse">
      <rect id="pattern-line-55-1" class="pattern-line-55" fill="#0000c0" x="0" y="0" width="2560" height="960" />
      <path id="pattern-line-55-2" class="pattern-line-55" fill="#c0c0c0" d="M 1840,490 h 10 v -50 h -10 v -50 l 10,-10 h -20 l -50,50 l 20,20 v 10 h 20 l 20,20 v 10" />
      <path id="pattern-line-55-3" class="pattern-line-55" fill="#c0c0c0" d="M 1410,960 h 1040 l -510,-510 v -10 h -20 l -50,50 l -10,-10 l -10,10 v 30 l -440,440" />
      <path id="pattern-line-55-4" class="pattern-line-55" fill="#000000" d="M 1120,960 h 290 l 440,-440 v -30 l 10,-10 l 10,10 l 50,-50 h 20 l 510,510 v 10 h 110 v -970 h -1090 l 300,300 v 20 l -650,650
    M 1840,440 h 10 v 50 l -30,-30 h -20 l -20,-20 l 50,-50 v -10 h 20 l -10,10 v 50" />
    </pattern>
    <pattern id="pattern-line-56" width="2560" height="960" patternUnits="userSpaceOnUse">
      <rect id="pattern-line-56-1" class="pattern-line-56" fill="#c0c0c0" x="0" y="0" width="2560" height="960" />
      <path id="pattern-line-56-2" class="pattern-line-56" fill="#000000" d="M 1780,400 l 10,-10 l 10,10 l 10,-10 l 10,10 l 410,-410 h -850 l 400,400 v 10" />
    </pattern>
    <pattern id="pattern-line-57" width="2560" height="960" patternUnits="userSpaceOnUse">
      <rect id="pattern-line-57-1" class="pattern-line-57" fill="#0000c0" x="0" y="0" width="2560" height="960" />
      <path id="pattern-line-57-2" class="pattern-line-57" fill="#c0c0c0" d="M 1820,300 l 310,-310 h -130 l -260,260 l 20,20 v 10 h 20 v 10 h 40 v 10" />
      <path id="pattern-line-57-3" class="pattern-line-57" fill="#000000" d="M 1060,960 h 1500 v -970 h -430 l -310,310 v -10 h -40 v -10 h -30 l -40,40 l -10,-10 l -640,640 v 10" />
    </pattern>
    <pattern id="pattern-line-58" width="2560" height="960" patternUnits="userSpaceOnUse">
      <rect id="pattern-line-58-1" class="pattern-line-58" fill="#c0c0c0" x="1590" y="-10" width="10" height="10" />
      <rect id="pattern-line-58-2" class="pattern-line-58" fill="#c0c0c0" x="1600" y="0" width="10" height="10" />
      <rect id="pattern-line-58-3" class="pattern-line-58" fill="#c0c0c0" x="1610" y="10" width="10" height="10" />
      <rect id="pattern-line-58-4" class="pattern-line-58" fill="#c0c0c0" x="1620" y="20" width="10" height="10" />
      <rect id="pattern-line-58-5" class="pattern-line-58" fill="#c0c0c0" x="1630" y="30" width="10" height="10" />
      <rect id="pattern-line-58-6" class="pattern-line-58" fill="#c0c0c0" x="1640" y="40" width="10" height="10" />
      <rect id="pattern-line-58-7" class="pattern-line-58" fill="#c0c0c0" x="1650" y="50" width="10" height="10" />
      <rect id="pattern-line-58-8" class="pattern-line-58" fill="#c0c0c0" x="1660" y="60" width="10" height="10" />
      <rect id="pattern-line-58-9" class="pattern-line-58" fill="#c0c0c0" x="1670" y="70" width="10" height="10" />
      <rect id="pattern-line-58-10" class="pattern-line-58" fill="#c0c0c0" x="1680" y="80" width="10" height="10" />
      <rect id="pattern-line-58-11" class="pattern-line-58" fill="#c0c0c0" x="1690" y="90" width="10" height="10" />
      <rect id="pattern-line-58-12" class="pattern-line-58" fill="#c0c0c0" x="1700" y="100" width="10" height="10" />
      <rect id="pattern-line-58-13" class="pattern-line-58" fill="#c0c0c0" x="1710" y="110" width="10" height="10" />
      <rect id="pattern-line-58-14" class="pattern-line-58" fill="#c0c0c0" x="1720" y="120" width="10" height="10" />
      <rect id="pattern-line-58-15" class="pattern-line-58" fill="#c0c0c0" x="1730" y="130" width="10" height="10" />
      <rect id="pattern-line-58-16" class="pattern-line-58" fill="#c0c0c0" x="1740" y="140" width="10" height="10" />
      <rect id="pattern-line-58-17" class="pattern-line-58" fill="#c0c0c0" x="1750" y="150" width="10" height="10" />
      <path id="pattern-line-58-18" class="pattern-line-58" fill="#0000c0" d="M 1780,170 l 180,-180 h -360 l 160,160 v 10 h 20 v 10" />
      <path id="pattern-line-58-19" class="pattern-line-58" fill="#c0c0c0" d="M 2550,960 h 10 v -970 h -600 l -180,180 v -10 h -20 l 790,790 v 10" />
      <path id="pattern-line-58-20" class="pattern-line-58" fill="#0000c0" d="M 0,960 h 2550 l -960,-960 v -10 h -1590 v 970" />
    </pattern>
    <pattern id="pattern-line-60" width="2560" height="960" patternUnits="userSpaceOnUse">
      <rect id="pattern-line-60-1" class="pattern-line-60" fill="#0000c0" x="0" y="0" width="2560" height="960" />
      <path id="pattern-line-60-2" class="pattern-line-60" fill="#c0c0c0" d="M 2550,860 h 10 v -100 l -680,-680 l -40,40 h -10 v 20 l 720,720" />
    </pattern>
    <pattern id="pattern-line-61" width="2560" height="960" patternUnits="userSpaceOnUse">
      <rect id="pattern-line-61-1" class="pattern-line-61" fill="#0000c0" x="0" y="0" width="2560" height="960" />
      <path id="pattern-line-61-2" class="pattern-line-61" fill="#c0c0c0" d="M 1160,960 h 70 l 770,-770 l -40,-40 l -800,800 v 10" />
    </pattern>
    <pattern id="pattern-line-62" width="2560" height="960" patternUnits="userSpaceOnUse">
      <rect id="pattern-line-62-1" class="pattern-line-62" fill="#000000" x="0" y="0" width="2560" height="960" />
      <path id="pattern-line-62-2" class="pattern-line-62" fill="#0000c0" d="M 2550,870 h 10 v -880 h -890 l 300,300 v 10 h 20 l 560,560 v 10" />
    </pattern>
    <pattern id="pattern-line-67" width="2560" height="960" patternUnits="userSpaceOnUse">
      <rect id="pattern-line-67-1" class="pattern-line-67" fill="#000000" x="0" y="0" width="2560" height="960" />
      <path id="pattern-line-67-2" class="pattern-line-67" fill="#c0c0c0" d="M 2550,760 h 10 v -770 h -790 l 340,340 l 10,-10 l 430,430 v 10" />
    </pattern>
    <pattern id="pattern-line-70" width="2560" height="960" patternUnits="userSpaceOnUse">
      <rect id="pattern-line-70-1" class="pattern-line-70" fill="#000000" x="0" y="0" width="2560" height="960" />
      <path id="pattern-line-70-2" class="pattern-line-70" fill="#c0c0c0" d="M 1740,960 h 260 l 320,-320 l -10,-10 v -30 l -70,-70 l 20,-20 l -30,-30 h -20 l -470,470 v 10" />
    </pattern>
    <pattern id="pattern-line-71" width="2560" height="960" patternUnits="userSpaceOnUse">
      <rect id="pattern-line-71-1" class="pattern-line-71" fill="#000000" x="0" y="0" width="2560" height="960" />
      <path id="pattern-line-71-2" class="pattern-line-71" fill="#c0c0c0" d="M 2140,320 l 10,-10 h 10 v -20 h -20 l -290,-290 v -10 h -30 l 320,320 v 10" />
      <path id="pattern-line-71-3" class="pattern-line-71" fill="#c0c0c0" d="M 2550,740 h 10 v -50 l -310,-310 h -10 v -20 h 10 v -20 l -10,-10 h -20 v -10 h -20 l -10,-10 l -10,10 l -10,-10 v 30 l 10,10 l -30,30 l 30,30 l 20,-20 l 350,350" />
      <path id="pattern-line-71-4" class="pattern-line-71" fill="#c0c0c0" d="M 1630,960 h 930 v -210 l -280,-280 h -20 l -20,20 v 10 h -20 l -20,-20 l -10,10 v -20 h -20 l -10,10 v 10 h -20 l -10,-10 v -10 h -20 l -480,480 v 10" />
    </pattern>
    <pattern id="pattern-line-73" width="2560" height="960" patternUnits="userSpaceOnUse">
      <rect id="pattern-line-73-1" class="pattern-line-73" fill="#000000" x="0" y="0" width="2560" height="960" />
      <rect id="pattern-line-73-2" class="pattern-line-73" fill="#0000c0" x="2080" y="290" width="10" height="10" />
      <path id="pattern-line-73-3" class="pattern-line-73" fill="#0000c0" d="M 2040,320 l 30,-30 h 10 v -30 l 10,-10 l -10,-10 l 250,-250 h -610 l 320,320 v 10" />
      <path id="pattern-line-73-4" class="pattern-line-73" fill="#c0c0c0" d="M 2160,330 l 340,-340 h -170 l -250,250 l 10,10 l -10,10 v 30 l 20,20 h 20 v 10 h 40 v 10" />
    </pattern>
    <pattern id="pattern-line-78" width="2560" height="960" patternUnits="userSpaceOnUse">
      <rect id="pattern-line-78-1" class="pattern-line-78" fill="#000000" x="0" y="0" width="2560" height="960" />
      <path id="pattern-line-78-2" class="pattern-line-78" fill="#0000c0" d="M 2550,400 h 10 v -410 h -510 l 260,260 v 10 h 30 l 10,-10 l 10,10 v -10 h 30 l 10,-10 l 150,150 v 10" />
    </pattern>
    <pattern id="pattern-line-82" width="2560" height="960" patternUnits="userSpaceOnUse">
      <rect id="pattern-line-82-1" class="pattern-line-82" fill="#000000" x="0" y="0" width="2560" height="960" />
      <path id="pattern-line-82-2" class="pattern-line-82" fill="#0000c0" d="M 2550,530 h 10 v -540 h -520 l 370,370 l -10,10 l 150,150 v 10" />
    </pattern>
    <pattern id="pattern-line-83" width="2560" height="960" patternUnits="userSpaceOnUse">
      <rect id="pattern-line-83-1" class="pattern-line-83" fill="#000000" x="0" y="0" width="2560" height="960" />
      <path id="pattern-line-83-2" class="pattern-line-83" fill="#0000c0" d="M 2550,540 h 10 v -550 h -580 l 410,410 v 10 h 20 l 10,-10 l 130,130 v 10" />
    </pattern>
    <pattern id="pattern-line-110" width="2560" height="960" patternUnits="userSpaceOnUse">
      <rect id="pattern-line-110-1" class="pattern-line-110" fill="#000000" x="0" y="0" width="2560" height="960" />
      <path id="pattern-line-110-2" class="pattern-line-110" fill="#0000c0" d="M 880,410 l 420,-420 h -820 l 400,400 v 20" />
    </pattern>
    <pattern id="pattern-line-131" width="2560" height="960" patternUnits="userSpaceOnUse">
      <rect id="pattern-line-131-1" class="pattern-line-131" fill="#000000" x="0" y="0" width="2560" height="960" />
      <path id="pattern-line-131-2" class="pattern-line-131" fill="#0000c0" d="M 1690,960 h 870 v -870 l -870,870" />
    </pattern>
    <pattern id="pattern-line-136" width="2560" height="960" patternUnits="userSpaceOnUse">
      <rect id="pattern-line-136-1" class="pattern-line-136" fill="#0000c0" x="0" y="0" width="2560" height="960" />
      <path id="pattern-line-136-2" class="pattern-line-136" fill="#000000" d="M 1770,960 h 120 l -770,-770 l 80,-80 v -20 l 100,-100 h -30 l -80,80 v 10 h -20 v 10 h -30 l -30,30 v 10 h -20 l -20,-20 v -10 h -20 l -60,60 v 20 l 780,780" />
    </pattern>
  </defs>
  <rect id="block-1" class="block" fill="#c0c0c0" x="0" y="0" width="2560" height="960" />
  <rect id="block-2" class="block" fill="#000000" x="1840" y="80" width="80" height="80" />
  <rect id="block-3" class="block" fill="#000000" x="1920" y="160" width="80" height="80" />
  <rect id="block-4" class="block" fill="#000000" x="1760" y="160" width="80" height="80" />
  <rect id="block-5" class="block" fill="#000000" x="2080" y="240" width="80" height="80" />
  <rect id="block-6" class="block" fill="#000000" x="2160" y="320" width="80" height="80" />
  <rect id="block-7" class="block" fill="#000000" x="1760" y="400" width="80" height="80" />
  <rect id="block-8" class="block" fill="#000000" x="2160" y="480" width="80" height="80" />
  <rect id="block-9" class="block" fill="#000000" x="1840" y="480" width="80" height="80" />
  <path id="area-1" class="area closed" fill="url(#fill-area-1)" stroke="none" d="M 1035,395 l 90,60 l 40,20 l 30,30 v 20 l -35,25 l -5,5 l 10,-5 l -30,25 l -20,20 v 30 l 60,40 l 110,110 l 155,185 h -840 v -25 l 45,-20 l 80,-60 l 80,-80 l 20,-30 v -20 l -100,-50 l -30,-40 l 30,-30 l 80,-30 l 80,-10 l 160,-30 l 40,-20 v -20 l -40,-30 l -80,-70 Z" />
  <path id="area-2" class="area closed" fill="#0000c0" stroke="none" d="M 1035,390 l 140,-15 l 20,-20 h 25 l -15,-30 v -20 l 20,-20 l 30,-10 h 10 l 20,-40 l 20,-20 h 40 l 40,10 l 20,20 v 30 h 30 l 30,30 l 20,-20 l 30,-10 h 10 l 20,-40 l 20,-20 h 40 l 40,10 l 20,20 v 30 h 40 v -30 l 10,-20 l 20,-10 v -20 l 10,-10 v -60 l 30,-40 l 10,-20 l 40,-40 h -1340 l 90,120 l 70,-40 l 50,60 l 30,-30 l 190,245 l 50,15 l -10,-10 h 70 Z
M 835,155 h 80 l -30,20 l 20,10 h 90 l 30,-10 l -20,20 l 40,-20 v 10 l 20,10 h 60 l 20,-10 l 30,10 h 30 l 40,-20 h 30 l 30,-10 l 40,-25 l 230,-5 l 20,-10 l -30,-20 l -300,-20 l -40,20 h -60 l 40,-10 l -20,-20 h -120 l -60,10 l 25,20 h -85 l -20,10 l -10,10 h -70 Z" />
  <path id="area-3" class="area closed" fill="#0000c0" stroke="none" d="M 360,145 l -35,-45 v 5 l -70,65 l -20,-25 l -80,90 l -30,-30 l -100,110 v -290 h 460 Z" />
  <path id="area-4" class="area closed" fill="#0000c0" stroke="none" d="M 1875,65 l 20,-20 l 40,-20 h -140 l 60,20 Z" />
  <path id="area-5" class="area closed" fill="#0000c0" stroke="none" d="M 2450,320 l 5,10 v 35 l 80,30 v -370 h -2510 l 1890,10 h 30 l 30,30 v 45 l 20,-5 h 10 l 20,10 l 10,20 v 20 l -30,30 h 30 l 20,20 v 20 l -5,25 l 5,5 l 20,-10 v -20 l 10,-10 v -60 l 30,-40 l 10,-20 l 30,-30 h 10 l 30,10 l 20,20 l 20,-20 l 20,-10 h 30 l 30,30 v 45 l 20,-5 h 10 l 20,10 l 10,20 v 20 l -30,30 h 30 l 20,20 v 10 l 20,30 l 10,20 l 20,10 Z" />
  <path id="line-6" class="line closed" fill="none" stroke="url(#pattern-line-6)" d="M 15,1005 h 2540 v -1000 h -2550 v 1000 Z" />
  <path id="line-7" class="line closed" fill="none" stroke="url(#pattern-line-7)" d="M 35,985 h 2500 v -960 h -2510 v 960 Z" />
  <path id="line-8" class="line" fill="none" stroke="url(#pattern-line-8)" d="M 535,975 l 110,-60 l 80,-60 l 80,-80 l 20,-30 v -20 l -100,-50 l -30,-40 l 30,-30 l 80,-30 l 80,-10 l 160,-30 l 40,-20 v -20 l -40,-30 l -90,-80 h 70 l 100,70 l 40,20 l 30,30 v 20 l -60,50 l -20,20 v 30 l 60,40 l 110,110 l 180,210" />
  <path id="line-9" class="line" fill="none" stroke="url(#pattern-line-9)" d="M 35,305 l 90,-100 l 70,70 l 20,-30 l 30,40" />
  <path id="line-10" class="line" fill="none" stroke="url(#pattern-line-10)" d="M 165,225 l 70,-80 l 40,50 l 50,-90 l -70,70" />
  <path id="line-11" class="line" fill="none" stroke="url(#pattern-line-11)" d="M 335,115 l 130,140" />
  <path id="line-12" class="line" fill="none" stroke="#000000" d="M 375,385 l 110,-150 l 30,60 l 30,-30 l 130,130" />
  <path id="line-13" class="line" fill="none" stroke="url(#pattern-line-13)" d="M 585,285 l 140,-150 l 200,260" />
  <path id="line-14" class="line" fill="none" stroke="url(#pattern-line-14)" d="M 685,195 l 20,20 l 20,-20 l 30,60 l 30,-50" />
  <path id="line-15" class="line" fill="none" stroke="url(#pattern-line-15)" d="M 375,135 l 110,-110 l 150,200" />
  <path id="line-16" class="line" fill="none" stroke="#0000c0" d="M 425,85 l 20,40 l 20,-20 l 30,50 l 30,-80" />
  <path id="line-17" class="line" fill="none" stroke="url(#pattern-line-17)" d="M 575,145 l 70,-40 l 50,60" />
  <path id="line-18" class="line" fill="none" stroke="#000000" d="M 45,655 l 20,-10 l 30,-10 h 20 l 40,10 l 30,10 l 30,20 l 20,20" />
  <path id="line-19" class="line" fill="none" stroke="#000000" d="M 205,645 h 10 l 60,-20 l 40,-10 h 40" />
  <path id="line-20" class="line" fill="none" stroke="#000000" d="M 155,635 l 30,-60 l -10,-30 h -10 l -20,-10 l -10,-10 v -20 l -10,20 h -20 l -10,-10 l 10,-20 l -20,-10 v -20 l 20,-20 h 20 l 20,10" />
  <path id="line-21" class="line" fill="none" stroke="#000000" d="M 125,435 l -10,-20 v -20 l 20,-20 l 30,-10 h 10 l 20,10 l -20,-10 l 10,-20 h 20 l 10,20 l -20,-40 l 20,-20 h 40 l 40,10 l 20,20 v 30 l -10,10 l 10,-10 h 30 l 20,20 l -10,20 l -20,30 l 20,20 v 20 l -30,10 l -10,-20 l 20,40 l -10,20 l -20,10 l -10,10 h -30 l -50,-50 l -10,20 l -30,30" />
  <path id="line-22" class="line" fill="none" stroke="#000000" d="M 215,635 l 10,-60 l 40,-30" />
  <path id="line-23" class="line" fill="none" stroke="#000000" d="M 205,545 l 10,10 l 10,-50" />
  <path id="line-24" class="line" fill="none" stroke="#000000" d="M 235,535 v 20 l 20,-20" />
  <path id="line-25" class="line closed" fill="none" stroke="#000000" d="M 145,635 l -30,-20 h 20 l 20,10 Z" />
  <path id="line-26" class="line" fill="none" stroke="#000000" d="M 135,605 l 10,-10 l 10,10 l -10,-10 v -10 l 20,-10 l 20,10" />
  <path id="line-27" class="line" fill="none" stroke="#000000" d="M 235,585 l 10,10 v 10 l -10,10 l 10,-10 l 20,10 l 10,10" />
  <path id="line-28" class="line" fill="none" stroke="#000000" d="M 155,435 l 20,10 h 10 l 10,-20 h 20 l 10,-10 l -10,-20" />
  <path id="line-29" class="line" fill="none" stroke="#000000" d="M 245,405 v 10 l 10,10 v -10 h 20 v 10 l 10,20 h 20 l 10,-10" />
  <path id="line-30" class="line" fill="none" stroke="#000000" d="M 1135,565 l 20,-10 l 30,-10 h 20 l 40,10 l 30,10 l 30,20 l 20,20" />
  <path id="line-31" class="line" fill="none" stroke="#000000" d="M 1295,555 h 10 l 60,-20 l 40,-10 h 40" />
  <path id="line-32" class="line" fill="none" stroke="url(#pattern-line-32)" d="M 1245,545 l 30,-60 l -10,-30 h -10 l -20,-10 l -10,-10 v -20 l -10,20 h -20 l -10,-10 l 10,-20 l -20,-10 v -20 l 20,-20 h 20 l 20,10" />
  <path id="line-33" class="line" fill="none" stroke="url(#pattern-line-33)" d="M 1215,345 l -10,-20 v -20 l 20,-20 l 30,-10 h 10 l 20,10 l -20,-10 l 10,-20 h 20 l 10,20 l -20,-40 l 20,-20 h 40 l 40,10 l 20,20 v 30 l -10,10 l 10,-10 h 30 l 20,20 l -10,20 l -20,30 l 20,20 v 20 l -30,10 l -10,-20 l 20,40 l -10,20 l -20,10 l -10,10 h -30 l -50,-50 l -10,20 l -30,30" />
  <path id="line-34" class="line" fill="none" stroke="#000000" d="M 1305,545 l 10,-60 l 40,-30" />
  <path id="line-35" class="line" fill="none" stroke="#000000" d="M 1295,455 l 10,10 l 10,-50" />
  <path id="line-36" class="line" fill="none" stroke="#000000" d="M 1325,445 v 20 l 20,-20" />
  <path id="line-37" class="line closed" fill="none" stroke="#000000" d="M 1235,545 l -30,-20 h 20 l 20,10 Z" />
  <path id="line-38" class="line" fill="none" stroke="#000000" d="M 1225,515 l 10,-10 l 10,10 l -10,-10 v -10 l 20,-10 l 20,10" />
  <path id="line-39" class="line" fill="none" stroke="#000000" d="M 1325,495 l 10,10 v 10 l -10,10 l 10,-10 l 20,10 l 10,10" />
  <path id="line-40" class="line" fill="none" stroke="url(#pattern-line-40)" d="M 1245,345 l 20,10 h 10 l 10,-20 h 20 l 10,-10 l -10,-20" />
  <path id="line-41" class="line" fill="none" stroke="#000000" d="M 1335,315 v 10 l 10,10 v -10 h 20 v 10 l 10,20 h 20 l 10,-10" />
  <path id="line-42" class="line" fill="none" stroke="#000000" d="M 1395,565 l 20,-10 l 30,-10 h 20 l 40,10 l 30,10 l 30,20 l 20,20" />
  <path id="line-43" class="line" fill="none" stroke="#000000" d="M 1555,555 h 10 l 60,-20 l 40,-10 h 40" />
  <path id="line-44" class="line" fill="none" stroke="#000000" d="M 1505,545 l 30,-60 l -10,-30 h -10 l -20,-10 l -10,-10 v -20 l -10,20 h -20 l -10,-10 l 10,-20 l -20,-10 v -20 l 20,-20 h 20 l 20,10" />
  <path id="line-45" class="line" fill="none" stroke="url(#pattern-line-45)" d="M 1475,345 l -10,-20 v -20 l 20,-20 l 30,-10 h 10 l 20,10 l -20,-10 l 10,-20 h 20 l 10,20 l -20,-40 l 20,-20 h 40 l 40,10 l 20,20 v 30 l -10,10 l 10,-10 h 30 l 20,20 l -10,20 l -20,30 l 20,20 v 20 l -30,10 l -10,-20 l 20,40 l -10,20 l -20,10 l -10,10 h -30 l -50,-50 l -10,20 l -30,30" />
  <path id="line-46" class="line" fill="none" stroke="#000000" d="M 1565,545 l 10,-60 l 40,-30" />
  <path id="line-47" class="line" fill="none" stroke="#000000" d="M 1555,455 l 10,10 l 10,-50" />
  <path id="line-48" class="line" fill="none" stroke="#000000" d="M 1585,445 v 20 l 20,-20" />
  <path id="line-49" class="line closed" fill="none" stroke="#000000" d="M 1495,545 l -30,-20 h 20 l 20,10 Z" />
  <path id="line-50" class="line" fill="none" stroke="#000000" d="M 1485,515 l 10,-10 l 10,10 l -10,-10 v -10 l 20,-10 l 20,10" />
  <path id="line-51" class="line" fill="none" stroke="#000000" d="M 1585,495 l 10,10 v 10 l -10,10 l 10,-10 l 20,10 l 10,10" />
  <path id="line-52" class="line" fill="none" stroke="url(#pattern-line-52)" d="M 1505,345 l 20,10 h 10 l 10,-20 h 20 l 10,-10 l -10,-20" />
  <path id="line-53" class="line" fill="none" stroke="url(#pattern-line-53)" d="M 1595,315 v 10 l 10,10 v -10 h 20 v 10 l 10,20 h 20 l 10,-10" />
  <path id="line-54" class="line" fill="none" stroke="url(#pattern-line-54)" d="M 1685,435 l 30,10 l 40,10 h 20 l 40,40 l 20,10 l 30,10 l 50,-10 l 30,-10 h 50 l 40,10 l 40,20" />
  <path id="line-55" class="line" fill="none" stroke="url(#pattern-line-55)" d="M 1825,485 l 10,-20 l -10,-40 l -10,-50 l -60,-60 l 30,10 v -20 h 10 l 10,-20 l 20,60 l 10,10 l 20,-10 v -30 l -10,-40 l -20,-30 l 30,20 v -10 l 10,10 l 10,-30 v 70 l 10,20 h 10 l 20,-50 v 10 l 10,10 l 20,-10 v -10 l 20,10 l -50,40 l -20,20 l -10,20 l -20,20 l -10,30 l 20,100" />
  <path id="line-56" class="line" fill="none" stroke="url(#pattern-line-56)" d="M 1815,425 h -10 l -10,-10 l -10,-20 l 20,-20" />
  <path id="line-57" class="line" fill="none" stroke="url(#pattern-line-57)" d="M 1775,365 h -10 l -30,-20 l -20,-20 l -10,-30 v -50 l 10,-20 l 20,-10 h 10 l 20,20" />
  <path id="line-58" class="line" fill="none" stroke="url(#pattern-line-58)" d="M 1735,205 v -10 l 20,-20 l 10,-20 h 10 l 30,10" />
  <path id="line-59" class="line" fill="none" stroke="#0000c0" d="M 1745,165 v -40 l 20,-30 h 20 l 20,10 v 10" />
  <path id="line-60" class="line" fill="none" stroke="url(#pattern-line-60)" d="M 1775,85 l 10,-20 l 30,-30 h 10 l 30,10 l 20,20 v 20" />
  <path id="line-61" class="line" fill="none" stroke="url(#pattern-line-61)" d="M 1885,55 l 10,-10 l 20,-10 h 30 l 30,30 v 30 l -10,20 l 30,-10 h 10 l 20,10 l 10,20 v 20 l -20,20 l -20,10" />
  <path id="line-62" class="line" fill="none" stroke="url(#pattern-line-62)" d="M 2025,185 h 10 l 20,20 v 20 l -10,20 l -20,20 l -20,10 l 10,10 l 10,20 l -20,20 l -30,10 h -20 l -30,-10" />
  <path id="line-63" class="line" fill="none" stroke="#000000" d="M 2005,335 v 10 v -10 l 50,-10" />
  <path id="line-64" class="line" fill="none" stroke="#000000" d="M 1975,345 v 20 l -10,20 l -20,-30" />
  <path id="line-65" class="line" fill="none" stroke="#000000" d="M 1945,485 v -90 l -10,-10 h -20" />
  <path id="line-66" class="line" fill="none" stroke="#000000" d="M 1975,485 v -70 l 30,-20 l 20,-30 l 50,-30" />
  <path id="line-67" class="line" fill="none" stroke="url(#pattern-line-67)" d="M 2115,295 v 30 l -20,30 l -20,10 v 20 l -20,20 h -30" />
  <path id="line-68" class="line" fill="none" stroke="#000000" d="M 1935,415 l -20,10 h -20 l -10,-10" />
  <path id="line-69" class="line" fill="none" stroke="#000000" d="M 1685,435 l 30,-10 l 20,-10 l 20,-20 l 20,-10" />
  <path id="line-70" class="line" fill="none" stroke="url(#pattern-line-70)" d="M 2025,465 l 30,10 l 40,10 h 20 l 40,40 l 20,10 l 30,10 l 50,-10 l 30,-10 h 50 l 40,10 l 40,20" />
  <path id="line-71" class="line" fill="none" stroke="url(#pattern-line-71)" d="M 2165,515 l 10,-20 l -10,-40 l -10,-50 l -60,-60 l 30,10 v -20 h 10 l 10,-20 l 20,60 l 10,10 l 20,-10 v -30 l -10,-40 l -20,-30 l 30,20 v -10 l 10,10 l 10,-30 v 70 l 10,20 h 10 l 20,-50 v 10 l 10,10 l 20,-10 v -10 l 20,10 l -50,40 l -20,20 l -10,20 l -20,20 l -10,30 l 20,100" />
  <path id="line-72" class="line" fill="none" stroke="#000000" d="M 2155,455 h -10 l -10,-10 l -10,-20 l 20,-20" />
  <path id="line-73" class="line" fill="none" stroke="url(#pattern-line-73)" d="M 2115,395 h -10 l -30,-20 l -20,-20 l -10,-30 v -50 l 10,-20 l 20,-10 h 10 l 20,20" />
  <path id="line-74" class="line" fill="none" stroke="#0000c0" d="M 2075,235 v -10 l 20,-20 l 10,-20 h 10 l 30,10" />
  <path id="line-75" class="line" fill="none" stroke="#0000c0" d="M 2085,195 v -40 l 20,-30 h 20 l 20,10 v 10" />
  <path id="line-76" class="line" fill="none" stroke="#0000c0" d="M 2115,115 l 10,-20 l 30,-30 h 10 l 30,10 l 20,20 v 20" />
  <path id="line-77" class="line" fill="none" stroke="#0000c0" d="M 2225,85 l 10,-10 l 20,-10 h 30 l 30,30 v 30 l -10,20 l 30,-10 h 10 l 20,10 l 10,20 v 20 l -20,20 l -20,10" />
  <path id="line-78" class="line" fill="none" stroke="url(#pattern-line-78)" d="M 2365,215 h 10 l 20,20 v 20 l -10,20 l -20,20 l -20,10 l 10,10 l 10,20 l -20,20 l -30,10 h -20 l -30,-10" />
  <path id="line-79" class="line" fill="none" stroke="#000000" d="M 2345,365 v 10 v -10 l 50,-10" />
  <path id="line-80" class="line" fill="none" stroke="#000000" d="M 2315,375 v 20 l -10,20 l -20,-30" />
  <path id="line-81" class="line" fill="none" stroke="#000000" d="M 2285,515 v -90 l -10,-10 h -20" />
  <path id="line-82" class="line" fill="none" stroke="url(#pattern-line-82)" d="M 2315,515 v -70 l 30,-20 l 20,-30 l 50,-30" />
  <path id="line-83" class="line" fill="none" stroke="url(#pattern-line-83)" d="M 2455,325 v 30 l -20,30 l -20,10 v 20 l -20,20 h -30" />
  <path id="line-84" class="line" fill="none" stroke="#000000" d="M 2275,445 l -20,10 h -20 l -10,-10" />
  <path id="line-85" class="line" fill="none" stroke="#000000" d="M 2025,465 l 30,-10 l 20,-10 l 20,-20 l 20,-10" />
  <path id="line-86" class="line closed" fill="none" stroke="#000000" d="M 625,565 l -10,10 h -30 l -10,-20 l -20,-10 l 30,-20 v 10 v -10 h 40 l 10,30 Z" />
  <path id="line-87" class="line" fill="none" stroke="#000000" d="M 605,515 l -40,-20 l -30,-10 l -20,20 l -20,-10 h 10 l 10,10 l -10,20" />
  <path id="line-88" class="line" fill="none" stroke="#000000" d="M 545,545 h -10 l -20,-10 l -20,-20 l -20,-50 l -10,-10 h -20 v 10 h -20 l -20,30 l 10,20 v 30 l 30,20 h 40 v -20 l 30,-10" />
  <path id="line-89" class="line" fill="none" stroke="#000000" d="M 515,555 h 20 v -10" />
  <path id="line-90" class="line" fill="none" stroke="#000000" d="M 405,515 h -10 l -20,10 l -10,-10 h -20 l -30,30 l 30,20 h 30" />
  <path id="line-91" class="line closed" fill="none" stroke="#000000" d="M 405,535 v 40 h -20 l -30,-40 l 40,-10 Z" />
  <path id="line-92" class="line" fill="none" stroke="#000000" d="M 355,505 l 20,-10 l 20,20" />
  <path id="line-93" class="line" fill="none" stroke="#000000" d="M 535,515 h 30 v -10" />
  <path id="line-94" class="line closed" fill="none" stroke="#000000" d="M 435,495 h 10 Z" />
  <path id="line-95" class="line" fill="none" stroke="#000000" d="M 455,485 l 0,0" />
  <path id="line-96" class="line" fill="none" stroke="#000000" d="M 455,515 l 10,-10 l 10,20" />
  <path id="line-97" class="line closed" fill="none" stroke="#000000" d="M 845,535 l -10,10 h -30 l -10,-20 l -20,-10 l 30,-20 v 10 v -10 h 40 l 10,30 Z" />
  <path id="line-98" class="line" fill="none" stroke="#000000" d="M 825,485 l -40,-20 l -30,-10 l -20,20 l -20,-10 h 10 l 10,10 l -10,20" />
  <path id="line-99" class="line" fill="none" stroke="#000000" d="M 765,515 h -10 l -20,-10 l -20,-20 l -20,-50 l -10,-10 h -20 v 10 h -20 l -20,30 l 10,20 v 30 l 30,20 h 40 v -20 l 30,-10" />
  <path id="line-100" class="line" fill="none" stroke="#000000" d="M 735,525 h 20 v -10" />
  <path id="line-101" class="line" fill="none" stroke="#000000" d="M 625,485 h -10 l -20,10 l -10,-10 h -20 l -30,30 l 30,20 h 30" />
  <path id="line-102" class="line closed" fill="none" stroke="#000000" d="M 625,505 v 40 h -20 l -30,-40 l 40,-10 Z" />
  <path id="line-103" class="line" fill="none" stroke="#000000" d="M 575,475 l 20,-10 l 20,20" />
  <path id="line-104" class="line" fill="none" stroke="#000000" d="M 755,485 h 30 v -10" />
  <path id="line-105" class="line closed" fill="none" stroke="#000000" d="M 655,465 h 10 Z" />
  <path id="line-106" class="line" fill="none" stroke="#000000" d="M 675,455 l 0,0" />
  <path id="line-107" class="line" fill="none" stroke="#000000" d="M 675,485 l 10,-10 l 10,20" />
  <path id="line-108" class="line closed" fill="none" stroke="#000000" d="M 1055,505 l -10,10 h -30 l -10,-20 l -20,-10 l 30,-20 v 10 v -10 h 40 l 10,30 Z" />
  <path id="line-109" class="line" fill="none" stroke="#000000" d="M 1035,455 l -40,-20 l -30,-10 l -20,20 l -20,-10 h 10 l 10,10 l -10,20" />
  <path id="line-110" class="line" fill="none" stroke="url(#pattern-line-110)" d="M 975,485 h -10 l -20,-10 l -20,-20 l -20,-50 l -10,-10 h -20 v 10 h -20 l -20,30 l 10,20 v 30 l 30,20 h 40 v -20 l 30,-10" />
  <path id="line-111" class="line" fill="none" stroke="#000000" d="M 945,495 h 20 v -10" />
  <path id="line-112" class="line" fill="none" stroke="#000000" d="M 835,455 h -10 l -20,10 l -10,-10 h -20 l -30,30 l 30,20 h 30" />
  <path id="line-113" class="line closed" fill="none" stroke="#000000" d="M 835,475 v 40 h -20 l -30,-40 l 40,-10 Z" />
  <path id="line-114" class="line" fill="none" stroke="#000000" d="M 785,445 l 20,-10 l 20,20" />
  <path id="line-115" class="line" fill="none" stroke="#000000" d="M 965,455 h 30 v -10" />
  <path id="line-116" class="line closed" fill="none" stroke="#000000" d="M 865,435 h 10 Z" />
  <path id="line-117" class="line" fill="none" stroke="#000000" d="M 885,425 l 0,0" />
  <path id="line-118" class="line" fill="none" stroke="#000000" d="M 885,455 l 10,-10 l 10,20" />
  <path id="line-119" class="line" fill="none" stroke="#000000" d="M 1475,725 l -10,-10 v -20 l 10,-20 l 10,-10 l 20,20" />
  <path id="line-120" class="line" fill="none" stroke="#000000" d="M 1475,655 l 10,-20 l 20,-10 l 20,10 h 20 l 10,20 l -10,20 l 10,10" />
  <path id="line-121" class="line" fill="none" stroke="#000000" d="M 1565,655 h 10 l 40,20 v 10 l -10,20 l 10,20 v 10" />
  <path id="line-122" class="line" fill="none" stroke="#000000" d="M 1595,705 h -10 l -20,10 v 20 v -10 l -10,10 h -20 l -20,-20 l -10,20 h -20" />
  <path id="line-123" class="line" fill="none" stroke="#000000" d="M 1595,645 l 10,-10 h 20 l 20,10 l 10,20 l -10,30 l 20,-20 h 20 l 20,20 v 20 l -10,20 h -130" />
  <path id="line-124" class="line" fill="none" stroke="#000000" d="M 2095,845 l -10,-10 v -20 l 10,-20 l 10,-10 l 20,20" />
  <path id="line-125" class="line" fill="none" stroke="#000000" d="M 2095,775 l 10,-20 l 20,-10 l 20,10 h 20 l 10,20 l -10,20 l 10,10" />
  <path id="line-126" class="line" fill="none" stroke="#000000" d="M 2185,775 h 10 l 40,20 v 10 l -10,20 l 10,20 v 10" />
  <path id="line-127" class="line" fill="none" stroke="#000000" d="M 2215,825 h -10 l -20,10 v 20 v -10 l -10,10 h -20 l -20,-20 l -10,20 h -20" />
  <path id="line-128" class="line" fill="none" stroke="#000000" d="M 2215,765 l 10,-10 h 20 l 20,10 l 10,20 l -10,30 l 20,-20 h 20 l 20,20 v 20 l -10,20 h -130" />
  <path id="line-129" class="line" fill="none" stroke="#0000c0" d="M 925,385 l 40,10" />
  <path id="line-130" class="line" fill="none" stroke="#0000c0" d="M 1035,395 l 140,-20" />
  <path id="line-131" class="line" fill="none" stroke="url(#pattern-line-131)" d="M 2445,315 v -10 l -20,-10 l -10,-20 l -20,-30" />
  <path id="line-132" class="line" fill="none" stroke="#0000c0" d="M 2455,365 l 70,30 h 10" />
  <path id="line-133" class="line" fill="none" stroke="#000000" d="M 35,465 l 60,20" />
  <path id="line-134" class="line" fill="none" stroke="#000000" d="M 685,405 l 60,60" />
  <path id="line-135" class="line" fill="none" stroke="#0000c0" d="M 835,155 h 110 h -30 l -30,20 l 20,10 h 90 l 30,-10 l 10,-10 h -20 h 60 h -10 l -20,10 v 10 l 20,10 h 60 l 20,-10 l -10,-10 l 10,10 l 30,10 h 30 l 20,-10 v -10 h -30 h 80 l 30,-10 l 20,-10 v -10 l -10,-10 l 10,10 l 250,-10 l 20,-10 l -30,-20 l -300,-20 l -20,10 v 20 l 30,20" />
  <path id="line-136" class="line" fill="none" stroke="url(#pattern-line-136)" d="M 1235,105 h -70 l 40,-10 l -20,-20 h -120 l -60,10 l 40,30 l -10,-10 h -90 l -20,10 l -10,10 l 20,10 l -20,-10 h -70 l -20,20" />
  <path id="line-137" class="line" fill="none" stroke="#000000" d="M 1045,135 h 50 l -10,10 v 10 h 60 l 20,-10 v -10 l -10,-10 l -50,-20" />
  <path id="line-138" class="line" fill="none" stroke="#0000c0" d="M 1025,395 h -70" />
</svg>
